# Blender v2.83.0 OBJ File: ''
# www.blender.org
mtllib squareduct_2.mtl
v -1.119972 0.553701 -0.282476
v -1.119972 0.055782 -0.282476
v -1.119972 0.030955 -0.307027
v -1.119972 0.587217 0.248960
v -1.119972 0.587217 -0.248960
v -1.119972 0.611768 -0.273786
v -1.119972 0.611768 0.273787
v 1.116662 0.022266 0.248960
v -1.119972 0.022266 0.248960
v -1.119972 0.022266 -0.248960
v 1.116662 0.022266 -0.248960
v -1.119972 0.034128 -0.270614
v 1.116662 0.034128 -0.270614
v 1.116662 0.587217 0.248960
v -1.119972 0.575355 0.270614
v 1.116662 0.575355 0.270614
v -1.119972 0.553701 0.282476
v 1.116662 0.553701 0.282476
v 1.116662 0.055782 0.282476
v -1.119972 0.055782 0.282476
v -1.119972 0.034127 0.270614
v 1.116662 0.034127 0.270614
v 1.116662 0.055782 -0.282476
v 1.116662 0.553701 -0.282476
v -1.119972 0.575356 -0.270614
v 1.116662 0.575356 -0.270614
v 1.116662 0.587217 -0.248960
v 1.129903 0.084747 -0.219995
v 1.129903 -0.008906 -0.280131
v 1.129903 0.002956 -0.301786
v 1.129903 -0.008906 0.280131
v 1.129903 0.084747 0.219995
v 1.129903 0.002956 0.301786
v 1.129903 0.024610 0.313647
v 1.129903 0.584873 0.313647
v 1.129903 0.524736 0.219995
v 1.129903 0.606527 0.301786
v 1.129903 0.618389 0.280131
v 1.129903 0.618389 -0.280131
v 1.129903 0.524736 -0.219995
v 1.129903 0.606527 -0.301786
v 1.129903 0.584873 -0.313647
v 1.129903 0.024610 -0.313647
v -1.119972 0.578528 0.307027
v -1.119972 0.030955 0.307027
v -1.129903 0.618389 -0.280131
v -1.129903 0.618389 0.280131
v -1.125489 0.618389 0.280131
v -1.125489 0.618389 -0.280131
v -1.129903 -0.008906 0.280131
v -1.129903 -0.008906 -0.280131
v -1.125489 -0.008906 -0.280131
v -1.125489 -0.008906 0.280131
v -0.012750 0.577149 0.305923
v -0.006125 0.583631 0.312268
v -0.006125 0.605148 0.300406
v -0.012750 0.599907 0.295165
v -0.006125 0.617010 0.278890
v -0.012750 0.610665 0.272407
v -0.006125 0.617010 -0.278890
v -0.012750 0.610665 -0.272407
v -0.006125 0.605148 -0.300406
v -0.012750 0.599907 -0.295165
v -0.006125 0.583631 -0.312268
v -0.012750 0.577149 -0.305923
v -0.006125 0.025852 -0.312268
v -0.012750 0.032334 -0.305923
v -0.006125 0.004335 -0.300406
v 0.002741 0.605148 -0.300406
v 0.002741 0.583631 -0.312268
v 0.002741 0.025852 -0.312268
v 0.002741 0.004335 -0.300406
v -0.012750 0.055782 -0.282476
v -0.012750 0.553701 -0.282476
v -0.012750 0.034128 -0.270614
v -0.012750 0.009576 -0.295165
v -0.006125 -0.007527 -0.278890
v 0.002741 -0.007527 -0.278890
v 0.009362 -0.001182 -0.272407
v 0.009362 0.009576 -0.295165
v -0.012750 -0.001182 -0.272407
v -0.006125 -0.007527 0.278890
v -0.012750 -0.001182 0.272407
v -0.012750 0.022266 -0.248960
v -0.012750 0.022266 0.248960
v -0.012750 0.034127 0.270614
v -0.012750 0.009576 0.295165
v -0.006125 0.004335 0.300406
v 0.002741 -0.007527 0.278890
v 0.009362 0.022266 0.248960
v 0.009362 0.034127 0.270614
v 0.009362 0.009576 0.295165
v 0.009362 -0.001182 0.272407
v 0.002741 0.004335 0.300406
v 0.009362 0.022266 -0.248960
v 0.009362 0.034128 -0.270614
v 0.009362 0.055782 -0.282476
v 0.009362 0.032334 -0.305923
v 0.009362 0.553701 -0.282476
v 0.009362 0.577149 -0.305923
v 0.009362 0.575356 -0.270614
v 0.009362 0.599907 -0.295165
v 0.002741 0.617010 -0.278890
v 0.009362 0.610665 -0.272407
v 0.002741 0.617010 0.278890
v 0.009362 0.610665 0.272407
v 0.009362 0.587217 -0.248960
v 0.009362 0.587217 0.248960
v 0.009362 0.575355 0.270614
v 0.009362 0.599907 0.295165
v 0.009362 0.553701 0.282476
v 0.009362 0.577149 0.305923
v 0.009362 0.055782 0.282476
v 0.002741 0.605148 0.300406
v 0.002741 0.583631 0.312268
v 0.002741 0.025852 0.312268
v 0.009362 0.032334 0.305923
v -0.006125 0.025852 0.312268
v -0.012750 0.032334 0.305923
v -0.012750 0.553701 0.282476
v -0.012750 0.055782 0.282476
v -0.012750 0.575355 0.270614
v -0.012750 0.587217 0.248960
v -0.012750 0.587217 -0.248960
v -0.012750 0.575356 -0.270614
v 0.719982 0.025852 0.312268
v 0.719982 0.004335 0.300406
v 0.728810 0.004335 0.300406
v 0.713362 0.009576 0.295165
v 0.713362 0.032334 0.305923
v 0.713362 0.055782 0.282476
v 0.713362 0.553701 0.282476
v 0.713362 0.034127 0.270614
v 0.735430 0.009576 0.295165
v 0.735430 0.032334 0.305923
v 0.728810 0.025852 0.312268
v 0.719982 0.583631 0.312268
v 0.713362 0.577149 0.305923
v 0.713362 0.575355 0.270614
v 0.713362 0.599907 0.295165
v 0.713362 0.587217 0.248960
v 0.713362 0.610665 -0.272407
v 0.719982 0.617010 -0.278890
v 0.719982 0.605148 -0.300406
v 0.713362 0.610665 0.272407
v 0.719982 0.617010 0.278890
v 0.719982 0.605148 0.300406
v 0.728810 0.583631 0.312268
v 0.735430 0.577149 0.305923
v 0.728810 0.617010 0.278890
v 0.728810 0.605148 0.300406
v 0.735430 0.599907 -0.295165
v 0.728810 0.605148 -0.300406
v 0.728810 0.617010 -0.278890
v 0.735430 0.610665 -0.272407
v 0.735430 0.610665 0.272407
v 0.735430 0.599907 0.295165
v 0.735430 0.587217 0.248960
v 0.735430 0.587217 -0.248960
v 0.735430 0.575355 0.270614
v 0.735430 0.553701 0.282476
v 0.735430 0.055782 0.282476
v 0.735430 0.034127 0.270614
v 0.735430 0.034128 -0.270614
v 0.735430 0.022266 -0.248960
v 0.735430 -0.001182 -0.272407
v 0.735430 0.009576 -0.295165
v 0.735430 0.055782 -0.282476
v 0.735430 0.032334 -0.305923
v 0.735430 0.553701 -0.282476
v 0.735430 0.577149 -0.305923
v 0.735430 0.575356 -0.270614
v 0.735430 -0.001182 0.272407
v 0.728810 -0.007527 0.278890
v 0.728810 -0.007527 -0.278890
v 0.728810 0.004335 -0.300406
v 0.728810 0.025852 -0.312268
v 0.728810 0.583631 -0.312268
v 0.719982 0.583631 -0.312268
v 0.719982 0.025852 -0.312268
v 0.719982 0.004335 -0.300406
v 0.719982 -0.007527 -0.278890
v 0.713362 -0.001182 -0.272407
v 0.719982 -0.007527 0.278890
v 0.713362 0.009576 -0.295165
v 0.713362 0.032334 -0.305923
v 0.713362 0.577149 -0.305923
v 0.713362 0.599907 -0.295165
v 0.713362 0.587217 -0.248960
v 0.713362 0.575356 -0.270614
v 0.713362 0.553701 -0.282476
v 0.713362 0.055782 -0.282476
v 0.713362 0.034128 -0.270614
v 0.713362 0.022266 -0.248960
v 0.713362 0.022266 0.248960
v 0.713362 -0.001182 0.272407
v 0.735430 0.022266 0.248960
v -0.581503 0.617010 -0.278890
v -0.588123 0.610665 -0.272407
v -0.588123 0.610665 0.272407
v -0.581503 0.617010 0.278890
v -0.588123 0.599907 0.295165
v -0.581503 0.605148 0.300406
v -0.588123 0.577149 0.305923
v -0.581503 0.583631 0.312268
v -0.588123 0.032334 0.305923
v -0.588123 0.553701 0.282476
v -0.588123 0.575355 0.270614
v -0.588123 0.587217 0.248960
v -0.588123 0.587217 -0.248960
v -0.588123 0.575356 -0.270614
v -0.588123 0.599907 -0.295165
v -0.588123 0.055782 0.282476
v -0.588123 0.009576 0.295165
v -0.581503 0.025852 0.312268
v -0.581503 0.004335 0.300406
v -0.572675 0.004335 0.300406
v -0.588123 0.034127 0.270614
v -0.566055 0.599907 0.295165
v -0.566055 0.577149 0.305923
v -0.566055 0.553701 0.282476
v -0.566055 0.055782 0.282476
v -0.566055 0.032334 0.305923
v -0.566055 0.034127 0.270614
v -0.566055 0.009576 0.295165
v -0.572675 0.025852 0.312268
v -0.566055 0.610665 0.272407
v -0.572675 0.617010 0.278890
v -0.572675 0.605148 0.300406
v -0.572675 0.583631 0.312268
v -0.572675 0.617010 -0.278890
v -0.581503 0.605148 -0.300406
v -0.572675 0.605148 -0.300406
v -0.581503 0.583631 -0.312268
v -0.566055 0.009576 -0.295165
v -0.572675 0.004335 -0.300406
v -0.572675 0.025852 -0.312268
v -0.566055 0.032334 -0.305923
v -0.572675 0.583631 -0.312268
v -0.566055 0.577149 -0.305923
v -0.566055 0.599907 -0.295165
v -0.566055 0.610665 -0.272407
v -0.566055 0.553701 -0.282476
v -0.566055 0.575356 -0.270614
v -0.566055 0.587217 -0.248960
v -0.566055 0.587217 0.248960
v -0.566055 0.575355 0.270614
v -0.572675 -0.007527 0.278890
v -0.566055 -0.001182 0.272407
v -0.566055 0.022266 0.248960
v -0.566055 0.022266 -0.248960
v -0.566055 -0.001182 -0.272407
v -0.566055 0.034128 -0.270614
v -0.566055 0.055782 -0.282476
v -0.588123 0.022266 0.248960
v -0.588123 -0.001182 0.272407
v -0.581503 -0.007527 0.278890
v -0.572675 -0.007527 -0.278890
v -0.581503 0.025852 -0.312268
v -0.581503 0.004335 -0.300406
v -0.581503 -0.007527 -0.278890
v -0.588123 -0.001182 -0.272407
v -0.588123 0.009576 -0.295165
v -0.588123 0.032334 -0.305923
v -0.588123 0.577149 -0.305923
v -0.588123 0.553701 -0.282476
v -0.588123 0.055782 -0.282476
v -0.588123 0.034128 -0.270614
v -0.588123 0.022266 -0.248960
v -1.129903 0.084747 0.219995
v -1.129903 0.002956 0.301786
v -1.129903 0.024610 0.313647
v -1.129903 0.524736 0.219995
v -1.129903 0.584873 0.313647
v -1.129903 0.606527 0.301786
v -1.129903 0.524736 -0.219995
v -1.129903 0.606527 -0.301786
v -1.129903 0.584873 -0.313647
v -1.129903 0.084747 -0.219995
v -1.129903 0.024610 -0.313647
v -1.129903 0.002956 -0.301786
v 1.124386 0.606527 -0.301786
v 1.116662 0.601010 -0.296268
v 1.116662 0.611768 -0.273786
v 1.124386 0.618389 -0.280131
v 1.116662 0.611768 0.273787
v 1.124386 0.618389 0.280131
v 1.124386 0.584873 -0.313647
v 1.124386 -0.008906 0.280131
v 1.116662 -0.002285 0.273786
v 1.116662 -0.002285 -0.273787
v 1.124386 -0.008906 -0.280131
v 1.116662 0.008473 -0.296269
v 1.124386 0.002956 -0.301786
v 1.116662 0.030955 -0.307027
v 1.124386 0.024610 -0.313647
v 1.116662 0.578528 -0.307027
v 1.124386 0.002956 0.301786
v 1.116662 0.601010 0.296269
v 1.124386 0.606527 0.301786
v 1.116662 0.578528 0.307027
v 1.124386 0.584873 0.313647
v 1.116662 0.030955 0.307027
v 1.124386 0.024610 0.313647
v 1.116662 0.008473 0.296268
v -1.125489 0.024610 0.313647
v -1.125489 0.002956 0.301786
v -1.119972 0.008473 0.296268
v -1.119972 -0.002285 0.273786
v -1.125489 0.584873 0.313647
v -1.125489 0.606527 0.301786
v -1.119972 0.601010 -0.296268
v -1.125489 0.606527 -0.301786
v -1.119972 0.601010 0.296269
v -1.125489 0.584873 -0.313647
v -1.125489 0.024610 -0.313647
v -1.125489 0.002956 -0.301786
v -1.119972 -0.002285 -0.273787
v -1.119972 0.008473 -0.296269
v -1.119972 0.578528 -0.307027
vt 0.484900 0.006300
vt 0.679700 0.006300
vt 0.686000 0.017600
vt 0.263400 0.005400
vt 0.452400 0.005900
vt 0.461200 0.016600
vt 0.253700 0.017100
vt 0.014900 0.346200
vt 0.893600 0.346200
vt 0.893600 0.150400
vt 0.014900 0.150400
vt 0.893600 0.141600
vt 0.014900 0.141600
vt 0.014900 0.575700
vt 0.893600 0.575700
vt 0.893600 0.567100
vt 0.014900 0.567100
vt 0.893600 0.558600
vt 0.014900 0.558600
vt 0.014900 0.363300
vt 0.893600 0.363300
vt 0.893600 0.354500
vt 0.014900 0.354500
vt 0.014900 0.992400
vt 0.893600 0.992400
vt 0.893600 0.983900
vt 0.014900 0.983900
vt 0.014900 0.788200
vt 0.893600 0.788200
vt 0.893600 0.779800
vt 0.014900 0.779800
vt 0.893600 0.771200
vt 0.014900 0.771200
vt 0.982900 0.981200
vt 0.992700 0.996500
vt 0.996600 0.994600
vt 0.900900 0.996500
vt 0.910600 0.981200
vt 0.897500 0.994600
vt 0.895000 0.991000
vt 0.895000 0.899000
vt 0.910600 0.908900
vt 0.897500 0.895400
vt 0.900900 0.893600
vt 0.992700 0.893600
vt 0.982900 0.908900
vt 0.996600 0.895400
vt 0.998000 0.899000
vt 0.998000 0.991000
vt 0.236700 0.017600
vt 0.029300 0.018600
vt 0.037300 0.007800
vt 0.915500 0.023400
vt 0.703600 0.023400
vt 0.702600 0.021500
vt 0.915000 0.021500
vt 0.462600 0.022900
vt 0.252200 0.022900
vt 0.252200 0.020500
vt 0.462900 0.020500
vt 0.226200 0.127000
vt 0.227300 0.123500
vt 0.234500 0.123500
vt 0.234600 0.127000
vt 0.241300 0.123500
vt 0.243000 0.127000
vt 0.455600 0.123500
vt 0.454100 0.127400
vt 0.462200 0.123500
vt 0.462200 0.127400
vt 0.469000 0.123500
vt 0.470500 0.127400
vt 0.683100 0.123500
vt 0.681600 0.127400
vt 0.689900 0.123000
vt 0.462200 0.119600
vt 0.469000 0.119600
vt 0.683100 0.119600
vt 0.689900 0.119600
vt 0.675300 0.138700
vt 0.476600 0.138700
vt 0.689900 0.138700
vt 0.689900 0.127400
vt 0.697300 0.123000
vt 0.697300 0.119600
vt 0.698200 0.115700
vt 0.689900 0.115700
vt 0.698200 0.127400
vt 0.913100 0.123000
vt 0.910200 0.126500
vt 0.708000 0.138700
vt 0.900900 0.135700
vt 0.909700 0.139600
vt 0.919400 0.129400
vt 0.921900 0.124000
vt 0.913100 0.120100
vt 0.900900 0.107400
vt 0.909700 0.103500
vt 0.919400 0.113800
vt 0.910200 0.116700
vt 0.921900 0.118700
vt 0.706100 0.104500
vt 0.689500 0.104000
vt 0.675300 0.104500
vt 0.681600 0.115700
vt 0.482200 0.104500
vt 0.470500 0.115700
vt 0.462200 0.104000
vt 0.462200 0.115700
vt 0.455600 0.120100
vt 0.454100 0.115700
vt 0.241300 0.120100
vt 0.243000 0.115700
vt 0.444600 0.104500
vt 0.251500 0.105000
vt 0.234700 0.104500
vt 0.234600 0.115700
vt 0.220600 0.105500
vt 0.226200 0.116200
vt 0.023800 0.106900
vt 0.234500 0.120100
vt 0.227300 0.120100
vt 0.011500 0.120100
vt 0.014500 0.116200
vt 0.014500 0.103000
vt 0.005200 0.113800
vt 0.002600 0.119100
vt 0.011500 0.123500
vt 0.014500 0.127000
vt 0.220600 0.138200
vt 0.002600 0.124500
vt 0.005200 0.129900
vt 0.023800 0.136700
vt 0.014700 0.140600
vt 0.234700 0.138700
vt 0.252000 0.138700
vt 0.443600 0.138700
vt 0.462400 0.139200
vt 0.230600 0.006800
vt 0.013900 0.047400
vt 0.005000 0.048800
vt 0.005000 0.043000
vt 0.007600 0.053700
vt 0.016900 0.051300
vt 0.026200 0.060500
vt 0.222900 0.062000
vt 0.017100 0.064500
vt 0.007600 0.038100
vt 0.016900 0.040500
vt 0.013900 0.044400
vt 0.229600 0.047400
vt 0.228600 0.051300
vt 0.237200 0.062500
vt 0.237100 0.051300
vt 0.254400 0.062500
vt 0.456500 0.051300
vt 0.458000 0.047400
vt 0.464600 0.047400
vt 0.245500 0.051300
vt 0.243800 0.047900
vt 0.236900 0.047900
vt 0.229600 0.043900
vt 0.228600 0.040500
vt 0.243800 0.043900
vt 0.236900 0.044400
vt 0.464600 0.040000
vt 0.464600 0.043900
vt 0.458000 0.043900
vt 0.456500 0.040000
vt 0.245500 0.040000
vt 0.237100 0.040000
vt 0.253900 0.028800
vt 0.447000 0.028800
vt 0.237200 0.028800
vt 0.222900 0.029800
vt 0.026200 0.030800
vt 0.016900 0.027300
vt 0.691900 0.028300
vt 0.708500 0.028800
vt 0.700700 0.040000
vt 0.692400 0.039600
vt 0.677700 0.028800
vt 0.684100 0.040000
vt 0.484600 0.028800
vt 0.472900 0.039600
vt 0.464600 0.028300
vt 0.912600 0.041000
vt 0.915500 0.043900
vt 0.699700 0.043900
vt 0.692400 0.043900
vt 0.685500 0.043900
vt 0.471200 0.043900
vt 0.471200 0.047400
vt 0.685500 0.047900
vt 0.692400 0.047400
vt 0.699700 0.047400
vt 0.700700 0.051800
vt 0.915500 0.047400
vt 0.692400 0.051800
vt 0.684100 0.051800
vt 0.472900 0.051300
vt 0.464600 0.051300
vt 0.446000 0.063000
vt 0.464800 0.063500
vt 0.479000 0.063000
vt 0.677700 0.062500
vt 0.692400 0.063000
vt 0.710400 0.063000
vt 0.903300 0.059600
vt 0.912600 0.050800
vt 0.912100 0.064000
vt 0.921900 0.053200
vt 0.924300 0.048300
vt 0.924300 0.043000
vt 0.921900 0.038100
vt 0.903300 0.031700
vt 0.912100 0.027300
vt 0.457300 0.085900
vt 0.455600 0.089800
vt 0.244600 0.089400
vt 0.242900 0.085900
vt 0.236200 0.089400
vt 0.236100 0.085900
vt 0.227800 0.089400
vt 0.228900 0.085900
vt 0.016100 0.089400
vt 0.222200 0.100600
vt 0.236300 0.101100
vt 0.253400 0.101100
vt 0.445300 0.101100
vt 0.463900 0.101600
vt 0.463900 0.089800
vt 0.025400 0.099100
vt 0.006800 0.092300
vt 0.013100 0.085900
vt 0.004200 0.086900
vt 0.004200 0.081500
vt 0.016300 0.103000
vt 0.236200 0.078100
vt 0.227800 0.078600
vt 0.222200 0.067900
vt 0.025400 0.069300
vt 0.016100 0.078600
vt 0.016100 0.065400
vt 0.006800 0.076200
vt 0.013100 0.082500
vt 0.244600 0.078100
vt 0.242900 0.082500
vt 0.236100 0.082500
vt 0.228900 0.082500
vt 0.457300 0.082500
vt 0.463900 0.085900
vt 0.463900 0.082000
vt 0.470500 0.085900
vt 0.691400 0.078100
vt 0.691900 0.082000
vt 0.685100 0.082000
vt 0.683100 0.078100
vt 0.470500 0.082000
vt 0.472200 0.078100
vt 0.463900 0.078100
vt 0.455600 0.078100
vt 0.483900 0.066900
vt 0.463900 0.066400
vt 0.446300 0.066900
vt 0.253200 0.067400
vt 0.236300 0.066900
vt 0.920900 0.076200
vt 0.923800 0.081100
vt 0.914600 0.082500
vt 0.911600 0.079100
vt 0.902300 0.069800
vt 0.708000 0.066900
vt 0.700200 0.078100
vt 0.691400 0.066400
vt 0.676800 0.066900
vt 0.911100 0.065900
vt 0.911100 0.102100
vt 0.902300 0.098100
vt 0.911600 0.088900
vt 0.920900 0.091800
vt 0.923800 0.086400
vt 0.914600 0.085400
vt 0.698700 0.082000
vt 0.685100 0.085900
vt 0.691900 0.085400
vt 0.698700 0.085400
vt 0.700200 0.089800
vt 0.691400 0.089800
vt 0.683100 0.089800
vt 0.472200 0.089800
vt 0.478300 0.101100
vt 0.677200 0.101100
vt 0.691400 0.101600
vt 0.709500 0.101100
vt 0.911600 0.874800
vt 0.897900 0.888200
vt 0.901400 0.890100
vt 0.983900 0.874800
vt 0.993700 0.890100
vt 0.997100 0.888200
vt 0.999000 0.884600
vt 0.983900 0.802500
vt 0.999000 0.792600
vt 0.997100 0.789100
vt 0.993700 0.787100
vt 0.911600 0.802500
vt 0.901400 0.787100
vt 0.897900 0.789100
vt 0.896000 0.792600
vt 0.896000 0.884600
vt 0.695300 0.023900
vt 0.694800 0.020000
vt 0.703100 0.017600
vt 0.702600 0.021500
vt 0.910600 0.017600
vt 0.915000 0.021500
vt 0.915500 0.023400
vt 0.703600 0.023400
vt 0.695300 0.026400
vt 0.688000 0.022000
vt 0.688000 0.023900
vt 0.252200 0.020500
vt 0.253700 0.017100
vt 0.461200 0.016600
vt 0.462900 0.020500
vt 0.470000 0.019500
vt 0.469700 0.023400
vt 0.478800 0.017600
vt 0.477100 0.021500
vt 0.686000 0.017600
vt 0.477300 0.023400
vt 0.469700 0.025900
vt 0.462600 0.022900
vt 0.252200 0.022900
vt 0.246500 0.023900
vt 0.246500 0.026400
vt 0.010500 0.018600
vt 0.012400 0.013700
vt 0.020000 0.018600
vt 0.018500 0.022500
vt 0.029300 0.018600
vt 0.026800 0.022500
vt 0.236700 0.017600
vt 0.237900 0.021500
vt 0.246500 0.019500
vt 0.237700 0.023400
vt 0.026500 0.024900
vt 0.017800 0.024900
vt 0.009400 0.020500
vt 0.694300 0.006300
vt 0.026800 0.022500
vt 0.018500 0.022500
vt 0.020000 0.018600
vt 0.010500 0.018600
vt 0.012400 0.013700
vt 0.017800 0.024900
vt 0.009400 0.020500
vt 0.026500 0.024900
vt 0.237700 0.023400
vt 0.237900 0.021500
vt 0.246500 0.026400
vt 0.246500 0.023900
vt 0.252200 0.022900
vt 0.252200 0.020500
vt 0.470000 0.019500
vt 0.469700 0.023400
vt 0.462900 0.020500
vt 0.246500 0.019500
vt 0.469700 0.025900
vt 0.462600 0.022900
vt 0.477300 0.023400
vt 0.477100 0.021500
vt 0.688000 0.023900
vt 0.688000 0.022000
vt 0.695300 0.026400
vt 0.695300 0.023900
vt 0.703600 0.023400
vt 0.702600 0.021500
vt 0.910600 0.017600
vt 0.915000 0.021500
vt 0.703100 0.017600
vt 0.694800 0.020000
vt 0.478800 0.017600
vt 0.711900 0.006300
vt 0.711900 0.006300
vt 0.900400 0.007800
vt 0.470000 0.005900
vt 0.484900 0.006300
vt 0.037300 0.007800
vt 0.230600 0.006800
vt 0.246200 0.005900
vt 0.263400 0.005400
vt 0.452400 0.005900
vt 0.025700 0.005900
vt 0.679700 0.006300
vt 0.694300 0.006300
vt 0.900400 0.007800
vt 0.470000 0.005900
vt -0.903800 0.764000
vt -0.903800 0.971500
vt -0.025300 0.971500
vt -0.025300 0.764000
vt -0.903800 0.556600
vt -0.025300 0.556600
vt -0.904800 0.349100
vt -0.026100 0.349100
vt -0.904800 0.141600
vt -0.026100 0.141600
vt 0.017300 0.000500
vt 0.025700 0.005900
vt 0.246200 0.005900
vt 0.017300 0.000500
vn 1.0000 -0.0000 0.0000
vn 0.0000 -0.9688 0.2480
vn 0.0000 -1.0000 -0.0000
vn -0.0000 -0.9688 -0.2480
vn 0.0000 -0.7071 -0.7071
vn 0.0000 0.9688 0.2480
vn 0.0000 0.7071 0.7071
vn 0.0000 0.2480 0.9688
vn -0.0001 0.2480 0.9688
vn 0.0000 -0.2480 0.9688
vn 0.0001 -0.2480 0.9688
vn 0.0000 -0.4804 0.8770
vn -0.0000 -0.7064 0.7078
vn 0.0000 -0.8770 0.4804
vn 0.0000 -0.2480 -0.9688
vn -0.0001 -0.2480 -0.9688
vn 0.0000 0.2480 -0.9688
vn 0.0001 0.2480 -0.9688
vn 0.0000 0.7071 -0.7071
vn 0.0000 0.9688 -0.2480
vn 0.3169 0.9329 0.1711
vn 0.3115 0.9355 -0.1670
vn 0.3169 -0.9329 -0.1711
vn 0.4638 -0.8738 0.1461
vn -0.9133 0.0662 0.4018
vn -0.4022 0.2469 0.8816
vn -0.3890 0.6467 0.6561
vn -0.9098 0.2846 0.3020
vn -0.3933 0.8875 0.2401
vn -0.9141 0.4011 0.0591
vn -0.4022 0.8816 -0.2469
vn -0.9133 0.4018 -0.0662
vn -0.3890 0.6561 -0.6467
vn -0.9098 0.3020 -0.2846
vn -0.3933 0.2401 -0.8875
vn -0.9141 0.0591 -0.4011
vn -0.5361 -0.3291 -0.7774
vn -0.9133 -0.0662 -0.4018
vn -0.3890 -0.6467 -0.6561
vn 0.3891 0.6466 -0.6561
vn 0.4034 0.2476 -0.8809
vn 0.0000 0.0000 -1.0000
vn 0.3934 -0.2401 -0.8875
vn 0.3891 -0.6560 -0.6467
vn -1.0000 0.0000 0.0000
vn -0.9098 -0.2846 -0.3020
vn -0.3933 -0.8875 -0.2401
vn 0.3891 -0.6561 -0.6467
vn 0.3891 -0.6561 -0.6466
vn 0.4024 -0.8816 -0.2469
vn 0.9134 -0.4017 -0.0661
vn 0.9099 -0.3019 -0.2845
vn -0.9141 -0.4011 -0.0591
vn -0.4022 -0.8816 0.2469
vn -0.9133 -0.4018 0.0662
vn -0.9098 -0.3023 0.2843
vn -0.3890 -0.6566 0.6462
vn 0.3934 -0.8875 0.2401
vn 0.9099 -0.2842 0.3022
vn 0.9142 -0.4009 0.0591
vn 0.3891 -0.6462 0.6565
vn 0.4024 -0.8815 -0.2469
vn 0.9142 -0.0591 -0.4009
vn 0.9134 0.0661 -0.4017
vn 0.3891 0.6467 -0.6560
vn 0.3891 0.6467 -0.6561
vn 0.9099 0.2845 -0.3019
vn 0.3934 0.8875 -0.2401
vn 0.9142 0.4009 -0.0591
vn 0.4024 0.8816 0.2469
vn 0.9210 0.3862 0.0517
vn 0.9530 0.1424 0.2673
vn 0.9142 0.0591 0.4009
vn 0.3001 0.6423 0.7053
vn 0.7255 0.6222 0.2942
vn 0.3001 0.6422 0.7053
vn 0.5265 0.3213 0.7871
vn 0.4024 -0.2469 0.8816
vn 0.4024 -0.2469 0.8815
vn 0.9134 -0.0661 0.4017
vn -0.3933 -0.2401 0.8875
vn -0.9141 -0.0591 0.4011
vn -0.3934 -0.2401 0.8875
vn -0.3891 -0.6565 0.6462
vn -0.9099 -0.3022 0.2842
vn -0.9142 -0.0591 0.4009
vn -0.4024 0.2469 0.8816
vn -0.4024 0.2469 0.8815
vn -0.9134 0.0661 0.4017
vn -0.9099 0.2845 0.3019
vn -0.9134 0.4017 -0.0661
vn -0.4024 0.8816 -0.2469
vn -0.3891 0.6560 -0.6467
vn -0.4024 0.8815 -0.2469
vn -0.9142 0.4009 0.0591
vn -0.3934 0.8875 0.2401
vn -0.3891 0.6467 0.6561
vn -0.3891 0.6467 0.6560
vn 0.3934 0.2401 0.8875
vn 0.3891 0.6561 0.6467
vn 0.3891 0.6560 0.6467
vn 0.4024 0.8815 0.2469
vn 0.9134 0.4017 0.0661
vn 0.9099 0.3019 0.2845
vn 0.4024 0.2469 -0.8816
vn 0.4024 0.2469 -0.8815
vn -0.3891 0.6561 -0.6467
vn -0.3934 0.2401 -0.8875
vn -0.4024 -0.2469 -0.8816
vn -0.3891 -0.6467 -0.6561
vn -0.3934 -0.8875 -0.2401
vn -0.3891 -0.6467 -0.6560
vn -0.9142 -0.4009 -0.0591
vn -0.4024 -0.8816 0.2469
vn -0.9099 -0.2845 -0.3019
vn -0.9134 -0.0661 -0.4017
vn -0.4024 -0.2469 -0.8815
vn -0.8885 0.0669 -0.4540
vn -0.9099 0.3019 -0.2845
vn -0.9134 -0.4017 0.0661
vn -0.4024 -0.8815 0.2469
vn 0.0000 -0.0000 1.0000
vn -0.9142 0.0591 -0.4009
vn -0.3674 0.6619 -0.6534
vn -0.7184 0.5041 -0.4793
vn -0.6948 0.7086 -0.1231
vn -0.3758 0.8930 -0.2476
vn -0.7100 0.6890 0.1453
vn -0.3587 0.9080 0.2167
vn -0.3587 0.9079 0.2167
vn -0.0001 0.9688 -0.2480
vn -0.3677 0.2414 -0.8981
vn -0.3758 -0.8930 0.2476
vn -0.6948 -0.7086 0.1231
vn -0.6980 -0.7073 -0.1117
vn -0.3677 -0.8981 -0.2414
vn -0.7184 -0.4793 -0.5041
vn -0.3674 -0.6534 -0.6619
vn -0.6948 -0.1231 -0.7086
vn -0.3758 -0.2476 -0.8930
vn -0.6980 0.1117 -0.7073
vn -0.3674 -0.6619 0.6534
vn -0.0001 -0.9688 0.2480
vn -0.0000 -0.7071 0.7071
vn -0.7184 0.4793 0.5041
vn -0.3674 0.6534 0.6619
vn -0.6948 0.1231 0.7086
vn -0.3758 0.2476 0.8930
vn -0.6980 -0.1117 0.7073
vn -0.3677 -0.2414 0.8981
vn -0.7184 -0.5041 0.4793
vn 0.8027 -0.0958 0.5886
vn 0.4426 -0.2389 0.8643
vn 0.4331 -0.6337 0.6410
vn 0.8216 -0.3920 0.4138
vn 0.8028 -0.0958 0.5885
vn 0.8151 -0.5674 0.1167
vn 0.4359 0.2336 0.8692
vn 0.4331 0.6410 0.6337
vn 0.0001 0.9688 0.2480
vn 0.8216 0.3920 -0.4138
vn 0.4331 0.6337 -0.6410
vn 0.8045 0.5876 -0.0865
vn 0.8028 0.5886 0.0958
vn 0.8027 0.5886 0.0958
vn 0.8216 0.4138 0.3920
vn 0.8028 0.5885 0.0958
vn 0.8045 0.0865 0.5876
vn 0.8028 -0.0958 0.5886
vn 0.4426 0.2389 -0.8643
vn 0.4359 -0.2336 -0.8692
vn 0.3307 -0.6384 -0.6950
vn 0.0001 -0.9688 -0.2480
vn 0.8017 -0.5925 -0.0789
vn 0.8001 -0.5411 -0.2589
vn 0.8216 -0.4138 -0.3920
vn 0.3307 -0.6385 -0.6950
vn 0.8045 -0.0865 -0.5876
vn 0.8028 0.0958 -0.5886
vn 0.8027 0.0958 -0.5886
vn 0.8028 0.0958 -0.5885
usemtl ABY_Squareduct_straight
s 1
f 1/1/1 2/2/1 3/3/1
f 4/4/1 5/5/1 6/6/1
f 6/6/1 7/7/1 4/4/1
f 8/8/2 9/9/3 10/10/4
f 10/10/4 11/11/4 8/8/2
f 11/11/4 10/10/4 12/12/5
f 12/12/5 13/13/5 11/11/4
f 14/14/6 4/15/6 15/16/7
f 15/16/7 16/17/7 14/14/6
f 16/17/7 15/16/7 17/18/8
f 17/18/8 18/19/9 16/17/7
f 19/20/10 18/19/8 17/18/8
f 17/18/8 20/21/10 19/20/10
f 19/20/10 20/21/11 21/22/12
f 21/22/12 22/23/13 19/20/10
f 22/23/14 21/22/14 9/9/14
f 9/9/14 8/8/2 22/23/13
f 13/24/5 12/25/5 2/26/15
f 2/26/15 23/27/16 13/24/5
f 24/28/17 23/27/15 2/26/15
f 2/26/15 1/29/17 24/28/17
f 24/28/17 1/29/18 25/30/19
f 25/30/19 26/31/19 24/28/17
f 26/31/19 25/30/19 5/32/20
f 5/32/20 27/33/20 26/31/19
f 27/33/20 5/32/20 4/15/6
f 4/15/6 14/14/6 27/33/20
f 28/34/1 29/35/1 30/36/1
f 31/37/1 29/35/1 28/34/1
f 28/34/1 32/38/1 31/37/1
f 32/38/1 33/39/1 31/37/1
f 32/38/1 34/40/1 33/39/1
f 35/41/1 34/40/1 32/38/1
f 32/38/1 36/42/1 35/41/1
f 36/42/1 37/43/1 35/41/1
f 36/42/1 38/44/1 37/43/1
f 39/45/1 38/44/1 36/42/1
f 36/42/1 40/46/1 39/45/1
f 40/46/1 41/47/1 39/45/1
f 40/46/1 42/48/1 41/47/1
f 43/49/1 42/48/1 40/46/1
f 40/46/1 28/34/1 43/49/1
f 28/34/1 30/36/1 43/49/1
f 44/50/1 45/51/1 20/52/1
f 46/53/20 47/54/6 48/55/21
f 48/55/21 49/56/22 46/53/20
f 50/57/2 51/58/4 52/59/23
f 52/59/23 53/60/24 50/57/2
f 54/61/25 55/62/26 56/63/27
f 56/63/27 57/64/28 54/61/25
f 57/64/28 56/63/27 58/65/29
f 58/65/29 59/66/30 57/64/28
f 59/66/30 58/65/29 60/67/31
f 60/67/31 61/68/32 59/66/30
f 61/68/32 60/67/31 62/69/33
f 62/69/33 63/70/34 61/68/32
f 63/70/34 62/69/33 64/71/35
f 64/71/35 65/72/36 63/70/34
f 65/72/36 64/71/35 66/73/37
f 66/73/37 67/74/38 65/72/36
f 67/74/38 66/73/37 68/75/39
f 69/76/40 70/77/41 64/71/35
f 66/73/37 64/71/35 70/77/41
f 70/77/42 71/78/43 66/73/42
f 68/75/39 66/73/37 71/78/43
f 71/78/43 72/79/44 68/75/39
f 73/80/45 74/81/45 65/72/36
f 65/72/36 67/74/38 73/80/45
f 75/82/45 73/80/45 67/74/38
f 67/74/38 76/83/46 75/82/45
f 68/75/39 76/83/46 67/74/38
f 76/83/46 68/75/39 77/84/47
f 77/84/47 68/75/39 72/79/48
f 72/79/49 78/85/50 77/84/47
f 79/86/51 78/85/50 72/79/44
f 72/79/48 80/87/52 79/86/51
f 77/84/47 81/88/53 76/83/46
f 82/89/54 83/90/55 81/88/53
f 81/88/53 77/84/47 82/89/54
f 82/89/54 77/84/47 78/85/50
f 84/91/45 75/82/45 76/83/46
f 76/83/46 81/88/53 84/91/45
f 85/92/45 84/91/45 81/88/53
f 81/88/53 83/90/55 85/92/45
f 86/93/45 85/92/45 83/90/55
f 83/90/55 87/94/56 86/93/45
f 88/95/57 87/94/56 83/90/55
f 83/90/55 82/89/54 88/95/57
f 88/95/57 82/89/54 89/96/58
f 78/85/50 89/96/58 82/89/54
f 90/97/1 91/98/1 92/99/59
f 92/99/59 93/100/60 90/97/1
f 89/96/58 93/100/60 92/99/59
f 92/99/59 94/101/61 89/96/58
f 89/96/58 94/101/61 88/95/57
f 95/102/1 90/97/1 93/100/60
f 93/100/60 89/96/58 78/85/50
f 78/85/62 79/86/51 93/100/60
f 93/100/60 79/86/51 95/102/1
f 96/103/1 95/102/1 79/86/51
f 79/86/51 80/87/52 96/103/1
f 97/104/1 96/103/1 80/87/52
f 80/87/52 98/105/63 97/104/1
f 99/106/1 97/104/1 98/105/63
f 98/105/63 100/107/64 99/106/1
f 101/108/1 99/106/1 100/107/64
f 80/87/52 72/79/48 71/78/43
f 71/78/43 98/105/63 80/87/52
f 98/105/63 71/78/43 70/77/41
f 70/77/41 100/107/64 98/105/63
f 100/107/64 70/77/41 69/76/65
f 69/76/66 102/109/67 100/107/64
f 102/109/67 69/76/66 103/110/68
f 103/110/68 104/111/69 102/109/67
f 104/111/69 103/110/68 105/112/70
f 105/112/70 106/113/71 104/111/69
f 100/107/64 102/109/67 101/108/1
f 107/114/1 101/108/1 102/109/67
f 102/109/67 104/111/69 107/114/1
f 108/115/1 107/114/1 104/111/69
f 104/111/69 106/113/71 108/115/1
f 109/116/1 108/115/1 106/113/71
f 106/113/71 110/117/72 109/116/1
f 111/118/1 109/116/1 110/117/72
f 110/117/72 112/119/73 111/118/1
f 113/120/1 111/118/1 112/119/73
f 106/113/71 105/112/70 114/121/74
f 114/121/75 110/117/75 106/113/75
f 110/117/72 114/121/76 115/122/77
f 115/122/77 112/119/73 110/117/72
f 112/119/73 115/122/77 116/123/78
f 116/123/79 117/124/80 112/119/73
f 112/119/73 117/124/80 113/120/1
f 91/125/1 113/120/1 117/124/80
f 117/124/80 92/126/59 91/125/1
f 94/127/61 92/126/59 117/124/80
f 117/124/80 116/123/78 94/127/61
f 94/127/61 116/123/78 118/128/81
f 55/62/26 118/128/81 116/123/78
f 119/129/82 118/128/81 55/62/26
f 55/62/26 54/61/25 119/129/82
f 119/129/82 54/61/25 120/130/45
f 118/128/81 88/131/57 94/127/61
f 87/132/56 88/131/57 118/128/81
f 118/128/81 119/129/82 87/132/56
f 87/132/56 119/129/82 121/133/45
f 120/130/45 121/133/45 119/129/82
f 121/133/45 86/134/45 87/132/56
f 122/135/45 120/130/45 54/61/25
f 54/61/25 57/64/28 122/135/45
f 123/136/45 122/135/45 57/64/28
f 57/64/28 59/66/30 123/136/45
f 124/137/45 123/136/45 59/66/30
f 59/66/30 61/68/32 124/137/45
f 125/138/45 124/137/45 61/68/32
f 61/68/32 63/70/34 125/138/45
f 74/81/45 125/138/45 63/70/34
f 63/70/34 65/72/36 74/81/45
f 20/52/1 17/139/1 44/50/1
f 126/140/83 127/141/84 128/142/61
f 129/143/85 127/141/84 126/140/83
f 126/140/83 130/144/86 129/143/85
f 129/143/85 130/144/86 131/145/45
f 132/146/45 131/145/45 130/144/86
f 131/145/45 133/147/45 129/143/85
f 128/142/61 134/148/59 135/149/80
f 135/149/80 136/150/78 128/142/61
f 128/142/61 136/150/78 126/140/83
f 137/151/87 126/140/83 136/150/78
f 130/144/86 126/140/83 137/151/87
f 137/151/88 138/152/89 130/144/86
f 130/144/86 138/152/89 132/146/45
f 139/153/45 132/146/45 138/152/89
f 138/152/89 140/154/90 139/153/45
f 141/155/45 139/153/45 140/154/90
f 142/156/91 143/157/92 144/158/93
f 143/157/94 142/156/91 145/159/95
f 145/159/95 146/160/96 143/157/92
f 146/160/96 145/159/95 140/154/90
f 140/154/90 147/161/97 146/160/96
f 147/161/97 140/154/90 138/152/89
f 138/152/89 137/151/87 147/161/98
f 147/161/97 137/151/87 148/162/99
f 136/150/78 148/162/99 137/151/87
f 149/163/73 148/162/99 136/150/78
f 136/150/79 135/149/80 149/163/73
f 143/157/92 146/160/96 150/164/70
f 151/165/100 150/164/70 146/160/96
f 146/160/96 147/161/98 151/165/100
f 148/162/99 151/165/101 147/161/97
f 152/166/67 153/167/66 154/168/68
f 154/168/68 155/169/69 152/166/67
f 155/169/69 154/168/68 150/164/70
f 150/164/102 156/170/103 155/169/69
f 156/170/103 150/164/70 151/165/100
f 151/165/100 157/171/104 156/170/103
f 157/171/104 151/165/100 148/162/99
f 148/162/99 149/163/73 157/171/104
f 158/172/1 159/173/1 155/169/69
f 155/169/69 156/170/103 158/172/1
f 160/174/1 158/172/1 156/170/103
f 156/170/103 157/171/104 160/174/1
f 161/175/1 160/174/1 157/171/104
f 157/171/104 149/163/73 161/175/1
f 162/176/1 161/175/1 149/163/73
f 149/163/73 135/149/80 162/176/1
f 163/177/1 162/176/1 135/149/80
f 135/149/80 134/148/59 163/177/1
f 164/178/1 165/179/1 166/180/51
f 166/180/51 167/181/52 164/178/1
f 168/182/1 164/178/1 167/181/52
f 167/181/52 169/183/63 168/182/1
f 170/184/1 168/182/1 169/183/63
f 169/183/63 171/185/64 170/184/1
f 172/186/1 170/184/1 171/185/64
f 171/185/64 152/166/67 172/186/1
f 159/173/1 172/186/1 152/166/67
f 152/166/67 155/169/69 159/173/1
f 173/187/60 174/188/58 175/189/50
f 175/189/62 166/180/51 173/187/60
f 166/180/51 175/189/62 176/190/48
f 176/190/48 167/181/52 166/180/51
f 167/181/52 176/190/48 177/191/43
f 177/191/43 169/183/63 167/181/52
f 169/183/63 177/191/43 178/192/105
f 178/192/106 171/185/64 169/183/63
f 171/185/64 178/192/105 153/167/65
f 153/167/66 152/166/67 171/185/64
f 150/164/70 154/168/68 143/157/92
f 144/158/107 143/157/92 154/168/68
f 154/168/68 153/167/65 144/158/107
f 179/193/108 144/158/93 153/167/66
f 153/167/66 178/192/105 179/193/108
f 180/194/109 179/193/108 178/192/105
f 178/192/105 177/191/43 180/194/109
f 181/195/110 180/194/109 177/191/43
f 177/191/43 176/190/44 181/195/110
f 182/196/111 181/195/112 176/190/48
f 183/197/113 182/196/111 184/198/114
f 182/196/111 183/197/113 185/199/115
f 185/199/115 181/195/110 182/196/111
f 181/195/110 185/199/115 186/200/116
f 186/200/116 180/194/109 181/195/112
f 180/194/117 186/200/116 187/201/118
f 187/201/118 179/193/108 180/194/109
f 179/193/108 187/201/118 188/202/119
f 188/202/119 144/158/107 179/193/108
f 144/158/107 188/202/119 142/156/91
f 140/154/90 145/159/95 141/155/45
f 189/203/45 141/155/45 145/159/95
f 145/159/95 142/156/91 189/203/45
f 190/204/45 189/203/45 142/156/91
f 142/156/91 188/202/119 190/204/45
f 191/205/45 190/204/45 188/202/119
f 188/202/119 187/201/118 191/205/45
f 192/206/45 191/205/45 187/201/45
f 187/201/118 186/200/116 192/206/45
f 193/207/45 192/206/45 186/200/116
f 186/200/116 185/199/115 193/207/45
f 194/208/45 193/207/45 185/199/115
f 185/199/115 183/197/113 194/208/45
f 195/209/45 194/208/45 183/197/113
f 183/197/113 196/210/120 195/209/45
f 133/211/45 195/209/45 196/210/120
f 196/210/120 129/212/85 133/211/45
f 127/213/84 129/212/85 196/210/120
f 196/210/120 184/198/114 127/213/84
f 184/198/121 196/210/120 183/197/113
f 176/190/48 175/189/50 182/196/111
f 184/198/114 182/196/111 175/189/50
f 175/189/50 174/188/58 184/198/114
f 127/213/84 184/198/114 174/188/58
f 174/188/58 128/214/61 127/213/84
f 134/215/59 128/214/61 174/188/58
f 174/188/58 173/187/60 134/215/59
f 134/215/59 173/187/60 197/216/1
f 165/179/1 197/216/1 173/187/60
f 173/187/60 166/180/51 165/179/1
f 197/216/1 163/217/1 134/215/59
f 116/123/78 115/122/122 55/62/26
f 56/63/27 55/62/26 115/122/77
f 115/122/77 114/121/76 56/63/27
f 58/65/29 56/63/27 114/121/76
f 114/121/76 105/112/70 58/65/29
f 60/67/31 58/65/29 105/112/70
f 105/112/70 103/110/68 60/67/31
f 62/69/33 60/67/31 103/110/68
f 103/110/68 69/76/65 62/69/33
f 64/71/35 62/69/33 69/76/66
f 198/218/94 199/219/91 200/220/95
f 200/220/95 201/221/96 198/218/92
f 201/221/96 200/220/95 202/222/90
f 202/222/90 203/223/97 201/221/96
f 203/223/97 202/222/90 204/224/89
f 204/224/89 205/225/87 203/223/98
f 205/225/88 204/224/89 206/226/86
f 206/226/86 204/224/89 207/227/45
f 208/228/45 207/227/45 204/224/89
f 204/224/89 202/222/90 208/228/45
f 209/229/45 208/228/45 202/222/90
f 202/222/90 200/220/95 209/229/45
f 210/230/45 209/229/45 200/220/95
f 200/220/95 199/219/91 210/230/45
f 211/231/45 210/230/45 199/219/91
f 199/219/91 212/232/119 211/231/45
f 207/227/45 213/233/45 206/226/86
f 214/234/85 206/226/86 213/233/45
f 215/235/83 206/226/86 214/234/85
f 214/234/85 216/236/84 215/235/83
f 215/235/83 216/236/84 217/237/61
f 213/233/45 218/238/45 214/234/85
f 219/239/104 220/240/73 221/241/1
f 222/242/1 221/241/1 220/240/73
f 220/240/73 223/243/80 222/242/1
f 224/244/1 222/242/1 223/243/80
f 223/243/80 225/245/59 224/244/1
f 217/237/61 225/245/59 223/243/80
f 223/243/80 226/246/78 217/237/61
f 217/237/61 226/246/78 215/235/83
f 205/225/87 215/235/83 226/246/78
f 206/226/86 215/235/83 205/225/87
f 227/247/103 228/248/70 229/249/101
f 229/249/100 219/239/104 227/247/103
f 219/239/104 229/249/100 230/250/99
f 230/250/99 220/240/73 219/239/104
f 220/240/73 230/250/99 226/246/78
f 226/246/79 223/243/80 220/240/73
f 226/246/78 230/250/99 205/225/87
f 203/223/97 205/225/87 230/250/99
f 230/250/99 229/249/101 203/223/97
f 201/221/96 203/223/97 229/249/100
f 229/249/100 228/248/70 201/221/96
f 198/218/92 201/221/96 228/248/70
f 228/248/70 231/251/68 198/218/92
f 232/252/107 198/218/92 231/251/68
f 231/251/68 233/253/65 232/252/107
f 234/254/108 232/252/93 233/253/66
f 235/255/52 236/256/48 237/257/43
f 237/257/43 238/258/63 235/255/52
f 238/258/63 237/257/43 239/259/105
f 239/259/106 240/260/64 238/258/63
f 240/260/64 239/259/105 233/253/65
f 233/253/66 241/261/67 240/260/64
f 241/261/67 233/253/66 231/251/68
f 231/251/68 242/262/69 241/261/67
f 242/262/69 231/251/68 228/248/70
f 228/248/70 227/247/103 242/262/69
f 238/258/63 240/260/64 243/263/1
f 244/264/1 243/263/1 240/260/64
f 240/260/64 241/261/67 244/264/1
f 245/265/1 244/264/1 241/261/67
f 241/261/67 242/262/69 245/265/1
f 246/266/1 245/265/1 242/262/69
f 242/262/69 227/247/103 246/266/1
f 247/267/1 246/266/1 227/247/103
f 227/247/103 219/239/104 247/267/1
f 221/241/1 247/267/1 219/239/104
f 225/268/59 217/269/61 248/270/58
f 248/270/58 249/271/60 225/268/59
f 225/268/59 249/271/60 250/272/1
f 251/273/1 250/272/1 249/271/60
f 249/271/60 252/274/51 251/273/1
f 253/275/1 251/273/1 252/274/51
f 252/274/51 235/255/52 253/275/1
f 254/276/1 253/275/1 235/255/52
f 235/255/52 238/258/63 254/276/1
f 243/263/1 254/276/1 238/258/63
f 250/272/1 224/277/1 225/268/59
f 218/278/45 255/279/45 256/280/120
f 256/280/120 214/281/85 218/278/45
f 216/282/84 214/281/85 256/280/120
f 256/280/120 257/283/114 216/282/84
f 216/282/84 257/283/114 248/270/58
f 258/284/50 248/270/58 257/283/114
f 249/271/60 248/270/58 258/284/50
f 258/284/50 252/274/51 249/271/60
f 252/274/51 258/284/50 236/256/44
f 236/256/48 235/255/52 252/274/51
f 248/270/58 217/269/61 216/282/84
f 233/253/66 239/259/105 234/254/108
f 259/285/109 234/254/108 239/259/105
f 239/259/105 237/257/43 259/285/109
f 260/286/110 259/285/109 237/257/43
f 237/257/43 236/256/44 260/286/110
f 261/287/111 260/286/110 236/256/48
f 236/256/48 258/284/50 261/287/111
f 257/283/114 261/287/111 258/284/50
f 262/288/113 261/287/111 257/283/114
f 257/283/121 256/280/120 262/288/113
f 261/287/111 262/288/113 263/289/115
f 263/289/115 260/286/110 261/287/111
f 260/286/110 263/289/115 264/290/116
f 264/290/116 259/285/109 260/286/112
f 259/285/117 264/290/116 265/291/123
f 265/291/123 234/254/108 259/285/109
f 234/254/108 265/291/123 212/232/119
f 212/232/119 232/252/107 234/254/108
f 232/252/107 212/232/119 199/219/91
f 199/219/91 198/218/92 232/252/107
f 266/292/45 211/231/45 212/232/119
f 212/232/119 265/291/123 266/292/45
f 267/293/45 266/292/45 265/291/123
f 265/291/123 264/290/116 267/293/45
f 268/294/45 267/293/45 264/290/116
f 264/290/116 263/289/115 268/294/45
f 269/295/45 268/294/45 263/289/115
f 263/289/115 262/288/113 269/295/45
f 255/279/45 269/295/45 262/288/113
f 262/288/113 256/280/120 255/279/45
f 270/296/45 271/297/45 272/298/45
f 273/299/45 270/296/45 272/298/45
f 272/298/45 274/300/45 273/299/45
f 273/299/45 274/300/45 275/301/45
f 273/299/45 275/301/45 47/302/45
f 276/303/45 273/299/45 47/302/45
f 47/302/45 46/304/45 276/303/45
f 276/303/45 46/304/45 277/305/45
f 276/303/45 277/305/45 278/306/45
f 279/307/45 276/303/45 278/306/45
f 278/306/45 280/308/45 279/307/45
f 279/307/45 280/308/45 281/309/45
f 279/307/45 281/309/45 51/310/45
f 270/296/45 279/307/45 51/310/45
f 51/310/45 50/311/45 270/296/45
f 270/296/45 50/311/45 271/297/45
f 282/312/124 283/313/125 284/314/126
f 284/314/126 285/315/127 282/312/124
f 285/315/127 284/314/126 286/316/128
f 286/316/128 287/317/129 285/315/127
f 285/315/127 287/317/130 38/318/6
f 38/318/6 39/319/20 285/315/127
f 282/312/124 285/315/127 39/319/20
f 39/319/131 41/320/19 282/312/124
f 288/321/132 282/312/124 41/320/19
f 41/320/19 42/322/17 288/321/132
f 289/323/133 290/324/134 291/325/135
f 291/325/135 292/326/136 289/323/133
f 292/326/136 291/325/135 293/327/137
f 293/327/137 294/328/138 292/326/136
f 294/328/138 293/327/137 295/329/139
f 295/329/139 296/330/140 294/328/138
f 296/330/140 295/329/139 297/331/141
f 297/331/141 288/321/132 296/330/140
f 288/321/132 297/331/141 283/313/125
f 283/313/125 282/312/124 288/321/132
f 296/330/140 288/321/132 42/322/17
f 42/322/17 43/332/15 296/330/140
f 294/328/138 296/330/140 43/332/15
f 43/332/15 30/333/5 294/328/138
f 292/326/136 294/328/138 30/333/5
f 30/333/5 29/334/4 292/326/136
f 289/323/133 292/326/136 29/334/4
f 29/334/4 31/335/2 289/323/133
f 298/336/142 289/323/133 31/335/2
f 31/335/143 33/337/144 298/336/142
f 287/338/130 286/339/128 299/340/145
f 299/340/145 300/341/146 287/338/130
f 300/341/146 299/340/145 301/342/147
f 301/342/147 302/343/148 300/341/146
f 302/343/148 301/342/147 303/344/149
f 303/344/149 304/345/150 302/343/148
f 304/345/150 303/344/149 305/346/151
f 305/346/151 298/336/142 304/345/150
f 298/336/142 305/346/151 290/324/134
f 290/324/134 289/323/133 298/336/142
f 304/345/150 298/336/142 33/337/144
f 33/337/144 34/347/10 304/345/150
f 302/343/148 304/345/150 34/347/10
f 34/347/10 35/348/8 302/343/148
f 300/341/146 302/343/148 35/348/8
f 35/348/8 37/349/7 300/341/146
f 287/338/129 300/341/146 37/349/7
f 37/349/7 38/350/6 287/338/130
f 284/314/45 283/313/45 26/351/45
f 45/51/152 306/352/153 307/353/154
f 307/353/154 308/354/155 45/51/156
f 308/354/155 307/353/154 53/355/24
f 53/355/24 309/356/157 308/354/155
f 271/357/144 50/358/2 53/355/24
f 53/355/24 307/353/154 271/357/144
f 272/359/10 271/357/144 307/353/154
f 307/353/154 306/352/153 272/359/10
f 274/360/8 272/359/10 306/352/153
f 306/352/153 310/361/158 274/360/8
f 275/362/7 274/360/8 310/361/158
f 310/361/158 311/363/159 275/362/7
f 47/364/160 275/362/7 311/363/159
f 311/363/159 48/365/21 47/364/6
f 312/366/161 313/367/162 49/368/22
f 49/368/22 6/6/163 312/366/161
f 6/6/163 49/368/22 48/365/21
f 48/365/21 7/7/164 6/6/163
f 7/7/165 48/365/21 311/363/159
f 311/363/159 314/369/166 7/7/167
f 314/369/166 311/363/159 310/361/158
f 310/361/158 44/50/168 314/369/166
f 44/50/168 310/361/158 306/352/153
f 306/352/153 45/51/169 44/50/168
f 277/370/19 46/371/20 49/368/22
f 49/368/22 313/367/162 277/370/19
f 278/372/17 277/370/19 313/367/162
f 313/367/162 315/373/170 278/372/17
f 280/374/15 278/372/17 315/373/170
f 315/373/170 316/375/171 280/374/15
f 281/376/5 280/374/15 316/375/171
f 316/375/171 317/377/172 281/376/5
f 51/378/173 281/376/5 317/377/172
f 317/377/172 52/379/23 51/378/4
f 309/380/157 53/381/24 52/379/23
f 52/379/23 318/382/174 309/380/157
f 318/382/174 52/379/23 317/377/172
f 317/377/175 319/383/176 318/382/175
f 319/383/176 317/377/177 316/375/171
f 316/375/171 3/3/178 319/383/176
f 3/3/178 316/375/171 315/373/170
f 315/373/170 320/384/179 3/3/178
f 320/384/180 315/373/170 313/367/162
f 313/367/162 312/366/161 320/384/181
f 3/3/1 320/384/1 1/1/1
f 26/351/45 27/385/45 284/314/45
f 10/386/1 9/387/1 309/380/1
f 295/329/45 293/327/45 13/388/45
f 309/380/1 318/382/1 10/386/1
f 13/388/45 23/389/45 295/329/45
f 18/390/45 19/391/45 303/344/45
f 290/324/45 305/346/45 22/392/45
f 303/344/45 301/342/45 18/390/45
f 22/392/45 8/393/45 290/324/45
f 8/393/45 11/394/45 291/325/45
f 301/342/45 299/340/45 16/395/45
f 291/325/45 290/324/45 8/393/45
f 16/395/45 18/390/45 301/342/45
f 23/389/45 24/396/45 297/331/45
f 318/382/1 319/383/1 12/397/1
f 297/331/45 295/329/45 23/389/45
f 12/397/1 10/386/1 318/382/1
f 27/385/45 14/398/45 286/316/45
f 320/384/1 312/366/1 25/399/1
f 286/316/45 284/314/45 27/385/45
f 25/399/1 1/1/1 320/384/1
f 40/400/144 36/401/5 273/402/5
f 273/402/5 276/403/144 40/400/144
f 28/404/7 40/400/144 276/403/144
f 276/403/144 279/405/7 28/404/7
f 32/406/19 28/404/7 279/405/7
f 279/405/7 270/407/19 32/406/19
f 36/408/5 32/406/19 270/407/19
f 270/407/19 273/409/5 36/408/5
f 9/410/1 21/411/1 308/354/1
f 7/7/1 314/369/1 15/412/1
f 308/354/1 309/356/1 9/410/1
f 15/412/1 4/4/1 7/7/1
f 17/139/1 15/412/1 314/369/1
f 45/51/1 308/354/1 21/411/1
f 314/369/1 44/50/1 17/139/1
f 21/411/1 20/52/1 45/51/1
f 5/5/1 25/399/1 312/366/1
f 283/313/45 297/331/45 24/396/45
f 312/366/1 6/6/1 5/5/1
f 24/396/45 26/351/45 283/313/45
f 2/2/1 12/397/1 319/383/1
f 293/327/45 291/325/45 11/394/45
f 319/383/1 3/3/1 2/2/1
f 11/394/45 13/388/45 293/327/45
f 14/413/45 16/395/45 299/340/45
f 305/346/45 303/344/45 19/391/45
f 299/340/45 286/339/45 14/413/45
f 19/391/45 22/392/45 305/346/45
