# Blender v2.82 (sub 7) OBJ File: ''
# www.blender.org
mtllib FuelTank-Scaled.mtl
o container_01
v 0.062500 0.514394 -0.221701
v -0.062500 0.630123 -0.221833
v -0.062500 0.514394 -0.221701
v 0.062500 0.648666 -0.247792
v -0.062500 0.514394 -0.247924
v -0.062500 0.648666 -0.247792
v 0.062500 0.514394 -0.247924
v 0.062500 0.630123 -0.221833
v 0.062500 0.514394 -0.221701
v -0.062500 0.514394 -0.247924
v -0.062500 0.630123 -0.221833
v -0.062500 0.648666 -0.247792
v 0.062500 0.630123 -0.221833
v -0.062500 0.689870 -0.133873
v -0.062500 0.630123 -0.221833
v 0.062500 0.648666 -0.247792
v 0.062500 0.689870 -0.133873
v -0.062500 0.648666 -0.247792
v 0.062500 0.724840 -0.133873
v 0.062500 0.648666 -0.247792
v -0.062500 0.689870 -0.133873
v -0.062500 0.724840 -0.133873
v 0.062500 0.689870 -0.133873
v -0.062500 0.689870 0.000000
v -0.062500 0.689870 -0.133873
v 0.062500 0.724840 0.000000
v 0.062500 0.689870 0.000000
v -0.062500 0.724840 -0.133873
v 0.062500 0.724840 0.000000
v 0.062500 0.724840 -0.133873
v -0.062500 0.724840 0.000000
v -0.062500 0.630123 0.221833
v 0.062500 0.514394 0.221701
v -0.062500 0.514394 0.221701
v -0.062500 0.514394 0.247925
v 0.062500 0.648665 0.247793
v -0.062500 0.648665 0.247793
v 0.062500 0.630123 0.221833
v 0.062500 0.514394 0.247925
v 0.062500 0.514394 0.221701
v -0.062500 0.514394 0.247925
v -0.062500 0.630123 0.221833
v -0.062500 0.514394 0.221701
v -0.062500 0.689870 0.133873
v 0.062500 0.630123 0.221833
v -0.062500 0.630123 0.221833
v 0.062500 0.689870 0.133873
v 0.062500 0.648665 0.247793
v 0.062500 0.724840 0.133873
v -0.062500 0.648665 0.247793
v 0.062500 0.648665 0.247793
v -0.062500 0.648665 0.247793
v -0.062500 0.689870 0.133873
v 0.062500 0.689870 0.133873
v -0.062500 0.689870 0.133873
v 0.062500 0.724840 0.133873
v -0.062500 0.724840 0.133873
v 0.062500 0.724840 0.133873
v -0.062500 0.724840 0.133873
v 0.315470 -0.500000 -0.202740
v 0.359810 -0.400000 -0.105650
v 0.359810 -0.500000 -0.105650
v 0.245573 -0.500000 -0.283406
v 0.315470 -0.400000 -0.202740
v 0.155781 -0.500000 -0.341112
v 0.245573 -0.400000 -0.283406
v 0.053368 -0.500000 -0.371183
v 0.155781 -0.400000 -0.341112
v -0.053368 -0.500000 -0.371183
v 0.053368 -0.400000 -0.371183
v -0.155780 -0.500000 -0.341112
v -0.053368 -0.400000 -0.371183
v -0.245573 -0.500000 -0.283406
v -0.155780 -0.400000 -0.341112
v -0.315470 -0.500000 -0.202741
v -0.245573 -0.400000 -0.283406
v -0.359810 -0.500000 -0.105650
v -0.315470 -0.400000 -0.202741
v -0.375000 -0.500000 -0.000000
v -0.359810 -0.400000 -0.105650
v -0.359810 -0.500000 0.105649
v -0.375000 -0.400000 -0.000000
v -0.315470 -0.500000 0.202740
v -0.359810 -0.400000 0.105649
v -0.245573 -0.500000 0.283406
v -0.315470 -0.400000 0.202740
v -0.155781 -0.500000 0.341112
v -0.245573 -0.400000 0.283406
v -0.053368 -0.500000 0.371183
v -0.155781 -0.400000 0.341112
v 0.053368 -0.500000 0.371183
v -0.053368 -0.400000 0.371183
v 0.155781 -0.500000 0.341112
v 0.053368 -0.400000 0.371183
v 0.245573 -0.500000 0.283406
v 0.155781 -0.400000 0.341112
v 0.315470 -0.500000 0.202740
v 0.245573 -0.400000 0.283406
v 0.359810 -0.500000 0.105650
v 0.315470 -0.400000 0.202740
v 0.375000 -0.500000 -0.000000
v 0.359810 -0.400000 0.105650
v 0.375000 -0.400000 -0.000000
v 0.348440 -0.400000 -0.100457
v 0.304846 -0.300000 -0.195913
v 0.348440 -0.300000 -0.100457
v 0.304846 -0.400000 -0.195913
v 0.237303 -0.300000 -0.273862
v 0.237303 -0.400000 -0.273862
v 0.150535 -0.300000 -0.329625
v 0.051571 -0.400000 -0.358683
v 0.150535 -0.400000 -0.329625
v -0.051571 -0.400000 -0.358683
v 0.051571 -0.300000 -0.358683
v -0.150534 -0.400000 -0.329625
v -0.051571 -0.300000 -0.358683
v -0.237303 -0.400000 -0.273862
v -0.150534 -0.300000 -0.329625
v -0.304846 -0.300000 -0.195913
v -0.237303 -0.300000 -0.273862
v -0.348440 -0.400000 -0.100457
v -0.304846 -0.400000 -0.195913
v -0.359810 -0.300000 -0.105650
v -0.375000 -0.300000 -0.000000
v -0.304846 -0.400000 0.195913
v -0.348440 -0.300000 0.100457
v -0.348440 -0.400000 0.100457
v -0.237303 -0.400000 0.273862
v -0.304846 -0.300000 0.195913
v -0.150535 -0.400000 0.329625
v -0.237303 -0.300000 0.273862
v -0.051571 -0.400000 0.358683
v -0.150535 -0.300000 0.329625
v 0.051571 -0.400000 0.358683
v -0.051571 -0.300000 0.358683
v 0.150534 -0.400000 0.329625
v 0.051571 -0.300000 0.358683
v 0.237303 -0.400000 0.273862
v 0.150534 -0.300000 0.329625
v 0.304846 -0.400000 0.195913
v 0.237303 -0.300000 0.273862
v 0.348440 -0.400000 0.100457
v 0.304846 -0.300000 0.195913
v 0.359810 -0.300000 0.105650
v 0.375000 -0.300000 -0.000000
v 0.348440 -0.200000 -0.100457
v 0.304846 -0.200000 -0.195913
v 0.237303 -0.200000 -0.273862
v 0.150535 -0.200000 -0.329625
v -0.051570 -0.200000 -0.358683
v 0.051571 -0.200000 -0.358683
v -0.150534 -0.200000 -0.329625
v -0.237303 -0.200000 -0.273862
v -0.348440 -0.300000 -0.100457
v -0.304846 -0.200000 -0.195913
v -0.359810 -0.200000 -0.105650
v -0.359810 -0.300000 0.105650
v -0.375000 -0.200000 -0.000000
v -0.348440 -0.200000 0.100457
v -0.304846 -0.200000 0.195913
v -0.237303 -0.200000 0.273862
v -0.150534 -0.200000 0.329625
v 0.051571 -0.200000 0.358683
v -0.051571 -0.200000 0.358683
v 0.150534 -0.200000 0.329625
v 0.304846 -0.200000 0.195913
v 0.237303 -0.200000 0.273862
v 0.348440 -0.200000 0.100457
v 0.359810 -0.200000 0.105650
v 0.359810 -0.300000 -0.105650
v 0.375000 -0.200000 -0.000000
v 0.348440 -0.100000 -0.100457
v 0.304846 -0.100000 -0.195913
v 0.237303 -0.100000 -0.273862
v 0.150535 -0.100000 -0.329625
v 0.051571 -0.100000 -0.358683
v -0.051570 -0.100000 -0.358683
v -0.150534 -0.100000 -0.329625
v -0.237303 -0.100000 -0.273862
v -0.348440 -0.200000 -0.100457
v -0.304846 -0.100000 -0.195913
v -0.359810 -0.100000 -0.105650
v -0.359810 -0.200000 0.105650
v -0.375000 -0.100000 -0.000000
v -0.348440 -0.100000 0.100457
v -0.304846 -0.100000 0.195913
v -0.237303 -0.100000 0.273862
v -0.150534 -0.100000 0.329625
v -0.051571 -0.100000 0.358683
v 0.051571 -0.100000 0.358683
v 0.150534 -0.100000 0.329625
v 0.237303 -0.100000 0.273862
v 0.304846 -0.100000 0.195913
v 0.359810 -0.100000 0.105650
v 0.359810 -0.200000 -0.105650
v 0.375000 -0.100000 -0.000000
v 0.348440 0.000000 -0.100457
v 0.304846 0.000000 -0.195913
v 0.237303 0.000000 -0.273862
v 0.150535 0.000000 -0.329625
v 0.051571 0.000000 -0.358683
v -0.150534 0.000000 -0.329625
v -0.051570 0.000000 -0.358683
v -0.237303 0.000000 -0.273862
v -0.348440 -0.100000 -0.100457
v -0.304846 0.000000 -0.195913
v -0.359810 0.000000 -0.105650
v -0.359810 -0.100000 0.105650
v -0.375000 0.000000 -0.000000
v -0.348440 -0.000000 0.100457
v -0.304846 -0.000000 0.195913
v -0.150535 -0.000000 0.329625
v -0.237303 -0.000000 0.273862
v -0.051571 -0.000000 0.358683
v 0.051571 -0.000000 0.358683
v 0.150534 -0.000000 0.329625
v 0.237303 -0.000000 0.273862
v 0.348440 -0.100000 0.100457
v 0.304846 -0.000000 0.195913
v 0.359810 -0.000000 0.105650
v 0.359810 -0.100000 -0.105650
v 0.375000 0.000000 0.000000
v 0.348440 0.100000 -0.100457
v 0.304846 0.100000 -0.195913
v 0.237303 0.100000 -0.273862
v 0.150535 0.100000 -0.329625
v 0.051571 0.100000 -0.358683
v -0.051570 0.100000 -0.358683
v -0.150534 0.100000 -0.329625
v -0.237303 0.100000 -0.273862
v -0.348440 0.000000 -0.100457
v -0.304846 0.100000 -0.195913
v -0.359810 0.100000 -0.105650
v -0.359810 -0.000000 0.105650
v -0.375000 0.100000 -0.000000
v -0.348440 0.100000 0.100457
v -0.304846 0.100000 0.195913
v -0.237303 0.100000 0.273862
v -0.150535 0.100000 0.329625
v -0.051571 0.100000 0.358683
v 0.051571 0.100000 0.358683
v 0.150534 0.100000 0.329625
v 0.304846 0.100000 0.195913
v 0.237303 0.100000 0.273862
v 0.348440 0.100000 0.100457
v 0.359810 0.100000 0.105650
v 0.359810 0.000000 -0.105650
v 0.375000 0.100000 0.000000
v 0.348440 0.200000 -0.100457
v 0.304846 0.200000 -0.195913
v 0.237303 0.200000 -0.273862
v 0.150535 0.200000 -0.329625
v 0.051571 0.200000 -0.358683
v -0.051571 0.200000 -0.358683
v -0.237303 0.200000 -0.273862
v -0.150534 0.200000 -0.329625
v -0.304846 0.200000 -0.195913
v -0.348440 0.100000 -0.100457
v -0.359810 0.200000 -0.105650
v -0.359810 0.100000 0.105650
v -0.375000 0.200000 -0.000000
v -0.348440 0.200000 0.100457
v -0.304846 0.200000 0.195913
v -0.237303 0.200000 0.273862
v -0.150535 0.200000 0.329625
v -0.051571 0.200000 0.358683
v 0.051571 0.200000 0.358683
v 0.150534 0.200000 0.329625
v 0.237303 0.200000 0.273862
v 0.304846 0.200000 0.195913
v 0.359810 0.200000 0.105650
v 0.359810 0.100000 -0.105649
v 0.375000 0.200000 0.000000
v 0.304846 0.300000 -0.195912
v 0.348440 0.300000 -0.100457
v 0.237303 0.300000 -0.273862
v 0.150535 0.300000 -0.329625
v 0.051571 0.300000 -0.358683
v -0.051571 0.300000 -0.358683
v -0.150535 0.300000 -0.329625
v -0.237303 0.300000 -0.273862
v -0.348440 0.200000 -0.100457
v -0.304846 0.300000 -0.195913
v -0.359810 0.300000 -0.105650
v -0.359810 0.200000 0.105650
v -0.375000 0.300000 -0.000000
v -0.348440 0.300000 0.100457
v -0.304846 0.300000 0.195913
v -0.237303 0.300000 0.273862
v -0.150535 0.300000 0.329625
v -0.051571 0.300000 0.358683
v 0.051571 0.300000 0.358683
v 0.150534 0.300000 0.329625
v 0.237303 0.300000 0.273862
v 0.348440 0.200000 0.100457
v 0.304846 0.300000 0.195913
v 0.359810 0.300000 0.105650
v 0.359810 0.200000 -0.105649
v 0.375000 0.300000 0.000000
v 0.348440 0.400000 -0.100457
v 0.304846 0.400000 -0.195912
v 0.237303 0.400000 -0.273862
v 0.150535 0.400000 -0.329625
v 0.051571 0.400000 -0.358683
v -0.051571 0.400000 -0.358683
v -0.150535 0.400000 -0.329625
v -0.237303 0.400000 -0.273862
v -0.348440 0.300000 -0.100457
v -0.304846 0.400000 -0.195913
v -0.359810 0.400000 -0.105650
v -0.359810 0.300000 0.105650
v -0.375000 0.400000 0.000000
v -0.348440 0.400000 0.100457
v -0.304846 0.400000 0.195913
v -0.237303 0.400000 0.273862
v -0.150535 0.400000 0.329625
v -0.051571 0.400000 0.358683
v 0.051571 0.400000 0.358683
v 0.150534 0.400000 0.329625
v 0.237303 0.400000 0.273862
v 0.348440 0.300000 0.100457
v 0.304846 0.400000 0.195913
v 0.359810 0.400000 0.105650
v 0.359810 0.300000 -0.105649
v 0.375000 0.400000 0.000000
v 0.315470 0.400000 -0.202740
v 0.359810 0.500000 -0.105649
v 0.359810 0.400000 -0.105649
v 0.245573 0.400000 -0.283406
v 0.315470 0.500000 -0.202740
v 0.155781 0.400000 -0.341112
v 0.245573 0.500000 -0.283406
v 0.053368 0.400000 -0.371183
v 0.155781 0.500000 -0.341112
v -0.053368 0.400000 -0.371183
v 0.053368 0.500000 -0.371183
v -0.155780 0.400000 -0.341112
v -0.053368 0.500000 -0.371183
v -0.245573 0.400000 -0.283406
v -0.155780 0.500000 -0.341112
v -0.315470 0.400000 -0.202740
v -0.245573 0.500000 -0.283406
v -0.315470 0.500000 -0.202740
v -0.359810 0.500000 -0.105650
v -0.359810 0.400000 0.105650
v -0.375000 0.500000 0.000000
v -0.315470 0.400000 0.202740
v -0.359810 0.500000 0.105650
v -0.245573 0.400000 0.283406
v -0.315470 0.500000 0.202740
v -0.155781 0.400000 0.341112
v -0.245573 0.500000 0.283406
v -0.053368 0.400000 0.371183
v -0.155781 0.500000 0.341112
v 0.053368 0.400000 0.371183
v -0.053368 0.500000 0.371183
v 0.155781 0.400000 0.341112
v 0.053368 0.500000 0.371183
v 0.245573 0.400000 0.283406
v 0.155781 0.500000 0.341112
v 0.315470 0.400000 0.202740
v 0.245573 0.500000 0.283406
v 0.315470 0.500000 0.202741
v 0.359810 0.500000 0.105650
v 0.375000 0.500000 0.000000
v 0.272975 -0.537500 -0.175430
v 0.311342 -0.537500 -0.091418
v 0.000000 -0.537500 -0.000000
v 0.212493 -0.537500 -0.245230
v 0.134797 -0.537500 -0.295163
v 0.046179 -0.537500 -0.321183
v -0.046179 -0.537500 -0.321183
v -0.134796 -0.537500 -0.295163
v -0.212493 -0.537500 -0.245230
v -0.272975 -0.537500 -0.175431
v -0.311342 -0.537500 -0.091419
v -0.324486 -0.537500 -0.000000
v -0.311342 -0.537500 0.091418
v -0.272975 -0.537500 0.175430
v -0.212493 -0.537500 0.245230
v -0.134796 -0.537500 0.295163
v -0.046179 -0.537500 0.321183
v 0.046179 -0.537500 0.321183
v 0.134796 -0.537500 0.295163
v 0.212493 -0.537500 0.245230
v 0.272975 -0.537500 0.175430
v 0.311342 -0.537500 0.091418
v 0.324486 -0.537500 -0.000000
v 0.257538 0.534784 -0.075620
v 0.225802 0.534784 -0.145114
v 0.000000 0.534784 0.000000
v 0.175772 0.534784 -0.202851
v 0.111502 0.534784 -0.244155
v 0.038199 0.534784 -0.265679
v -0.038199 0.534784 -0.265679
v -0.111502 0.534784 -0.244155
v -0.175772 0.534784 -0.202851
v -0.225802 0.534784 -0.145114
v -0.257538 0.534784 -0.075620
v -0.268411 0.534784 0.000000
v -0.257538 0.534784 0.075620
v -0.225802 0.534784 0.145114
v -0.175772 0.534784 0.202852
v -0.111502 0.534784 0.244155
v -0.038199 0.534784 0.265679
v 0.038199 0.534784 0.265679
v 0.111502 0.534784 0.244155
v 0.175772 0.534784 0.202852
v 0.225802 0.534784 0.145114
v 0.257538 0.534784 0.075620
v 0.268411 0.534784 0.000000
v 0.359810 -0.400000 -0.105650
v 0.304846 -0.400000 -0.195913
v 0.348440 -0.400000 -0.100457
v 0.359810 -0.400000 -0.105650
v 0.348440 -0.300000 -0.100457
v 0.359810 -0.300000 -0.105650
v 0.245573 -0.400000 -0.283406
v 0.315470 -0.400000 -0.202740
v 0.155781 -0.400000 -0.341112
v 0.237303 -0.400000 -0.273862
v 0.051571 -0.400000 -0.358683
v 0.150535 -0.400000 -0.329625
v 0.053368 -0.400000 -0.371183
v -0.051571 -0.400000 -0.358683
v -0.053368 -0.400000 -0.371183
v -0.150534 -0.400000 -0.329625
v -0.155780 -0.400000 -0.341112
v -0.237303 -0.400000 -0.273862
v -0.315470 -0.400000 -0.202741
v -0.245573 -0.400000 -0.283406
v -0.359810 -0.400000 -0.105650
v -0.304846 -0.400000 -0.195913
v -0.359810 -0.300000 -0.105650
v -0.348440 -0.400000 -0.100457
v -0.359810 -0.400000 -0.105650
v 0.348440 -0.200000 -0.100457
v 0.359810 -0.200000 -0.105650
v -0.359810 -0.200000 -0.105650
v -0.348440 -0.300000 -0.100457
v 0.348440 -0.100000 -0.100457
v 0.359810 -0.100000 -0.105650
v -0.359810 -0.100000 -0.105650
v -0.348440 -0.200000 -0.100457
v 0.348440 0.000000 -0.100457
v 0.359810 0.000000 -0.105650
v -0.359810 0.000000 -0.105650
v -0.348440 -0.100000 -0.100457
v 0.348440 0.100000 -0.100457
v 0.359810 0.100000 -0.105649
v -0.359810 0.100000 -0.105650
v -0.348440 0.000000 -0.100457
v 0.348440 0.200000 -0.100457
v 0.359810 0.200000 -0.105649
v -0.359810 0.200000 -0.105650
v -0.348440 0.100000 -0.100457
v 0.348440 0.300000 -0.100457
v 0.359810 0.300000 -0.105649
v -0.359810 0.300000 -0.105650
v -0.348440 0.200000 -0.100457
v 0.359810 0.400000 -0.105649
v 0.304846 0.400000 -0.195912
v 0.315470 0.400000 -0.202740
v 0.348440 0.400000 -0.100457
v 0.359810 0.400000 -0.105649
v 0.237303 0.400000 -0.273862
v 0.245573 0.400000 -0.283406
v 0.150535 0.400000 -0.329625
v 0.155781 0.400000 -0.341112
v 0.053368 0.400000 -0.371183
v 0.051571 0.400000 -0.358683
v -0.051571 0.400000 -0.358683
v -0.053368 0.400000 -0.371183
v -0.155780 0.400000 -0.341112
v -0.150535 0.400000 -0.329625
v -0.245573 0.400000 -0.283406
v -0.237303 0.400000 -0.273862
v -0.304846 0.400000 -0.195913
v -0.315470 0.400000 -0.202740
v -0.359810 0.400000 -0.105650
v -0.348440 0.300000 -0.100457
v -0.359810 0.400000 -0.105650
v -0.348440 0.400000 -0.100457
v -0.359810 -0.400000 0.105649
v -0.304846 -0.400000 0.195913
v -0.348440 -0.400000 0.100457
v -0.359810 -0.400000 0.105649
v -0.348440 -0.300000 0.100457
v -0.359810 -0.300000 0.105650
v -0.315470 -0.400000 0.202740
v -0.237303 -0.400000 0.273862
v -0.245573 -0.400000 0.283406
v -0.150535 -0.400000 0.329625
v -0.053368 -0.400000 0.371183
v -0.155781 -0.400000 0.341112
v 0.053368 -0.400000 0.371183
v -0.051571 -0.400000 0.358683
v 0.150534 -0.400000 0.329625
v 0.051571 -0.400000 0.358683
v 0.155781 -0.400000 0.341112
v 0.237303 -0.400000 0.273862
v 0.315470 -0.400000 0.202740
v 0.245573 -0.400000 0.283406
v 0.359810 -0.400000 0.105650
v 0.304846 -0.400000 0.195913
v 0.359810 -0.300000 0.105650
v 0.348440 -0.400000 0.100457
v 0.359810 -0.400000 0.105650
v -0.348440 -0.200000 0.100457
v -0.359810 -0.200000 0.105650
v 0.359810 -0.200000 0.105650
v 0.348440 -0.300000 0.100457
v -0.348440 -0.100000 0.100457
v -0.359810 -0.100000 0.105650
v 0.359810 -0.100000 0.105650
v 0.348440 -0.200000 0.100457
v -0.348440 -0.000000 0.100457
v -0.359810 -0.000000 0.105650
v 0.359810 -0.000000 0.105650
v 0.348440 -0.100000 0.100457
v -0.348440 0.100000 0.100457
v -0.359810 0.100000 0.105650
v 0.359810 0.100000 0.105650
v 0.348440 -0.000000 0.100457
v -0.348440 0.200000 0.100457
v -0.359810 0.200000 0.105650
v 0.359810 0.200000 0.105650
v 0.348440 0.100000 0.100457
v -0.348440 0.300000 0.100457
v -0.359810 0.300000 0.105650
v 0.359810 0.300000 0.105650
v 0.348440 0.200000 0.100457
v -0.359810 0.400000 0.105650
v -0.304846 0.400000 0.195913
v -0.315470 0.400000 0.202740
v -0.348440 0.400000 0.100457
v -0.359810 0.400000 0.105650
v -0.245573 0.400000 0.283406
v -0.237303 0.400000 0.273862
v -0.155781 0.400000 0.341112
v -0.150535 0.400000 0.329625
v -0.053368 0.400000 0.371183
v -0.051571 0.400000 0.358683
v 0.053368 0.400000 0.371183
v 0.051571 0.400000 0.358683
v 0.150534 0.400000 0.329625
v 0.155781 0.400000 0.341112
v 0.237303 0.400000 0.273862
v 0.245573 0.400000 0.283406
v 0.315470 0.400000 0.202740
v 0.304846 0.400000 0.195913
v 0.359810 0.400000 0.105650
v 0.348440 0.300000 0.100457
v 0.359810 0.400000 0.105650
v 0.348440 0.400000 0.100457
v 0.359810 0.500000 -0.105649
v 0.272975 0.562500 -0.175430
v 0.311342 0.562500 -0.091418
v 0.315470 0.500000 -0.202740
v 0.212493 0.562500 -0.245230
v 0.245573 0.500000 -0.283406
v 0.134797 0.562500 -0.295162
v 0.155781 0.500000 -0.341112
v 0.046179 0.562500 -0.321183
v 0.053368 0.500000 -0.371183
v -0.046179 0.562500 -0.321183
v -0.053368 0.500000 -0.371183
v -0.134796 0.562500 -0.295163
v -0.245573 0.500000 -0.283406
v -0.155780 0.500000 -0.341112
v -0.315470 0.500000 -0.202740
v -0.212493 0.562500 -0.245230
v -0.359810 0.500000 -0.105650
v -0.272975 0.562500 -0.175430
v -0.375000 0.500000 0.000000
v -0.311342 0.562500 -0.091418
v -0.311342 0.562500 0.091418
v -0.324486 0.562500 0.000000
v -0.359810 0.500000 0.105650
v -0.272975 0.562500 0.175430
v -0.315470 0.500000 0.202740
v -0.212493 0.562500 0.245230
v -0.155781 0.500000 0.341112
v -0.245573 0.500000 0.283406
v -0.046179 0.562500 0.321183
v -0.134796 0.562500 0.295163
v -0.053368 0.500000 0.371183
v 0.046179 0.562500 0.321183
v 0.155781 0.500000 0.341112
v 0.053368 0.500000 0.371183
v 0.212493 0.562500 0.245230
v 0.134796 0.562500 0.295163
v 0.245573 0.500000 0.283406
v 0.272975 0.562500 0.175431
v 0.359810 0.500000 0.105650
v 0.315470 0.500000 0.202741
v 0.375000 0.500000 0.000000
v 0.311342 0.562500 0.091418
v 0.324486 0.562500 0.000000
v 0.359810 -0.500000 -0.105650
v 0.272975 -0.537500 -0.175430
v 0.315470 -0.500000 -0.202740
v 0.212493 -0.537500 -0.245230
v 0.245573 -0.500000 -0.283406
v 0.155781 -0.500000 -0.341112
v 0.134797 -0.537500 -0.295163
v 0.046179 -0.537500 -0.321183
v 0.053368 -0.500000 -0.371183
v -0.046179 -0.537500 -0.321183
v -0.053368 -0.500000 -0.371183
v -0.134796 -0.537500 -0.295163
v -0.155780 -0.500000 -0.341112
v -0.212493 -0.537500 -0.245230
v -0.245573 -0.500000 -0.283406
v -0.315470 -0.500000 -0.202741
v -0.272975 -0.537500 -0.175431
v -0.359810 -0.500000 -0.105650
v -0.311342 -0.537500 -0.091419
v -0.324486 -0.537500 -0.000000
v -0.375000 -0.500000 -0.000000
v -0.311342 -0.537500 0.091418
v -0.359810 -0.500000 0.105649
v -0.272975 -0.537500 0.175430
v -0.315470 -0.500000 0.202740
v -0.212493 -0.537500 0.245230
v -0.245573 -0.500000 0.283406
v -0.134796 -0.537500 0.295163
v -0.155781 -0.500000 0.341112
v -0.046179 -0.537500 0.321183
v -0.053368 -0.500000 0.371183
v 0.046179 -0.537500 0.321183
v 0.053368 -0.500000 0.371183
v 0.155781 -0.500000 0.341112
v 0.134796 -0.537500 0.295163
v 0.212493 -0.537500 0.245230
v 0.245573 -0.500000 0.283406
v 0.272975 -0.537500 0.175430
v 0.315470 -0.500000 0.202740
v 0.359810 -0.500000 0.105650
v 0.311342 -0.537500 0.091418
v 0.324486 -0.537500 -0.000000
v 0.375000 -0.500000 -0.000000
v 0.311342 -0.537500 -0.091418
v 0.311342 0.562500 -0.091418
v 0.246224 0.562595 -0.158238
v 0.280831 0.562595 -0.082459
v 0.212493 0.562500 -0.245230
v 0.272975 0.562500 -0.175430
v 0.121587 0.562595 -0.266237
v 0.191669 0.562595 -0.221197
v 0.046179 0.562500 -0.321183
v 0.134797 0.562500 -0.295162
v -0.046179 0.562500 -0.321183
v 0.041654 0.562595 -0.289707
v -0.134796 0.562500 -0.295163
v -0.041653 0.562595 -0.289707
v -0.212493 0.562500 -0.245230
v -0.121586 0.562595 -0.266237
v -0.246224 0.562595 -0.158238
v -0.191669 0.562595 -0.221198
v -0.272975 0.562500 -0.175430
v -0.280831 0.562595 -0.082459
v -0.311342 0.562500 -0.091418
v -0.292687 0.562595 0.000000
v -0.311342 0.562500 0.091418
v -0.324486 0.562500 0.000000
v -0.246224 0.562595 0.158238
v -0.280831 0.562595 0.082459
v -0.212493 0.562500 0.245230
v -0.272975 0.562500 0.175430
v -0.121587 0.562595 0.266237
v -0.191669 0.562595 0.221198
v -0.046179 0.562500 0.321183
v -0.134796 0.562500 0.295163
v 0.041654 0.562595 0.289708
v -0.041654 0.562595 0.289708
v 0.134796 0.562500 0.295163
v 0.046179 0.562500 0.321183
v 0.212493 0.562500 0.245230
v 0.121586 0.562595 0.266237
v 0.246224 0.562595 0.158239
v 0.191669 0.562595 0.221198
v 0.311342 0.562500 0.091418
v 0.272975 0.562500 0.175431
v 0.324486 0.562500 0.000000
v 0.280831 0.562595 0.082460
v 0.292686 0.562595 0.000000
v 0.246224 0.562595 -0.158238
v 0.257538 0.534784 -0.075620
v 0.280831 0.562595 -0.082459
v 0.191669 0.562595 -0.221197
v 0.225802 0.534784 -0.145114
v 0.121587 0.562595 -0.266237
v 0.175772 0.534784 -0.202851
v 0.038199 0.534784 -0.265679
v 0.111502 0.534784 -0.244155
v 0.041654 0.562595 -0.289707
v -0.038199 0.534784 -0.265679
v -0.121586 0.562595 -0.266237
v -0.041653 0.562595 -0.289707
v -0.175772 0.534784 -0.202851
v -0.111502 0.534784 -0.244155
v -0.246224 0.562595 -0.158238
v -0.191669 0.562595 -0.221198
v -0.280831 0.562595 -0.082459
v -0.225802 0.534784 -0.145114
v -0.292687 0.562595 0.000000
v -0.257538 0.534784 -0.075620
v -0.280831 0.562595 0.082459
v -0.268411 0.534784 0.000000
v -0.225802 0.534784 0.145114
v -0.257538 0.534784 0.075620
v -0.246224 0.562595 0.158238
v -0.175772 0.534784 0.202852
v -0.191669 0.562595 0.221198
v -0.111502 0.534784 0.244155
v -0.041654 0.562595 0.289708
v -0.121587 0.562595 0.266237
v 0.041654 0.562595 0.289708
v -0.038199 0.534784 0.265679
v 0.121586 0.562595 0.266237
v 0.038199 0.534784 0.265679
v 0.191669 0.562595 0.221198
v 0.111502 0.534784 0.244155
v 0.225802 0.534784 0.145114
v 0.175772 0.534784 0.202852
v 0.246224 0.562595 0.158239
v 0.257538 0.534784 0.075620
v 0.292686 0.562595 0.000000
v 0.280831 0.562595 0.082460
v 0.268411 0.534784 0.000000
v 0.062500 0.630123 -0.221833
v 0.062500 0.514394 -0.247924
v -0.062500 0.514394 -0.221701
v 0.062500 0.689870 -0.133873
v 0.062500 0.724840 -0.133873
v -0.062500 0.724840 -0.133873
v 0.062500 0.689870 0.000000
v -0.062500 0.724840 0.000000
v -0.062500 0.689870 0.000000
v 0.062500 0.630123 0.221833
v 0.062500 0.514394 0.247925
v 0.062500 0.689870 0.133873
v -0.062500 0.724840 0.133873
v 0.348440 -0.300000 0.100457
v 0.348440 -0.000000 0.100457
v -0.348440 0.400000 -0.100457
v 0.348440 0.400000 0.100457
v 0.348440 -0.400000 -0.100457
v -0.348440 -0.400000 -0.100457
v 0.348440 0.400000 -0.100457
v -0.348440 0.400000 -0.100457
v -0.348440 -0.400000 0.100457
v 0.348440 -0.400000 0.100457
v -0.348440 0.400000 0.100457
v 0.348440 0.400000 0.100457
vt 0.761055 0.997975
vt 0.687131 0.926977
vt 0.687131 0.997975
vt 0.849254 0.926241
vt 0.775330 0.998216
vt 0.775330 0.926241
vt 0.996032 0.923963
vt 0.920426 0.907936
vt 0.996032 0.907855
vt 0.996075 0.619387
vt 0.920469 0.635414
vt 0.908355 0.619468
vt 0.761055 0.926977
vt 0.687131 0.855642
vt 0.687131 0.926977
vt 0.908312 0.923882
vt 0.881393 0.853907
vt 0.775330 0.926241
vt 0.849255 0.855643
vt 0.849254 0.926241
vt 0.881436 0.689443
vt 0.858590 0.689443
vt 0.761055 0.855642
vt 0.687131 0.772679
vt 0.687131 0.855642
vt 0.858547 0.771675
vt 0.881393 0.771675
vt 0.775330 0.855642
vt 0.849254 0.772679
vt 0.849255 0.855643
vt 0.858591 0.771675
vt 0.687131 0.619360
vt 0.761055 0.549821
vt 0.687131 0.549821
vt 0.775330 0.548803
vt 0.849255 0.619117
vt 0.775330 0.619117
vt 0.920426 0.635414
vt 0.996032 0.619387
vt 0.996032 0.635495
vt 0.996075 0.923963
vt 0.920469 0.907936
vt 0.996075 0.907855
vt 0.687131 0.689715
vt 0.761055 0.619360
vt 0.687131 0.619360
vt 0.881393 0.689443
vt 0.908312 0.619468
vt 0.849255 0.689715
vt 0.775330 0.619117
vt 0.849255 0.619117
vt 0.908355 0.923882
vt 0.881436 0.853907
vt 0.761055 0.689715
vt 0.687131 0.689715
vt 0.858547 0.689443
vt 0.775330 0.689715
vt 0.849255 0.689715
vt 0.858590 0.853907
vt 0.048056 0.008685
vt 0.002991 0.052306
vt 0.002991 0.008685
vt 0.093121 0.008685
vt 0.048056 0.052306
vt 0.138186 0.008685
vt 0.093121 0.052306
vt 0.183251 0.008685
vt 0.138186 0.052306
vt 0.228316 0.008685
vt 0.183251 0.052306
vt 0.273382 0.008685
vt 0.228317 0.052306
vt 0.318447 0.008685
vt 0.273382 0.052306
vt 0.363512 0.008685
vt 0.318447 0.052306
vt 0.408577 0.008685
vt 0.363512 0.052306
vt 0.453643 0.008685
vt 0.408577 0.052306
vt 0.498708 0.008685
vt 0.453643 0.052306
vt 0.543773 0.008685
vt 0.498708 0.052306
vt 0.588838 0.008685
vt 0.543773 0.052306
vt 0.633903 0.008685
vt 0.588838 0.052306
vt 0.678969 0.008685
vt 0.633903 0.052306
vt 0.724034 0.008685
vt 0.678969 0.052306
vt 0.769099 0.008685
vt 0.724034 0.052306
vt 0.814164 0.008685
vt 0.769099 0.052306
vt 0.859229 0.008685
vt 0.814164 0.052306
vt 0.904294 0.008685
vt 0.859229 0.052306
vt 0.949360 0.008685
vt 0.904294 0.052306
vt 0.994425 0.008685
vt 0.949360 0.052306
vt 0.002991 0.052306
vt 0.048056 0.095927
vt 0.002991 0.095927
vt 0.048056 0.052306
vt 0.093121 0.095927
vt 0.093121 0.052306
vt 0.138186 0.095927
vt 0.183251 0.052306
vt 0.138186 0.052306
vt 0.228317 0.052306
vt 0.183251 0.095927
vt 0.273382 0.052306
vt 0.228317 0.095927
vt 0.318447 0.052306
vt 0.273382 0.095927
vt 0.363512 0.095927
vt 0.318447 0.095927
vt 0.408577 0.052306
vt 0.363512 0.052306
vt 0.408577 0.095927
vt 0.453643 0.095927
vt 0.543773 0.052306
vt 0.498708 0.095927
vt 0.498708 0.052306
vt 0.588838 0.052306
vt 0.543773 0.095927
vt 0.633903 0.052306
vt 0.588838 0.095927
vt 0.678969 0.052306
vt 0.633903 0.095927
vt 0.724034 0.052306
vt 0.678969 0.095927
vt 0.769099 0.052306
vt 0.724034 0.095927
vt 0.814164 0.052306
vt 0.769099 0.095927
vt 0.859229 0.052306
vt 0.814164 0.095927
vt 0.904294 0.052306
vt 0.859229 0.095927
vt 0.904294 0.095927
vt 0.994425 0.052306
vt 0.949360 0.095927
vt 0.002991 0.139549
vt 0.048056 0.139549
vt 0.093121 0.139549
vt 0.138186 0.139549
vt 0.228317 0.139549
vt 0.183251 0.139549
vt 0.273382 0.139549
vt 0.318447 0.139549
vt 0.408577 0.095927
vt 0.363512 0.139549
vt 0.408577 0.139549
vt 0.498708 0.095927
vt 0.453643 0.139549
vt 0.498708 0.139549
vt 0.543773 0.139549
vt 0.588838 0.139549
vt 0.633903 0.139549
vt 0.724034 0.139549
vt 0.678969 0.139549
vt 0.769099 0.139549
vt 0.859229 0.139549
vt 0.814164 0.139549
vt 0.904294 0.139549
vt 0.904294 0.139549
vt 0.994425 0.095927
vt 0.949360 0.139549
vt 0.002991 0.183170
vt 0.048056 0.183170
vt 0.093121 0.183170
vt 0.138186 0.183170
vt 0.183251 0.183170
vt 0.228317 0.183170
vt 0.273382 0.183170
vt 0.318447 0.183170
vt 0.408577 0.139549
vt 0.363512 0.183170
vt 0.408577 0.183170
vt 0.498708 0.139549
vt 0.453643 0.183170
vt 0.498708 0.183170
vt 0.543773 0.183170
vt 0.588838 0.183170
vt 0.633903 0.183170
vt 0.678969 0.183170
vt 0.724034 0.183170
vt 0.769099 0.183170
vt 0.814164 0.183170
vt 0.859229 0.183170
vt 0.904294 0.183170
vt 0.994425 0.139549
vt 0.949360 0.183170
vt 0.002991 0.226791
vt 0.048056 0.226791
vt 0.093121 0.226791
vt 0.138186 0.226791
vt 0.183251 0.226791
vt 0.273382 0.226791
vt 0.228317 0.226791
vt 0.318447 0.226791
vt 0.408577 0.183170
vt 0.363512 0.226791
vt 0.408577 0.226791
vt 0.498708 0.183170
vt 0.453643 0.226791
vt 0.498708 0.226791
vt 0.543773 0.226791
vt 0.633903 0.226791
vt 0.588838 0.226791
vt 0.678969 0.226791
vt 0.724034 0.226791
vt 0.769099 0.226791
vt 0.814164 0.226791
vt 0.904294 0.183170
vt 0.859229 0.226791
vt 0.904294 0.226791
vt 0.994425 0.183170
vt 0.949360 0.226791
vt 0.002991 0.270413
vt 0.048056 0.270413
vt 0.093121 0.270413
vt 0.138186 0.270413
vt 0.183251 0.270413
vt 0.228317 0.270413
vt 0.273382 0.270413
vt 0.318447 0.270413
vt 0.408577 0.226791
vt 0.363512 0.270413
vt 0.408577 0.270413
vt 0.498708 0.226791
vt 0.453643 0.270413
vt 0.498708 0.270413
vt 0.543773 0.270413
vt 0.588838 0.270413
vt 0.633903 0.270413
vt 0.678969 0.270413
vt 0.724034 0.270412
vt 0.769099 0.270413
vt 0.859229 0.270413
vt 0.814164 0.270413
vt 0.904294 0.270413
vt 0.904294 0.270413
vt 0.994425 0.226791
vt 0.949360 0.270413
vt 0.002991 0.314034
vt 0.048056 0.314034
vt 0.093121 0.314034
vt 0.138186 0.314034
vt 0.183251 0.314034
vt 0.228317 0.314034
vt 0.318447 0.314034
vt 0.273382 0.314034
vt 0.363512 0.314034
vt 0.408577 0.270413
vt 0.408577 0.314034
vt 0.498708 0.270413
vt 0.453643 0.314034
vt 0.498708 0.314034
vt 0.543773 0.314034
vt 0.588838 0.314034
vt 0.633903 0.314034
vt 0.678969 0.314034
vt 0.724034 0.314034
vt 0.769099 0.314034
vt 0.814164 0.314034
vt 0.859229 0.314034
vt 0.904294 0.314034
vt 0.994425 0.270413
vt 0.949360 0.314034
vt 0.048056 0.357655
vt 0.002991 0.357655
vt 0.093121 0.357655
vt 0.138186 0.357655
vt 0.183251 0.357655
vt 0.228317 0.357655
vt 0.273382 0.357655
vt 0.318447 0.357655
vt 0.408577 0.314034
vt 0.363512 0.357655
vt 0.408577 0.357655
vt 0.498708 0.314034
vt 0.453643 0.357655
vt 0.498708 0.357655
vt 0.543773 0.357655
vt 0.588838 0.357655
vt 0.633903 0.357655
vt 0.678969 0.357655
vt 0.724034 0.357655
vt 0.769099 0.357655
vt 0.814164 0.357655
vt 0.904294 0.314034
vt 0.859229 0.357655
vt 0.904294 0.357655
vt 0.994425 0.314034
vt 0.949360 0.357655
vt 0.002991 0.401276
vt 0.048056 0.401276
vt 0.093121 0.401276
vt 0.138186 0.401276
vt 0.183251 0.401276
vt 0.228317 0.401276
vt 0.273382 0.401276
vt 0.318447 0.401276
vt 0.408577 0.357655
vt 0.363512 0.401276
vt 0.408577 0.401276
vt 0.498708 0.357655
vt 0.453643 0.401276
vt 0.498708 0.401276
vt 0.543773 0.401276
vt 0.588838 0.401276
vt 0.633903 0.401276
vt 0.678969 0.401276
vt 0.724034 0.401276
vt 0.769099 0.401276
vt 0.814164 0.401276
vt 0.904294 0.357655
vt 0.859229 0.401276
vt 0.904294 0.401276
vt 0.994425 0.357655
vt 0.949360 0.401276
vt 0.048056 0.401276
vt 0.002991 0.444898
vt 0.002991 0.401276
vt 0.093121 0.401276
vt 0.048056 0.444898
vt 0.138186 0.401276
vt 0.093121 0.444898
vt 0.183251 0.401276
vt 0.138186 0.444898
vt 0.228317 0.401276
vt 0.183251 0.444898
vt 0.273382 0.401276
vt 0.228317 0.444898
vt 0.318447 0.401276
vt 0.273382 0.444898
vt 0.363512 0.401276
vt 0.318447 0.444898
vt 0.363512 0.444898
vt 0.408577 0.444898
vt 0.498708 0.401276
vt 0.453643 0.444898
vt 0.543773 0.401276
vt 0.498708 0.444898
vt 0.588838 0.401276
vt 0.543773 0.444898
vt 0.633903 0.401276
vt 0.588838 0.444898
vt 0.678969 0.401276
vt 0.633904 0.444898
vt 0.724034 0.401276
vt 0.678969 0.444898
vt 0.769099 0.401276
vt 0.724034 0.444898
vt 0.814164 0.401276
vt 0.769099 0.444898
vt 0.859229 0.401276
vt 0.814164 0.444898
vt 0.859229 0.444898
vt 0.904294 0.444898
vt 0.994425 0.401276
vt 0.949360 0.444898
vt 0.616913 0.784849
vt 0.630775 0.815203
vt 0.518286 0.843543
vt 0.595060 0.759630
vt 0.566988 0.741589
vt 0.534970 0.732187
vt 0.501601 0.732187
vt 0.469583 0.741589
vt 0.441511 0.759630
vt 0.419659 0.784849
vt 0.405796 0.815203
vt 0.401047 0.848232
vt 0.405796 0.881262
vt 0.419659 0.911616
vt 0.441511 0.936835
vt 0.469583 0.954876
vt 0.501601 0.964277
vt 0.534970 0.964277
vt 0.566988 0.954876
vt 0.595060 0.936835
vt 0.616913 0.911616
vt 0.630775 0.881262
vt 0.635524 0.848232
vt 0.276475 0.852306
vt 0.264776 0.877923
vt 0.181539 0.819741
vt 0.246334 0.899207
vt 0.222642 0.914433
vt 0.195620 0.922367
vt 0.167458 0.922367
vt 0.140437 0.914433
vt 0.116745 0.899207
vt 0.098303 0.877923
vt 0.086604 0.852306
vt 0.082596 0.824430
vt 0.086604 0.796555
vt 0.098303 0.770937
vt 0.116745 0.749654
vt 0.140437 0.734428
vt 0.167458 0.726494
vt 0.195620 0.726494
vt 0.222642 0.734428
vt 0.246334 0.749654
vt 0.264776 0.770937
vt 0.276475 0.796555
vt 0.280483 0.824430
vt 0.002991 0.052306
vt 0.048056 0.052306
vt 0.002991 0.052306
vt 0.002991 0.052306
vt 0.002991 0.095927
vt 0.002991 0.095927
vt 0.093121 0.052306
vt 0.048056 0.052306
vt 0.138186 0.052306
vt 0.093121 0.052306
vt 0.183251 0.052306
vt 0.138186 0.052306
vt 0.183251 0.052306
vt 0.228317 0.052306
vt 0.228317 0.052306
vt 0.273382 0.052306
vt 0.273382 0.052306
vt 0.318447 0.052306
vt 0.363512 0.052306
vt 0.318447 0.052306
vt 0.408577 0.052306
vt 0.363512 0.052306
vt 0.408577 0.095927
vt 0.408577 0.052306
vt 0.408577 0.052306
vt 0.543773 0.052306
vt 0.498708 0.052306
vt 0.498708 0.052306
vt 0.498708 0.052306
vt 0.498708 0.095927
vt 0.498708 0.095927
vt 0.588838 0.052306
vt 0.543773 0.052306
vt 0.543773 0.052306
vt 0.633903 0.052306
vt 0.588838 0.052306
vt 0.588838 0.052306
vt 0.678969 0.052306
vt 0.633903 0.052306
vt 0.633903 0.052306
vt 0.724034 0.052306
vt 0.678969 0.052306
vt 0.678969 0.052306
vt 0.769099 0.052306
vt 0.724034 0.052306
vt 0.724034 0.052306
vt 0.814164 0.052306
vt 0.769099 0.052306
vt 0.769099 0.052306
vt 0.859229 0.052306
vt 0.814164 0.052306
vt 0.814164 0.052306
vt 0.904294 0.052306
vt 0.859229 0.052306
vt 0.859229 0.052306
vt 0.904294 0.095927
vt 0.904294 0.052306
vt 0.904294 0.052306
vt 0.002991 0.095927
vt 0.002991 0.139549
vt 0.002991 0.139549
vt 0.408577 0.139549
vt 0.408577 0.095927
vt 0.408577 0.095927
vt 0.498708 0.095927
vt 0.498708 0.139549
vt 0.498708 0.139549
vt 0.904294 0.139549
vt 0.904294 0.095927
vt 0.904294 0.095927
vt 0.002991 0.139549
vt 0.002991 0.183170
vt 0.002991 0.183170
vt 0.408577 0.139549
vt 0.408577 0.183170
vt 0.408577 0.139549
vt 0.498708 0.139549
vt 0.498708 0.183170
vt 0.498708 0.183170
vt 0.904294 0.139549
vt 0.904294 0.183170
vt 0.904294 0.139549
vt 0.002991 0.226791
vt 0.002991 0.183170
vt 0.002991 0.226791
vt 0.408577 0.226791
vt 0.408577 0.183170
vt 0.408577 0.183170
vt 0.498708 0.183170
vt 0.498708 0.226791
vt 0.498708 0.226791
vt 0.904294 0.183170
vt 0.904294 0.226791
vt 0.904294 0.183170
vt 0.002991 0.270413
vt 0.002991 0.226791
vt 0.002991 0.270413
vt 0.408577 0.270413
vt 0.408577 0.226791
vt 0.408577 0.226791
vt 0.498708 0.270413
vt 0.498708 0.226791
vt 0.498708 0.270413
vt 0.904294 0.226791
vt 0.904294 0.270413
vt 0.904294 0.226791
vt 0.002991 0.270413
vt 0.002991 0.314034
vt 0.002991 0.314034
vt 0.408577 0.314034
vt 0.408577 0.270413
vt 0.408577 0.270413
vt 0.498708 0.314034
vt 0.498708 0.270413
vt 0.498708 0.314034
vt 0.904294 0.270413
vt 0.904294 0.314034
vt 0.904294 0.270413
vt 0.002991 0.314034
vt 0.002991 0.357655
vt 0.002991 0.357655
vt 0.408577 0.357655
vt 0.408577 0.314034
vt 0.408577 0.314034
vt 0.498708 0.314034
vt 0.498708 0.357655
vt 0.498708 0.357655
vt 0.904294 0.357655
vt 0.904294 0.314034
vt 0.904294 0.314034
vt 0.002991 0.401276
vt 0.048056 0.401276
vt 0.048056 0.401276
vt 0.002991 0.357655
vt 0.002991 0.401276
vt 0.002991 0.401276
vt 0.048056 0.401276
vt 0.093121 0.401276
vt 0.093121 0.401276
vt 0.093121 0.401276
vt 0.138186 0.401276
vt 0.138186 0.401276
vt 0.138186 0.401276
vt 0.183251 0.401276
vt 0.183251 0.401276
vt 0.183251 0.401276
vt 0.228317 0.401276
vt 0.228317 0.401276
vt 0.228317 0.401276
vt 0.273382 0.401276
vt 0.273382 0.401276
vt 0.273382 0.401276
vt 0.318447 0.401276
vt 0.318447 0.401276
vt 0.318447 0.401276
vt 0.363512 0.401276
vt 0.363512 0.401276
vt 0.408577 0.401276
vt 0.408577 0.357655
vt 0.408577 0.357655
vt 0.363512 0.401276
vt 0.408577 0.401276
vt 0.408577 0.401276
vt 0.498708 0.401276
vt 0.543773 0.401276
vt 0.543773 0.401276
vt 0.498708 0.357655
vt 0.498708 0.401276
vt 0.498708 0.401276
vt 0.588838 0.401276
vt 0.588838 0.401276
vt 0.633903 0.401276
vt 0.633903 0.401276
vt 0.678969 0.401276
vt 0.678969 0.401276
vt 0.724034 0.401276
vt 0.724034 0.401276
vt 0.769099 0.401276
vt 0.769099 0.401276
vt 0.814164 0.401276
vt 0.814164 0.401276
vt 0.859229 0.401276
vt 0.859229 0.401276
vt 0.904294 0.401276
vt 0.904294 0.357655
vt 0.904294 0.357655
vt 0.904294 0.401276
vt 0.904294 0.401276
vt 0.352242 0.874553
vt 0.292479 0.895727
vt 0.308071 0.861584
vt 0.331207 0.920615
vt 0.267898 0.924094
vt 0.298045 0.958886
vt 0.236322 0.944387
vt 0.255446 0.986263
vt 0.200307 0.954962
vt 0.206858 1.000529
vt 0.162772 0.954962
vt 0.156220 1.000529
vt 0.126757 0.944387
vt 0.065033 0.958886
vt 0.107633 0.986263
vt 0.031872 0.920615
vt 0.095180 0.924094
vt 0.010836 0.874553
vt 0.070600 0.895727
vt 0.003630 0.824430
vt 0.055007 0.861584
vt 0.055007 0.787277
vt 0.049665 0.824430
vt 0.010836 0.774307
vt 0.070600 0.753134
vt 0.031872 0.728245
vt 0.095180 0.724767
vt 0.107633 0.662598
vt 0.065033 0.689975
vt 0.162772 0.693899
vt 0.126757 0.704473
vt 0.156220 0.648332
vt 0.200307 0.693899
vt 0.255446 0.662598
vt 0.206858 0.648332
vt 0.267898 0.724767
vt 0.236322 0.704473
vt 0.298045 0.689975
vt 0.292479 0.753134
vt 0.352242 0.774307
vt 0.331206 0.728245
vt 0.359449 0.824430
vt 0.308071 0.787277
vt 0.313413 0.824430
vt 0.663541 0.805581
vt 0.616913 0.784849
vt 0.645641 0.766386
vt 0.595060 0.759630
vt 0.617424 0.733821
vt 0.581174 0.710525
vt 0.566988 0.741589
vt 0.534970 0.732187
vt 0.539830 0.698385
vt 0.501601 0.732187
vt 0.496741 0.698385
vt 0.469583 0.741589
vt 0.455397 0.710525
vt 0.441511 0.759630
vt 0.419147 0.733821
vt 0.390930 0.766386
vt 0.419659 0.784849
vt 0.373030 0.805581
vt 0.405796 0.815203
vt 0.401047 0.848232
vt 0.366897 0.848232
vt 0.405796 0.881262
vt 0.373030 0.890883
vt 0.419659 0.911616
vt 0.390930 0.930079
vt 0.441511 0.936835
vt 0.419147 0.962644
vt 0.469583 0.954876
vt 0.455397 0.985940
vt 0.501601 0.964277
vt 0.496741 0.998080
vt 0.534970 0.964277
vt 0.539830 0.998080
vt 0.581175 0.985940
vt 0.566988 0.954876
vt 0.595060 0.936835
vt 0.617424 0.962644
vt 0.616913 0.911616
vt 0.645642 0.930079
vt 0.663541 0.890883
vt 0.630775 0.881262
vt 0.635524 0.848232
vt 0.669674 0.848232
vt 0.630775 0.815203
vt 0.308071 0.861584
vt 0.280167 0.887814
vt 0.294029 0.857460
vt 0.267898 0.924094
vt 0.292479 0.895727
vt 0.230242 0.931074
vt 0.258314 0.913033
vt 0.200307 0.954962
vt 0.236322 0.944387
vt 0.162772 0.954962
vt 0.198224 0.940475
vt 0.126757 0.944387
vt 0.164855 0.940475
vt 0.095180 0.924094
vt 0.132837 0.931074
vt 0.082912 0.887814
vt 0.104765 0.913033
vt 0.070600 0.895727
vt 0.069050 0.857460
vt 0.055007 0.861584
vt 0.064301 0.824430
vt 0.055007 0.787277
vt 0.049665 0.824430
vt 0.082912 0.761047
vt 0.069050 0.791400
vt 0.095180 0.724767
vt 0.070600 0.753134
vt 0.132837 0.717787
vt 0.104765 0.735828
vt 0.162772 0.693899
vt 0.126757 0.704473
vt 0.198224 0.708385
vt 0.164855 0.708385
vt 0.236322 0.704473
vt 0.200307 0.693899
vt 0.267898 0.724767
vt 0.230242 0.717787
vt 0.280166 0.761047
vt 0.258314 0.735828
vt 0.308071 0.787277
vt 0.292479 0.753134
vt 0.313413 0.824430
vt 0.294029 0.791400
vt 0.298778 0.824430
vt 0.280167 0.887814
vt 0.276475 0.852306
vt 0.294029 0.857460
vt 0.258314 0.913033
vt 0.264776 0.877923
vt 0.230242 0.931074
vt 0.246334 0.899207
vt 0.195620 0.922367
vt 0.222642 0.914433
vt 0.198224 0.940475
vt 0.167458 0.922367
vt 0.132837 0.931074
vt 0.164855 0.940475
vt 0.116745 0.899207
vt 0.140437 0.914433
vt 0.082912 0.887814
vt 0.104765 0.913033
vt 0.069050 0.857460
vt 0.098303 0.877923
vt 0.064301 0.824430
vt 0.086604 0.852306
vt 0.069050 0.791400
vt 0.082596 0.824430
vt 0.098303 0.770937
vt 0.086604 0.796555
vt 0.082912 0.761047
vt 0.116745 0.749654
vt 0.104765 0.735828
vt 0.140437 0.734428
vt 0.164855 0.708385
vt 0.132837 0.717787
vt 0.198224 0.708385
vt 0.167458 0.726494
vt 0.230242 0.717787
vt 0.195620 0.726494
vt 0.258314 0.735828
vt 0.222642 0.734428
vt 0.264776 0.770937
vt 0.246334 0.749654
vt 0.280166 0.761047
vt 0.276475 0.796555
vt 0.298778 0.824430
vt 0.294029 0.791400
vt 0.280483 0.824430
vt 0.761055 0.926977
vt 0.849254 0.998216
vt 0.996075 0.635495
vt 0.761055 0.855642
vt 0.858547 0.853907
vt 0.775330 0.855642
vt 0.761055 0.772678
vt 0.775330 0.772678
vt 0.881436 0.771675
vt 0.761055 0.619360
vt 0.849255 0.548803
vt 0.761055 0.689715
vt 0.775330 0.689715
vt 0.904294 0.095927
vt 0.904294 0.226791
vt 0.408577 0.401276
vt 0.904294 0.401276
vt 0.994425 0.444898
vt 0.002991 0.052306
vt 0.408577 0.052306
vt 0.408577 0.095927
vt 0.543773 0.052306
vt 0.498708 0.052306
vt 0.588838 0.052306
vt 0.633903 0.052306
vt 0.678969 0.052306
vt 0.724034 0.052306
vt 0.769099 0.052306
vt 0.814164 0.052306
vt 0.859229 0.052306
vt 0.904294 0.052306
vt 0.904294 0.095927
vt 0.002991 0.095927
vt 0.408577 0.139549
vt 0.498708 0.095927
vt 0.904294 0.139549
vt 0.002991 0.139549
vt 0.408577 0.183170
vt 0.498708 0.139549
vt 0.904294 0.183170
vt 0.002991 0.183170
vt 0.408577 0.226791
vt 0.498708 0.183170
vt 0.904294 0.226791
vt 0.002991 0.226791
vt 0.408577 0.270413
vt 0.498708 0.226791
vt 0.904294 0.270413
vt 0.002991 0.270413
vt 0.408577 0.314034
vt 0.498708 0.270413
vt 0.904294 0.314034
vt 0.002991 0.314034
vt 0.408577 0.357655
vt 0.498708 0.314034
vt 0.904294 0.357655
vt 0.002991 0.401276
vt 0.002991 0.357655
vt 0.048056 0.401276
vt 0.093121 0.401276
vt 0.138186 0.401276
vt 0.183251 0.401276
vt 0.228317 0.401276
vt 0.273382 0.401276
vt 0.318447 0.401276
vt 0.408577 0.401276
vt 0.363512 0.401276
vt 0.498708 0.401276
vt 0.498708 0.357655
vt 0.904294 0.401276
vn 0.0000 0.0011 1.0000
vn 0.0000 0.0010 -1.0000
vn 1.0000 0.0000 0.0000
vn -1.0000 0.0000 0.0000
vn 0.0000 -0.8272 0.5619
vn 0.0000 0.8313 -0.5559
vn 0.0000 0.8313 -0.5558
vn 0.0000 -1.0000 -0.0000
vn 0.0000 1.0000 0.0000
vn 0.0000 0.0011 -1.0000
vn 0.0000 0.0010 1.0000
vn 0.0000 -0.8272 -0.5619
vn 0.0000 0.8313 0.5559
vn 0.8413 0.0000 -0.5406
vn 0.9719 0.0000 -0.2355
vn 0.9595 0.0000 -0.2817
vn 0.6549 0.0000 -0.7557
vn 0.4154 0.0000 -0.9096
vn 0.1423 0.0000 -0.9898
vn -0.1423 0.0000 -0.9898
vn -0.4154 0.0000 -0.9096
vn -0.6549 0.0000 -0.7558
vn -0.8413 0.0000 -0.5406
vn -0.6549 0.0000 -0.7557
vn -0.9595 -0.0000 -0.2817
vn -0.9719 -0.0000 -0.2355
vn -0.9595 -0.0000 0.2817
vn -0.8413 -0.0000 0.5406
vn -0.9719 -0.0000 0.2355
vn -0.6549 -0.0000 0.7557
vn -0.4154 -0.0000 0.9096
vn -0.1423 -0.0000 0.9898
vn 0.1423 -0.0000 0.9898
vn 0.4154 -0.0000 0.9096
vn 0.6549 -0.0000 0.7558
vn 0.8413 -0.0000 0.5406
vn 0.9595 -0.0000 0.2817
vn 0.9719 -0.0000 0.2355
vn 0.9096 0.0000 -0.4154
vn -0.9096 0.0000 -0.4154
vn -0.9898 -0.0000 -0.1423
vn -0.9096 -0.0000 0.4154
vn 0.6549 -0.0000 0.7557
vn 0.9096 -0.0000 0.4154
vn 0.9898 -0.0000 0.1423
vn -0.9898 0.0000 0.1423
vn 0.9898 -0.0000 -0.1423
vn 0.7462 0.6286 -0.2191
vn 0.6543 0.6286 -0.4205
vn 0.5093 0.6286 -0.5878
vn 0.3231 0.6286 -0.7075
vn 0.1107 0.6286 -0.7698
vn -0.1107 0.6286 -0.7698
vn -0.3231 0.6286 -0.7075
vn -0.5093 0.6286 -0.5878
vn -0.6543 0.6286 -0.4205
vn -0.7462 0.6286 -0.2191
vn -0.7777 0.6286 -0.0000
vn -0.7462 0.6286 0.2191
vn -0.6543 0.6286 0.4205
vn -0.5093 0.6286 0.5878
vn -0.3231 0.6286 0.7075
vn -0.1107 0.6286 0.7698
vn 0.1107 0.6286 0.7698
vn 0.3231 0.6286 0.7075
vn 0.5093 0.6286 0.5878
vn 0.6543 0.6286 0.4205
vn 0.7462 0.6286 0.2191
vn 0.7777 0.6286 0.0000
vn 0.5719 -0.8029 -0.1679
vn 0.5014 -0.8029 -0.3223
vn 0.3903 -0.8029 -0.4505
vn 0.2476 -0.8029 -0.5422
vn 0.0848 -0.8029 -0.5900
vn -0.0848 -0.8029 -0.5900
vn -0.2476 -0.8029 -0.5422
vn -0.3903 -0.8029 -0.4505
vn -0.5014 -0.8029 -0.3223
vn -0.5719 -0.8029 -0.1679
vn -0.5961 -0.8029 -0.0000
vn -0.5719 -0.8029 0.1679
vn -0.5014 -0.8029 0.3223
vn -0.3903 -0.8029 0.4505
vn -0.2476 -0.8029 0.5422
vn -0.0848 -0.8029 0.5900
vn 0.0848 -0.8029 0.5900
vn 0.2476 -0.8029 0.5422
vn 0.3903 -0.8029 0.4505
vn 0.5014 -0.8029 0.3223
vn 0.5719 -0.8029 0.1679
vn 0.5961 -0.8029 -0.0000
vn 0.0029 1.0000 -0.0008
vn 0.0025 1.0000 -0.0016
vn 0.0020 1.0000 -0.0023
vn 0.0012 1.0000 -0.0027
vn 0.0004 1.0000 -0.0030
vn -0.0004 1.0000 -0.0030
vn -0.0012 1.0000 -0.0027
vn -0.0020 1.0000 -0.0023
vn -0.0025 1.0000 -0.0016
vn -0.0029 1.0000 -0.0008
vn -0.0030 1.0000 -0.0000
vn -0.0029 1.0000 0.0008
vn -0.0025 1.0000 0.0016
vn -0.0020 1.0000 0.0023
vn -0.0012 1.0000 0.0027
vn -0.0004 1.0000 0.0030
vn 0.0004 1.0000 0.0030
vn 0.0012 1.0000 0.0027
vn 0.0020 1.0000 0.0023
vn 0.0025 1.0000 0.0016
vn 0.0029 1.0000 0.0008
vn 0.0030 1.0000 -0.0000
vn -0.6338 0.6576 0.4073
vn -0.7228 0.6576 0.2122
vn -0.4934 0.6576 0.5694
vn -0.3130 0.6576 0.6853
vn -0.1072 0.6576 0.7457
vn 0.1072 0.6576 0.7457
vn 0.3130 0.6576 0.6853
vn 0.4933 0.6576 0.5694
vn 0.6338 0.6576 0.4073
vn 0.7229 0.6576 0.2122
vn 0.7534 0.6576 0.0000
vn 0.7229 0.6576 -0.2122
vn 0.6338 0.6576 -0.4073
vn 0.4934 0.6576 -0.5694
vn 0.3130 0.6576 -0.6853
vn 0.1072 0.6576 -0.7457
vn -0.1072 0.6576 -0.7457
vn -0.3130 0.6576 -0.6853
vn -0.4934 0.6576 -0.5694
vn -0.6338 0.6576 -0.4073
vn -0.7229 0.6576 -0.2122
vn -0.7534 0.6576 -0.0000
usemtl lambert3SG
s 1
f 1/1/1 2/2/1 3/3/1
f 4/4/2 5/5/2 6/6/2
f 7/7/3 8/8/3 9/9/3
f 10/10/4 11/11/4 12/12/4
f 13/13/5 14/14/5 15/15/5
f 16/16/3 17/17/3 8/8/3
f 18/18/6 19/19/6 20/20/7
f 12/12/4 21/21/4 22/22/4
f 23/23/8 24/24/8 25/25/8
f 17/17/3 26/26/3 27/27/3
f 28/28/9 29/29/9 30/30/9
f 21/21/4 31/31/4 22/22/4
f 32/32/10 33/33/10 34/34/10
f 35/35/11 36/36/11 37/37/11
f 38/38/3 39/39/3 40/40/3
f 41/41/4 42/42/4 43/43/4
f 44/44/12 45/45/12 46/46/12
f 47/47/3 48/48/3 38/38/3
f 49/49/13 50/50/13 51/51/13
f 52/52/4 53/53/4 42/42/4
f 24/24/8 54/54/8 55/55/8
f 47/47/3 26/26/3 56/56/3
f 29/29/9 57/57/9 58/58/9
f 31/31/4 53/53/4 59/59/4
f 60/60/14 61/61/15 62/62/16
f 63/63/17 64/64/14 60/60/14
f 65/65/18 66/66/17 63/63/17
f 67/67/19 68/68/18 65/65/18
f 69/69/20 70/70/19 67/67/19
f 71/71/21 72/72/20 69/69/20
f 73/73/22 74/74/21 71/71/21
f 75/75/23 76/76/24 73/73/22
f 77/77/25 78/78/23 75/75/23
f 79/79/4 80/80/26 77/77/25
f 81/81/27 82/82/4 79/79/4
f 83/83/28 84/84/29 81/81/27
f 85/85/30 86/86/28 83/83/28
f 87/87/31 88/88/30 85/85/30
f 89/89/32 90/90/31 87/87/31
f 91/91/33 92/92/32 89/89/32
f 93/93/34 94/94/33 91/91/33
f 95/95/35 96/96/34 93/93/34
f 97/97/36 98/98/35 95/95/35
f 99/99/37 100/100/36 97/97/36
f 101/101/3 102/102/38 99/99/37
f 62/103/16 103/104/3 101/101/3
f 104/105/39 105/106/14 106/107/39
f 107/108/14 108/109/17 105/106/14
f 109/110/17 110/111/18 108/109/17
f 111/112/19 110/111/18 112/113/18
f 113/114/20 114/115/19 111/112/19
f 115/116/21 116/117/20 113/114/20
f 117/118/22 118/119/21 115/116/21
f 117/118/22 119/120/23 120/121/22
f 121/122/40 119/120/23 122/123/23
f 82/82/4 123/124/41 80/80/26
f 84/84/29 124/125/4 82/82/4
f 125/126/28 126/127/42 127/128/42
f 128/129/30 129/130/28 125/126/28
f 130/131/31 131/132/30 128/129/30
f 132/133/32 133/134/31 130/131/31
f 134/135/33 135/136/32 132/133/32
f 136/137/34 137/138/33 134/135/33
f 138/139/35 139/140/34 136/137/34
f 140/141/36 141/142/43 138/139/35
f 142/143/44 143/144/36 140/141/36
f 103/104/3 144/145/45 102/102/38
f 61/146/15 145/147/3 103/104/3
f 105/106/14 146/148/39 106/107/39
f 108/109/17 147/149/14 105/106/14
f 110/111/18 148/150/17 108/109/17
f 114/115/19 149/151/18 110/111/18
f 114/115/19 150/152/20 151/153/19
f 116/117/20 152/154/21 150/152/20
f 118/119/21 153/155/22 152/154/21
f 119/120/23 153/155/22 120/121/22
f 154/156/40 155/157/23 119/120/23
f 124/125/4 156/158/41 123/124/41
f 157/159/46 158/160/4 124/125/4
f 129/130/28 159/161/42 126/127/42
f 131/132/30 160/162/28 129/130/28
f 133/134/31 161/163/30 131/132/30
f 135/136/32 162/164/31 133/134/31
f 135/136/32 163/165/33 164/166/32
f 139/140/34 163/165/33 137/138/33
f 141/142/43 165/167/34 139/140/34
f 141/142/43 166/168/36 167/169/43
f 143/144/36 168/170/44 166/168/36
f 145/147/3 169/171/45 144/145/45
f 170/172/47 171/173/3 145/147/3
f 147/149/14 172/174/39 146/148/39
f 148/150/17 173/175/14 147/149/14
f 149/151/18 174/176/17 148/150/17
f 151/153/19 175/177/18 149/151/18
f 150/152/20 176/178/19 151/153/19
f 152/154/21 177/179/20 150/152/20
f 153/155/22 178/180/21 152/154/21
f 155/157/23 179/181/22 153/155/22
f 180/182/40 181/183/23 155/157/23
f 158/160/4 182/184/41 156/158/41
f 183/185/46 184/186/4 158/160/4
f 160/162/28 185/187/42 159/161/42
f 161/163/30 186/188/28 160/162/28
f 162/164/31 187/189/30 161/163/30
f 164/166/32 188/190/31 162/164/31
f 163/165/33 189/191/32 164/166/32
f 165/167/34 190/192/33 163/165/33
f 167/169/43 191/193/34 165/167/34
f 166/168/36 192/194/43 167/169/43
f 168/170/44 193/195/36 166/168/36
f 171/173/3 194/196/45 169/171/45
f 195/197/47 196/198/3 171/173/3
f 173/175/14 197/199/39 172/174/39
f 174/176/17 198/200/14 173/175/14
f 175/177/18 199/201/17 174/176/17
f 176/178/19 200/202/18 175/177/18
f 177/179/20 201/203/19 176/178/19
f 177/179/20 202/204/21 203/205/20
f 178/180/21 204/206/22 202/204/21
f 181/183/23 204/206/22 179/181/22
f 205/207/40 206/208/23 181/183/23
f 184/186/4 207/209/41 182/184/41
f 208/210/46 209/211/4 184/186/4
f 186/188/28 210/212/42 185/187/42
f 187/189/30 211/213/28 186/188/28
f 187/189/30 212/214/31 213/215/30
f 188/190/31 214/216/32 212/214/31
f 190/192/33 214/216/32 189/191/32
f 191/193/34 215/217/33 190/192/33
f 192/194/43 216/218/34 191/193/34
f 193/195/36 217/219/43 192/194/43
f 218/220/44 219/221/36 193/195/36
f 196/198/3 220/222/45 194/196/45
f 221/223/47 222/224/3 196/198/3
f 198/200/14 223/225/39 197/199/39
f 199/201/17 224/226/14 198/200/14
f 200/202/18 225/227/17 199/201/17
f 201/203/19 226/228/18 200/202/18
f 203/205/20 227/229/19 201/203/19
f 202/204/21 228/230/20 203/205/20
f 204/206/22 229/231/21 202/204/21
f 206/208/23 230/232/22 204/206/22
f 231/233/40 232/234/23 206/208/23
f 209/211/4 233/235/41 207/209/41
f 234/236/46 235/237/4 209/211/4
f 211/213/28 236/238/42 210/212/42
f 213/215/30 237/239/28 211/213/28
f 212/214/31 238/240/30 213/215/30
f 214/216/32 239/241/31 212/214/31
f 215/217/33 240/242/32 214/216/32
f 216/218/34 241/243/33 215/217/33
f 217/219/43 242/244/34 216/218/34
f 217/219/43 243/245/36 244/246/43
f 219/221/36 245/247/44 243/245/36
f 222/224/3 246/248/45 220/222/45
f 247/249/47 248/250/3 222/224/3
f 224/226/14 249/251/39 223/225/39
f 225/227/17 250/252/14 224/226/14
f 226/228/18 251/253/17 225/227/17
f 227/229/19 252/254/18 226/228/18
f 228/230/20 253/255/19 227/229/19
f 229/231/21 254/256/20 228/230/20
f 229/231/21 255/257/22 256/258/21
f 230/232/22 257/259/23 255/257/22
f 258/260/40 257/259/23 232/234/23
f 235/237/4 259/261/41 233/235/41
f 260/262/46 261/263/4 235/237/4
f 237/239/28 262/264/42 236/238/42
f 238/240/30 263/265/28 237/239/28
f 239/241/31 264/266/30 238/240/30
f 240/242/32 265/267/31 239/241/31
f 241/243/33 266/268/32 240/242/32
f 242/244/34 267/269/33 241/243/33
f 244/246/43 268/270/34 242/244/34
f 243/245/36 269/271/43 244/246/43
f 245/247/44 270/272/36 243/245/36
f 248/250/3 271/273/45 246/248/45
f 272/274/47 273/275/3 248/250/3
f 249/251/39 274/276/14 275/277/39
f 250/252/14 276/278/17 274/276/14
f 252/254/18 276/278/17 251/253/17
f 253/255/19 277/279/18 252/254/18
f 254/256/20 278/280/19 253/255/19
f 256/258/21 279/281/20 254/256/20
f 255/257/22 280/282/21 256/258/21
f 257/259/23 281/283/24 255/257/22
f 282/284/40 283/285/23 257/259/23
f 261/263/4 284/286/41 259/261/41
f 285/287/46 286/288/4 261/263/4
f 263/265/28 287/289/42 262/264/42
f 264/266/30 288/290/28 263/265/28
f 265/267/31 289/291/30 264/266/30
f 266/268/32 290/292/31 265/267/31
f 267/269/33 291/293/32 266/268/32
f 268/270/34 292/294/33 267/269/33
f 269/271/43 293/295/34 268/270/34
f 270/272/36 294/296/43 269/271/43
f 295/297/44 296/298/36 270/272/36
f 273/275/3 297/299/45 271/273/45
f 298/300/47 299/301/3 273/275/3
f 274/276/14 300/302/39 275/277/39
f 276/278/17 301/303/14 274/276/14
f 277/279/18 302/304/17 276/278/17
f 278/280/19 303/305/18 277/279/18
f 279/281/20 304/306/19 278/280/19
f 280/282/21 305/307/20 279/281/20
f 281/283/24 306/308/21 280/282/21
f 283/285/23 307/309/24 281/283/24
f 308/310/40 309/311/23 283/285/23
f 286/288/4 310/312/26 284/286/41
f 311/313/46 312/314/4 286/288/4
f 288/290/28 313/315/42 287/289/42
f 289/291/30 314/316/28 288/290/28
f 290/292/31 315/317/30 289/291/30
f 291/293/32 316/318/31 290/292/31
f 292/294/33 317/319/32 291/293/32
f 293/295/34 318/320/33 292/294/33
f 294/296/43 319/321/34 293/295/34
f 296/298/36 320/322/43 294/296/43
f 321/323/44 322/324/36 296/298/36
f 299/301/3 323/325/38 297/299/45
f 324/326/47 325/327/3 299/301/3
f 326/328/14 327/329/16 328/330/15
f 329/331/17 330/332/14 326/328/14
f 331/333/18 332/334/17 329/331/17
f 333/335/19 334/336/18 331/333/18
f 335/337/20 336/338/19 333/335/19
f 337/339/21 338/340/20 335/337/20
f 339/341/22 340/342/21 337/339/21
f 341/343/23 342/344/24 339/341/22
f 310/312/26 343/345/23 341/343/23
f 312/314/4 344/346/25 310/312/26
f 345/347/29 346/348/4 312/314/4
f 347/349/28 348/350/27 345/347/29
f 349/351/30 350/352/28 347/349/28
f 351/353/31 352/354/30 349/351/30
f 353/355/32 354/356/31 351/353/31
f 355/357/33 356/358/32 353/355/32
f 357/359/34 358/360/33 355/357/33
f 359/361/43 360/362/34 357/359/34
f 361/363/36 362/364/43 359/361/43
f 323/325/38 363/365/36 361/363/36
f 325/327/3 364/366/37 323/325/38
f 328/367/15 365/368/3 325/327/3
f 366/369/8 367/370/8 368/371/8
f 369/372/8 366/369/8 368/371/8
f 370/373/8 369/372/8 368/371/8
f 371/374/8 370/373/8 368/371/8
f 372/375/8 371/374/8 368/371/8
f 373/376/8 372/375/8 368/371/8
f 374/377/8 373/376/8 368/371/8
f 375/378/8 374/377/8 368/371/8
f 376/379/8 375/378/8 368/371/8
f 377/380/8 376/379/8 368/371/8
f 378/381/8 377/380/8 368/371/8
f 379/382/8 378/381/8 368/371/8
f 380/383/8 379/382/8 368/371/8
f 381/384/8 380/383/8 368/371/8
f 382/385/8 381/384/8 368/371/8
f 383/386/8 382/385/8 368/371/8
f 384/387/8 383/386/8 368/371/8
f 385/388/8 384/387/8 368/371/8
f 386/389/8 385/388/8 368/371/8
f 387/390/8 386/389/8 368/371/8
f 388/391/8 387/390/8 368/371/8
f 367/370/8 388/391/8 368/371/8
f 389/392/9 390/393/9 391/394/9
f 390/393/9 392/395/9 391/394/9
f 392/395/9 393/396/9 391/394/9
f 393/396/9 394/397/9 391/394/9
f 394/397/9 395/398/9 391/394/9
f 395/398/9 396/399/9 391/394/9
f 396/399/9 397/400/9 391/394/9
f 397/400/9 398/401/9 391/394/9
f 398/401/9 399/402/9 391/394/9
f 399/402/9 400/403/9 391/394/9
f 400/403/9 401/404/9 391/394/9
f 401/404/9 402/405/9 391/394/9
f 402/405/9 403/406/9 391/394/9
f 403/406/9 404/407/9 391/394/9
f 404/407/9 405/408/9 391/394/9
f 405/408/9 406/409/9 391/394/9
f 406/409/9 407/410/9 391/394/9
f 407/410/9 408/411/9 391/394/9
f 408/411/9 409/412/9 391/394/9
f 409/412/9 410/413/9 391/394/9
f 410/413/9 411/414/9 391/394/9
f 411/414/9 389/392/9 391/394/9
f 412/415/9 413/416/9 414/417/9
f 415/418/21 416/419/21 417/420/21
f 418/421/9 413/416/9 419/422/9
f 420/423/9 421/424/9 418/421/9
f 420/423/9 422/425/9 423/426/9
f 424/427/9 425/428/9 422/425/9
f 426/429/9 427/430/9 425/428/9
f 428/431/9 429/432/9 427/430/9
f 430/433/9 429/432/9 431/434/9
f 432/435/9 433/436/9 430/433/9
f 434/437/18 435/438/18 436/439/18
f 417/440/21 437/441/21 438/442/21
f 439/443/18 440/444/18 434/445/18
f 438/446/21 441/447/21 442/448/21
f 443/449/18 444/450/18 439/451/18
f 442/452/21 445/453/21 446/454/21
f 447/455/18 448/456/18 443/457/18
f 446/458/21 449/459/21 450/460/21
f 451/461/18 452/462/18 447/463/18
f 450/464/21 453/465/21 454/466/21
f 455/467/18 456/468/18 451/469/18
f 454/470/21 457/471/21 458/472/21
f 459/473/18 460/474/18 455/475/18
f 461/476/8 462/477/8 463/478/8
f 458/479/21 464/480/21 465/481/21
f 463/482/8 466/483/8 467/484/8
f 467/485/8 468/486/8 469/487/8
f 470/488/8 468/489/8 471/490/8
f 470/491/8 472/492/8 473/493/8
f 474/494/8 472/495/8 475/496/8
f 476/497/8 475/498/8 477/499/8
f 476/500/8 478/501/8 479/502/8
f 480/503/18 481/504/18 459/505/18
f 482/506/8 478/507/8 483/508/8
f 484/509/9 485/510/9 486/511/9
f 487/512/34 488/513/34 489/514/34
f 490/515/9 491/516/9 485/517/9
f 492/518/9 493/519/9 491/520/9
f 494/521/9 493/522/9 495/523/9
f 496/524/9 497/525/9 494/526/9
f 496/527/9 498/528/9 499/529/9
f 500/530/9 501/531/9 498/532/9
f 502/533/9 501/534/9 503/535/9
f 504/536/9 505/537/9 502/538/9
f 506/539/31 507/540/31 508/541/31
f 489/542/34 509/543/34 510/544/34
f 511/545/31 512/546/31 506/547/31
f 510/548/34 513/549/34 514/550/34
f 515/551/31 516/552/31 511/553/31
f 514/554/34 517/555/34 518/556/34
f 519/557/31 520/558/31 515/559/31
f 518/560/34 521/561/34 522/562/34
f 523/563/31 524/564/31 519/565/31
f 522/566/34 525/567/34 526/568/34
f 527/569/31 528/570/31 523/571/31
f 526/572/34 529/573/34 530/574/34
f 531/575/31 532/576/31 527/577/31
f 533/578/8 534/579/8 535/580/8
f 530/581/34 536/582/34 537/583/34
f 538/584/8 534/579/8 539/585/8
f 540/586/8 539/585/8 541/587/8
f 542/588/8 541/587/8 543/589/8
f 544/590/8 543/589/8 545/591/8
f 544/590/8 546/592/8 547/593/8
f 547/593/8 548/594/8 549/595/8
f 550/596/8 548/594/8 551/597/8
f 552/598/31 553/599/31 531/600/31
f 554/601/8 551/597/8 555/602/8
f 556/603/48 557/604/49 558/605/48
f 559/606/49 560/607/50 557/604/49
f 561/608/50 562/609/51 560/607/50
f 563/610/51 564/611/52 562/609/51
f 565/612/52 566/613/53 564/611/52
f 567/614/53 568/615/54 566/613/53
f 569/616/55 568/615/54 570/617/54
f 571/618/56 572/619/55 569/616/55
f 573/620/57 574/621/56 571/618/56
f 575/622/58 576/623/57 573/620/57
f 575/622/58 577/624/59 578/625/58
f 579/626/59 580/627/60 577/624/59
f 581/628/60 582/629/61 580/627/60
f 583/630/62 582/629/61 584/631/61
f 583/630/62 585/632/63 586/633/62
f 587/634/63 588/635/64 585/632/63
f 589/636/65 588/635/64 590/637/64
f 589/636/65 591/638/66 592/639/65
f 593/640/66 594/641/67 591/638/66
f 595/642/68 594/641/67 596/643/67
f 597/644/69 598/645/68 595/642/68
f 597/644/69 558/605/48 599/646/69
f 600/647/70 601/648/71 602/649/71
f 602/649/71 603/650/72 604/651/72
f 605/652/73 603/650/72 606/653/73
f 605/652/73 607/654/74 608/655/74
f 608/655/74 609/656/75 610/657/75
f 610/657/75 611/658/76 612/659/76
f 612/659/76 613/660/77 614/661/77
f 615/662/78 613/660/77 616/663/78
f 617/664/79 616/663/78 618/665/79
f 617/664/79 619/666/80 620/667/80
f 620/667/80 621/668/81 622/669/81
f 622/669/81 623/670/82 624/671/82
f 624/671/82 625/672/83 626/673/83
f 626/673/83 627/674/84 628/675/84
f 628/675/84 629/676/85 630/677/85
f 630/677/85 631/678/86 632/679/86
f 633/680/87 631/678/86 634/681/87
f 633/680/87 635/682/88 636/683/88
f 636/683/88 637/684/89 638/685/89
f 639/686/90 637/684/89 640/687/90
f 639/686/90 641/688/91 642/689/91
f 642/689/91 643/690/70 600/647/70
f 644/691/92 645/692/93 646/693/92
f 647/694/94 645/692/93 648/695/93
f 647/694/94 649/696/95 650/697/94
f 651/698/96 649/696/95 652/699/95
f 653/700/97 654/701/96 651/698/96
f 655/702/98 656/703/97 653/700/97
f 657/704/99 658/705/98 655/702/98
f 657/704/99 659/706/100 660/707/99
f 661/708/100 662/709/101 659/706/100
f 663/710/101 664/711/102 662/709/101
f 665/712/103 664/711/102 666/713/102
f 665/712/103 667/714/104 668/715/103
f 669/716/105 667/714/104 670/717/104
f 669/716/105 671/718/106 672/719/105
f 673/720/107 671/718/106 674/721/106
f 673/720/107 675/722/108 676/723/107
f 677/724/109 675/722/108 678/725/108
f 679/726/110 680/727/109 677/724/109
f 679/726/110 681/728/111 682/729/110
f 683/730/112 681/728/111 684/731/111
f 685/732/113 686/733/112 683/730/112
f 685/732/113 646/693/92 687/734/113
f 688/735/114 689/736/115 690/737/115
f 691/738/116 692/739/114 688/735/114
f 693/740/117 694/741/116 691/738/116
f 693/740/117 695/742/118 696/743/117
f 697/744/118 698/745/119 695/742/118
f 699/746/120 698/745/119 700/747/119
f 699/746/120 701/748/121 702/749/120
f 703/750/122 701/748/121 704/751/121
f 705/752/123 706/753/122 703/750/122
f 707/754/124 708/755/123 705/752/123
f 709/756/125 710/757/124 707/754/124
f 709/756/125 711/758/126 712/759/125
f 713/760/126 714/761/127 711/758/126
f 715/762/127 716/763/128 714/761/127
f 717/764/129 716/763/128 718/765/128
f 719/766/130 720/767/129 717/764/129
f 721/768/131 722/769/130 719/766/130
f 723/770/132 724/771/131 721/768/131
f 723/770/132 725/772/133 726/773/132
f 727/774/133 728/775/134 725/772/133
f 729/776/135 728/775/134 730/777/134
f 690/737/115 731/778/135 729/776/135
f 1/1/1 732/779/1 2/2/1
f 4/4/2 733/780/2 5/5/2
f 7/7/3 16/16/3 8/8/3
f 10/10/4 734/781/4 11/11/4
f 13/13/5 735/782/5 14/14/5
f 16/16/3 736/783/3 17/17/3
f 18/18/6 737/784/6 19/19/6
f 12/12/4 11/11/4 21/21/4
f 23/23/8 738/785/8 24/24/8
f 17/17/3 736/783/3 26/26/3
f 28/28/9 739/786/9 29/29/9
f 21/21/4 740/787/4 31/31/4
f 32/32/10 741/788/10 33/33/10
f 35/35/11 742/789/11 36/36/11
f 38/38/3 48/48/3 39/39/3
f 41/41/4 52/52/4 42/42/4
f 44/44/12 743/790/12 45/45/12
f 47/47/3 56/56/3 48/48/3
f 49/49/13 744/791/13 50/50/13
f 52/52/4 59/59/4 53/53/4
f 24/24/8 738/785/8 54/54/8
f 47/47/3 27/27/3 26/26/3
f 29/29/9 739/786/9 57/57/9
f 31/31/4 740/787/4 53/53/4
f 60/60/14 64/64/14 61/61/15
f 63/63/17 66/66/17 64/64/14
f 65/65/18 68/68/18 66/66/17
f 67/67/19 70/70/19 68/68/18
f 69/69/20 72/72/20 70/70/19
f 71/71/21 74/74/21 72/72/20
f 73/73/22 76/76/24 74/74/21
f 75/75/23 78/78/23 76/76/24
f 77/77/25 80/80/26 78/78/23
f 79/79/4 82/82/4 80/80/26
f 81/81/27 84/84/29 82/82/4
f 83/83/28 86/86/28 84/84/29
f 85/85/30 88/88/30 86/86/28
f 87/87/31 90/90/31 88/88/30
f 89/89/32 92/92/32 90/90/31
f 91/91/33 94/94/33 92/92/32
f 93/93/34 96/96/34 94/94/33
f 95/95/35 98/98/35 96/96/34
f 97/97/36 100/100/36 98/98/35
f 99/99/37 102/102/38 100/100/36
f 101/101/3 103/104/3 102/102/38
f 62/103/16 61/146/15 103/104/3
f 104/105/39 107/108/14 105/106/14
f 107/108/14 109/110/17 108/109/17
f 109/110/17 112/113/18 110/111/18
f 111/112/19 114/115/19 110/111/18
f 113/114/20 116/117/20 114/115/19
f 115/116/21 118/119/21 116/117/20
f 117/118/22 120/121/22 118/119/21
f 117/118/22 122/123/23 119/120/23
f 121/122/40 154/156/40 119/120/23
f 82/82/4 124/125/4 123/124/41
f 84/84/29 157/159/46 124/125/4
f 125/126/28 129/130/28 126/127/42
f 128/129/30 131/132/30 129/130/28
f 130/131/31 133/134/31 131/132/30
f 132/133/32 135/136/32 133/134/31
f 134/135/33 137/138/33 135/136/32
f 136/137/34 139/140/34 137/138/33
f 138/139/35 141/142/43 139/140/34
f 140/141/36 143/144/36 141/142/43
f 142/143/44 745/792/44 143/144/36
f 103/104/3 145/147/3 144/145/45
f 61/146/15 170/172/47 145/147/3
f 105/106/14 147/149/14 146/148/39
f 108/109/17 148/150/17 147/149/14
f 110/111/18 149/151/18 148/150/17
f 114/115/19 151/153/19 149/151/18
f 114/115/19 116/117/20 150/152/20
f 116/117/20 118/119/21 152/154/21
f 118/119/21 120/121/22 153/155/22
f 119/120/23 155/157/23 153/155/22
f 154/156/40 180/182/40 155/157/23
f 124/125/4 158/160/4 156/158/41
f 157/159/46 183/185/46 158/160/4
f 129/130/28 160/162/28 159/161/42
f 131/132/30 161/163/30 160/162/28
f 133/134/31 162/164/31 161/163/30
f 135/136/32 164/166/32 162/164/31
f 135/136/32 137/138/33 163/165/33
f 139/140/34 165/167/34 163/165/33
f 141/142/43 167/169/43 165/167/34
f 141/142/43 143/144/36 166/168/36
f 143/144/36 745/792/44 168/170/44
f 145/147/3 171/173/3 169/171/45
f 170/172/47 195/197/47 171/173/3
f 147/149/14 173/175/14 172/174/39
f 148/150/17 174/176/17 173/175/14
f 149/151/18 175/177/18 174/176/17
f 151/153/19 176/178/19 175/177/18
f 150/152/20 177/179/20 176/178/19
f 152/154/21 178/180/21 177/179/20
f 153/155/22 179/181/22 178/180/21
f 155/157/23 181/183/23 179/181/22
f 180/182/40 205/207/40 181/183/23
f 158/160/4 184/186/4 182/184/41
f 183/185/46 208/210/46 184/186/4
f 160/162/28 186/188/28 185/187/42
f 161/163/30 187/189/30 186/188/28
f 162/164/31 188/190/31 187/189/30
f 164/166/32 189/191/32 188/190/31
f 163/165/33 190/192/33 189/191/32
f 165/167/34 191/193/34 190/192/33
f 167/169/43 192/194/43 191/193/34
f 166/168/36 193/195/36 192/194/43
f 168/170/44 218/220/44 193/195/36
f 171/173/3 196/198/3 194/196/45
f 195/197/47 221/223/47 196/198/3
f 173/175/14 198/200/14 197/199/39
f 174/176/17 199/201/17 198/200/14
f 175/177/18 200/202/18 199/201/17
f 176/178/19 201/203/19 200/202/18
f 177/179/20 203/205/20 201/203/19
f 177/179/20 178/180/21 202/204/21
f 178/180/21 179/181/22 204/206/22
f 181/183/23 206/208/23 204/206/22
f 205/207/40 231/233/40 206/208/23
f 184/186/4 209/211/4 207/209/41
f 208/210/46 234/236/46 209/211/4
f 186/188/28 211/213/28 210/212/42
f 187/189/30 213/215/30 211/213/28
f 187/189/30 188/190/31 212/214/31
f 188/190/31 189/191/32 214/216/32
f 190/192/33 215/217/33 214/216/32
f 191/193/34 216/218/34 215/217/33
f 192/194/43 217/219/43 216/218/34
f 193/195/36 219/221/36 217/219/43
f 218/220/44 746/793/44 219/221/36
f 196/198/3 222/224/3 220/222/45
f 221/223/47 247/249/47 222/224/3
f 198/200/14 224/226/14 223/225/39
f 199/201/17 225/227/17 224/226/14
f 200/202/18 226/228/18 225/227/17
f 201/203/19 227/229/19 226/228/18
f 203/205/20 228/230/20 227/229/19
f 202/204/21 229/231/21 228/230/20
f 204/206/22 230/232/22 229/231/21
f 206/208/23 232/234/23 230/232/22
f 231/233/40 258/260/40 232/234/23
f 209/211/4 235/237/4 233/235/41
f 234/236/46 260/262/46 235/237/4
f 211/213/28 237/239/28 236/238/42
f 213/215/30 238/240/30 237/239/28
f 212/214/31 239/241/31 238/240/30
f 214/216/32 240/242/32 239/241/31
f 215/217/33 241/243/33 240/242/32
f 216/218/34 242/244/34 241/243/33
f 217/219/43 244/246/43 242/244/34
f 217/219/43 219/221/36 243/245/36
f 219/221/36 746/793/44 245/247/44
f 222/224/3 248/250/3 246/248/45
f 247/249/47 272/274/47 248/250/3
f 224/226/14 250/252/14 249/251/39
f 225/227/17 251/253/17 250/252/14
f 226/228/18 252/254/18 251/253/17
f 227/229/19 253/255/19 252/254/18
f 228/230/20 254/256/20 253/255/19
f 229/231/21 256/258/21 254/256/20
f 229/231/21 230/232/22 255/257/22
f 230/232/22 232/234/23 257/259/23
f 258/260/40 282/284/40 257/259/23
f 235/237/4 261/263/4 259/261/41
f 260/262/46 285/287/46 261/263/4
f 237/239/28 263/265/28 262/264/42
f 238/240/30 264/266/30 263/265/28
f 239/241/31 265/267/31 264/266/30
f 240/242/32 266/268/32 265/267/31
f 241/243/33 267/269/33 266/268/32
f 242/244/34 268/270/34 267/269/33
f 244/246/43 269/271/43 268/270/34
f 243/245/36 270/272/36 269/271/43
f 245/247/44 295/297/44 270/272/36
f 248/250/3 273/275/3 271/273/45
f 272/274/47 298/300/47 273/275/3
f 249/251/39 250/252/14 274/276/14
f 250/252/14 251/253/17 276/278/17
f 252/254/18 277/279/18 276/278/17
f 253/255/19 278/280/19 277/279/18
f 254/256/20 279/281/20 278/280/19
f 256/258/21 280/282/21 279/281/20
f 255/257/22 281/283/24 280/282/21
f 257/259/23 283/285/23 281/283/24
f 282/284/40 308/310/40 283/285/23
f 261/263/4 286/288/4 284/286/41
f 285/287/46 311/313/46 286/288/4
f 263/265/28 288/290/28 287/289/42
f 264/266/30 289/291/30 288/290/28
f 265/267/31 290/292/31 289/291/30
f 266/268/32 291/293/32 290/292/31
f 267/269/33 292/294/33 291/293/32
f 268/270/34 293/295/34 292/294/33
f 269/271/43 294/296/43 293/295/34
f 270/272/36 296/298/36 294/296/43
f 295/297/44 321/323/44 296/298/36
f 273/275/3 299/301/3 297/299/45
f 298/300/47 324/326/47 299/301/3
f 274/276/14 301/303/14 300/302/39
f 276/278/17 302/304/17 301/303/14
f 277/279/18 303/305/18 302/304/17
f 278/280/19 304/306/19 303/305/18
f 279/281/20 305/307/20 304/306/19
f 280/282/21 306/308/21 305/307/20
f 281/283/24 307/309/24 306/308/21
f 283/285/23 309/311/23 307/309/24
f 308/310/40 747/794/40 309/311/23
f 286/288/4 312/314/4 310/312/26
f 311/313/46 345/347/29 312/314/4
f 288/290/28 314/316/28 313/315/42
f 289/291/30 315/317/30 314/316/28
f 290/292/31 316/318/31 315/317/30
f 291/293/32 317/319/32 316/318/31
f 292/294/33 318/320/33 317/319/32
f 293/295/34 319/321/34 318/320/33
f 294/296/43 320/322/43 319/321/34
f 296/298/36 322/324/36 320/322/43
f 321/323/44 748/795/44 322/324/36
f 299/301/3 325/327/3 323/325/38
f 324/326/47 328/367/15 325/327/3
f 326/328/14 330/332/14 327/329/16
f 329/331/17 332/334/17 330/332/14
f 331/333/18 334/336/18 332/334/17
f 333/335/19 336/338/19 334/336/18
f 335/337/20 338/340/20 336/338/19
f 337/339/21 340/342/21 338/340/20
f 339/341/22 342/344/24 340/342/21
f 341/343/23 343/345/23 342/344/24
f 310/312/26 344/346/25 343/345/23
f 312/314/4 346/348/4 344/346/25
f 345/347/29 348/350/27 346/348/4
f 347/349/28 350/352/28 348/350/27
f 349/351/30 352/354/30 350/352/28
f 351/353/31 354/356/31 352/354/30
f 353/355/32 356/358/32 354/356/31
f 355/357/33 358/360/33 356/358/32
f 357/359/34 360/362/34 358/360/33
f 359/361/43 362/364/43 360/362/34
f 361/363/36 363/365/36 362/364/43
f 323/325/38 364/366/37 363/365/36
f 325/327/3 365/368/3 364/366/37
f 328/367/15 327/796/16 365/368/3
f 412/415/9 419/422/9 413/416/9
f 415/418/21 749/797/21 416/419/21
f 418/421/9 421/424/9 413/416/9
f 420/423/9 423/426/9 421/424/9
f 420/423/9 424/427/9 422/425/9
f 424/427/9 426/429/9 425/428/9
f 426/429/9 428/431/9 427/430/9
f 428/431/9 431/434/9 429/432/9
f 430/433/9 433/436/9 429/432/9
f 432/435/9 750/798/9 433/436/9
f 434/437/18 440/799/18 435/438/18
f 417/440/21 416/800/21 437/441/21
f 439/443/18 444/801/18 440/444/18
f 438/446/21 437/802/21 441/447/21
f 443/449/18 448/803/18 444/450/18
f 442/452/21 441/804/21 445/453/21
f 447/455/18 452/805/18 448/456/18
f 446/458/21 445/806/21 449/459/21
f 451/461/18 456/807/18 452/462/18
f 450/464/21 449/808/21 453/465/21
f 455/467/18 460/809/18 456/468/18
f 454/470/21 453/810/21 457/471/21
f 459/473/18 481/811/18 460/474/18
f 461/476/8 751/812/8 462/477/8
f 458/479/21 457/813/21 464/480/21
f 463/482/8 462/814/8 466/483/8
f 467/485/8 466/815/8 468/486/8
f 470/488/8 469/816/8 468/489/8
f 470/491/8 471/817/8 472/492/8
f 474/494/8 473/818/8 472/495/8
f 476/497/8 474/819/8 475/498/8
f 476/500/8 477/820/8 478/501/8
f 480/503/18 752/821/18 481/504/18
f 482/506/8 479/822/8 478/507/8
f 484/509/9 490/823/9 485/510/9
f 487/512/34 753/824/34 488/513/34
f 490/515/9 492/825/9 491/516/9
f 492/518/9 495/826/9 493/519/9
f 494/521/9 497/827/9 493/522/9
f 496/524/9 499/828/9 497/525/9
f 496/527/9 500/829/9 498/528/9
f 500/530/9 503/830/9 501/531/9
f 502/533/9 505/831/9 501/534/9
f 504/536/9 754/832/9 505/537/9
f 506/539/31 512/833/31 507/540/31
f 489/542/34 488/834/34 509/543/34
f 511/545/31 516/835/31 512/546/31
f 510/548/34 509/836/34 513/549/34
f 515/551/31 520/837/31 516/552/31
f 514/554/34 513/838/34 517/555/34
f 519/557/31 524/839/31 520/558/31
f 518/560/34 517/840/34 521/561/34
f 523/563/31 528/841/31 524/564/31
f 522/566/34 521/842/34 525/567/34
f 527/569/31 532/843/31 528/570/31
f 526/572/34 525/844/34 529/573/34
f 531/575/31 553/845/31 532/576/31
f 533/578/8 755/846/8 534/579/8
f 530/581/34 529/847/34 536/582/34
f 538/584/8 535/580/8 534/579/8
f 540/586/8 538/584/8 539/585/8
f 542/588/8 540/586/8 541/587/8
f 544/590/8 542/588/8 543/589/8
f 544/590/8 545/591/8 546/592/8
f 547/593/8 546/592/8 548/594/8
f 550/596/8 549/595/8 548/594/8
f 552/598/31 756/848/31 553/599/31
f 554/601/8 550/596/8 551/597/8
f 556/603/48 559/606/49 557/604/49
f 559/606/49 561/608/50 560/607/50
f 561/608/50 563/610/51 562/609/51
f 563/610/51 565/612/52 564/611/52
f 565/612/52 567/614/53 566/613/53
f 567/614/53 570/617/54 568/615/54
f 569/616/55 572/619/55 568/615/54
f 571/618/56 574/621/56 572/619/55
f 573/620/57 576/623/57 574/621/56
f 575/622/58 578/625/58 576/623/57
f 575/622/58 579/626/59 577/624/59
f 579/626/59 581/628/60 580/627/60
f 581/628/60 584/631/61 582/629/61
f 583/630/62 586/633/62 582/629/61
f 583/630/62 587/634/63 585/632/63
f 587/634/63 590/637/64 588/635/64
f 589/636/65 592/639/65 588/635/64
f 589/636/65 593/640/66 591/638/66
f 593/640/66 596/643/67 594/641/67
f 595/642/68 598/645/68 594/641/67
f 597/644/69 599/646/69 598/645/68
f 597/644/69 556/603/48 558/605/48
f 600/647/70 643/690/70 601/648/71
f 602/649/71 601/648/71 603/650/72
f 605/652/73 604/651/72 603/650/72
f 605/652/73 606/653/73 607/654/74
f 608/655/74 607/654/74 609/656/75
f 610/657/75 609/656/75 611/658/76
f 612/659/76 611/658/76 613/660/77
f 615/662/78 614/661/77 613/660/77
f 617/664/79 615/662/78 616/663/78
f 617/664/79 618/665/79 619/666/80
f 620/667/80 619/666/80 621/668/81
f 622/669/81 621/668/81 623/670/82
f 624/671/82 623/670/82 625/672/83
f 626/673/83 625/672/83 627/674/84
f 628/675/84 627/674/84 629/676/85
f 630/677/85 629/676/85 631/678/86
f 633/680/87 632/679/86 631/678/86
f 633/680/87 634/681/87 635/682/88
f 636/683/88 635/682/88 637/684/89
f 639/686/90 638/685/89 637/684/89
f 639/686/90 640/687/90 641/688/91
f 642/689/91 641/688/91 643/690/70
f 644/691/92 648/695/93 645/692/93
f 647/694/94 650/697/94 645/692/93
f 647/694/94 652/699/95 649/696/95
f 651/698/96 654/701/96 649/696/95
f 653/700/97 656/703/97 654/701/96
f 655/702/98 658/705/98 656/703/97
f 657/704/99 660/707/99 658/705/98
f 657/704/99 661/708/100 659/706/100
f 661/708/100 663/710/101 662/709/101
f 663/710/101 666/713/102 664/711/102
f 665/712/103 668/715/103 664/711/102
f 665/712/103 670/717/104 667/714/104
f 669/716/105 672/719/105 667/714/104
f 669/716/105 674/721/106 671/718/106
f 673/720/107 676/723/107 671/718/106
f 673/720/107 678/725/108 675/722/108
f 677/724/109 680/727/109 675/722/108
f 679/726/110 682/729/110 680/727/109
f 679/726/110 684/731/111 681/728/111
f 683/730/112 686/733/112 681/728/111
f 685/732/113 687/734/113 686/733/112
f 685/732/113 644/691/92 646/693/92
f 688/735/114 692/739/114 689/736/115
f 691/738/116 694/741/116 692/739/114
f 693/740/117 696/743/117 694/741/116
f 693/740/117 697/744/118 695/742/118
f 697/744/118 700/747/119 698/745/119
f 699/746/120 702/749/120 698/745/119
f 699/746/120 704/751/121 701/748/121
f 703/750/122 706/753/122 701/748/121
f 705/752/123 708/755/123 706/753/122
f 707/754/124 710/757/124 708/755/123
f 709/756/125 712/759/125 710/757/124
f 709/756/125 713/760/126 711/758/126
f 713/760/126 715/762/127 714/761/127
f 715/762/127 718/765/128 716/763/128
f 717/764/129 720/767/129 716/763/128
f 719/766/130 722/769/130 720/767/129
f 721/768/131 724/771/131 722/769/130
f 723/770/132 726/773/132 724/771/131
f 723/770/132 727/774/133 725/772/133
f 727/774/133 730/777/134 728/775/134
f 729/776/135 731/778/135 728/775/134
f 690/737/115 689/736/115 731/778/135
