# Blender v2.83.1 OBJ File: ''
# www.blender.org
mtllib table_2.mtl
v 0.561616 0.838760 0.000990
v 0.412209 0.838760 -1.148025
v 0.561617 0.838760 -0.998662
v 0.412209 0.838760 0.000726
v -0.561618 0.756024 -0.000990
v -0.584370 0.756024 0.998657
v -0.584370 0.756024 -0.000990
v -0.561618 0.756024 0.998657
v 0.561617 0.838760 -1.148025
v -0.412559 0.838760 -0.000727
v -0.561618 0.838760 0.998657
v -0.561618 0.838760 -0.000990
v -0.412559 0.838760 1.136797
v -0.400441 0.838760 1.148025
v 0.412211 0.838760 1.148025
v -0.412559 0.838760 -1.148025
v -0.571599 0.456788 1.130658
v -0.571599 0.759790 1.130658
v -0.571599 0.456788 1.077335
v -0.571599 0.759790 1.001464
v -0.541768 0.456788 1.161328
v -0.541768 0.759790 1.161328
v -0.488444 0.456788 1.161328
v -0.412574 0.759790 1.161328
v 0.413065 0.759790 -1.159713
v 0.542260 0.759790 -1.159713
v 0.488936 0.456788 -1.159713
v 0.542259 0.456788 -1.159713
v 0.572091 0.456788 -1.129043
v 0.572091 0.759790 -1.129043
v 0.572091 0.456788 -1.075720
v 0.572091 0.759790 -0.999851
v -0.573306 0.759790 -0.997860
v -0.573306 0.759790 -1.127053
v -0.573306 0.456788 -1.073730
v -0.573306 0.456788 -1.127053
v -0.542636 0.456788 -1.156884
v -0.542636 0.759790 -1.156884
v -0.489313 0.456788 -1.156884
v -0.413442 0.759790 -1.156884
v -0.412559 0.756024 1.170777
v -0.412559 0.756024 1.148025
v 0.412211 0.756024 1.170777
v 0.412211 0.756024 1.148025
v 0.412209 0.756024 -1.170777
v 0.412209 0.756024 -1.148025
v -0.412559 0.756024 -1.170777
v -0.412559 0.756024 -1.148025
v 0.584369 0.756024 0.000990
v 0.561616 0.756024 0.000990
v 0.584369 0.756024 -0.998662
v 0.561617 0.756024 -0.998662
v 0.561616 0.756024 1.148025
v 0.561616 0.838760 1.148025
v 0.561616 0.756024 0.998658
v 0.561616 0.838760 0.998658
v -0.561618 0.756024 1.148025
v -0.561618 0.838760 1.148025
v -0.561616 0.756024 -0.998662
v -0.561616 0.838760 -0.998662
v -0.561616 0.756024 -1.148025
v -0.561616 0.838760 -1.148025
v 0.561617 0.756024 -1.148025
v 0.573796 0.759790 0.999474
v 0.573796 0.759790 1.128668
v 0.573798 0.456788 1.075344
v 0.573798 0.456788 1.128668
v 0.543128 0.456788 1.158499
v 0.543128 0.759790 1.158499
v 0.489803 0.456788 1.158499
v 0.413934 0.759790 1.158499
v 0.543634 0.001214 -1.145957
v 0.543634 0.756024 -1.145957
v 0.540360 0.001214 -1.169258
v 0.540360 0.756024 -1.169258
v 0.559979 0.756024 -1.129031
v 0.559979 0.001214 -1.129031
v 0.583152 0.756024 -1.124945
v 0.583152 0.001214 -1.124945
v 0.604300 0.756024 -1.135260
v 0.604300 0.001214 -1.135260
v 0.615347 0.756024 -1.156036
v 0.615347 0.001214 -1.156036
v 0.612073 0.756024 -1.179338
v 0.612073 0.001214 -1.179338
v 0.595726 0.756024 -1.196263
v 0.595726 0.001214 -1.196263
v 0.572554 0.756024 -1.200349
v 0.572554 0.001214 -1.200349
v 0.551405 0.756024 -1.190034
v 0.551407 0.001214 -1.190034
v -0.559550 0.001214 -1.128428
v -0.559549 0.756024 -1.128428
v -0.582849 0.001214 -1.125153
v -0.582849 0.756024 -1.125153
v -0.542623 0.756024 -1.144773
v -0.542624 0.001214 -1.144773
v -0.538538 0.756024 -1.167945
v -0.538536 0.001214 -1.167945
v -0.548851 0.756024 -1.189094
v -0.548851 0.001214 -1.189094
v -0.569627 0.756024 -1.200141
v -0.569627 0.001214 -1.200141
v -0.592929 0.756024 -1.196866
v -0.592929 0.001214 -1.196866
v -0.609855 0.756024 -1.180521
v -0.609855 0.001214 -1.180521
v -0.613940 0.756024 -1.157349
v -0.613941 0.001214 -1.157349
v -0.603625 0.756024 -1.136200
v -0.603626 0.001214 -1.136200
v 0.583341 0.836114 1.126768
v 0.560040 0.836114 1.130043
v 0.583341 0.888244 1.126768
v 0.560040 0.888244 1.130043
v 0.604117 0.888244 1.137815
v 0.604117 0.836114 1.137815
v 0.614432 0.888244 1.158964
v 0.614432 0.836114 1.158964
v 0.610346 0.888244 1.182136
v 0.610346 0.836114 1.182136
v 0.593421 0.888244 1.198481
v 0.593421 0.836114 1.198481
v 0.570119 0.888244 1.201756
v 0.570119 0.836114 1.201756
v 0.549343 0.888244 1.190709
v 0.549343 0.836114 1.190709
v 0.539028 0.888244 1.169560
v 0.539028 0.836114 1.169560
v 0.543114 0.888244 1.146388
v 0.543114 0.836114 1.146388
v -0.539868 0.836114 1.170873
v -0.543142 0.836114 1.147571
v -0.539868 0.888245 1.170873
v -0.543142 0.888245 1.147571
v -0.550915 0.888245 1.191648
v -0.550915 0.836114 1.191648
v -0.572063 0.888245 1.201963
v -0.572063 0.836114 1.201963
v -0.595236 0.888245 1.197877
v -0.595236 0.836114 1.197877
v -0.611581 0.888245 1.180951
v -0.611581 0.836114 1.180951
v -0.614856 0.888245 1.157649
v -0.614856 0.836114 1.157649
v -0.603809 0.888245 1.136875
v -0.603809 0.836114 1.136875
v -0.582660 0.888245 1.126560
v -0.582660 0.836114 1.126560
v -0.559487 0.888245 1.130646
v -0.559487 0.836114 1.130646
v 0.540360 0.836114 -1.169258
v 0.543634 0.836114 -1.145957
v 0.540360 0.888244 -1.169258
v 0.543634 0.888244 -1.145957
v 0.551405 0.888244 -1.190034
v 0.551405 0.836114 -1.190034
v 0.572554 0.888244 -1.200349
v 0.572554 0.836114 -1.200349
v 0.595726 0.888244 -1.196263
v 0.595726 0.836114 -1.196263
v 0.612073 0.888244 -1.179338
v 0.612073 0.836114 -1.179338
v 0.615347 0.888244 -1.156036
v 0.615347 0.836114 -1.156036
v 0.604300 0.888244 -1.135260
v 0.604300 0.836114 -1.135260
v 0.583152 0.888244 -1.124945
v 0.583152 0.836114 -1.124945
v 0.559979 0.888244 -1.129031
v 0.559979 0.836114 -1.129031
v -0.582849 0.836114 -1.125153
v -0.559549 0.836114 -1.128428
v -0.582849 0.888245 -1.125153
v -0.559549 0.888245 -1.128428
v -0.603625 0.888245 -1.136200
v -0.603625 0.836114 -1.136200
v -0.613940 0.888245 -1.157349
v -0.613940 0.836114 -1.157349
v -0.609855 0.888245 -1.180521
v -0.609855 0.836114 -1.180521
v -0.592929 0.888245 -1.196866
v -0.592929 0.836114 -1.196866
v -0.569627 0.888245 -1.200141
v -0.569627 0.836114 -1.200141
v -0.548851 0.888245 -1.189094
v -0.548851 0.836114 -1.189094
v -0.538538 0.888245 -1.167945
v -0.538538 0.836114 -1.167945
v -0.542623 0.888245 -1.144773
v -0.542623 0.836114 -1.144773
v 0.560040 0.001214 1.130043
v 0.560040 0.756024 1.130043
v 0.583341 0.001214 1.126768
v 0.583341 0.756024 1.126768
v 0.543114 0.756024 1.146388
v 0.543114 0.001214 1.146388
v 0.539028 0.756024 1.169560
v 0.539028 0.001214 1.169560
v 0.549343 0.756024 1.190709
v 0.549343 0.001214 1.190709
v 0.570119 0.756024 1.201756
v 0.570119 0.001214 1.201756
v 0.593421 0.756024 1.198481
v 0.593420 0.001214 1.198481
v 0.610346 0.756024 1.182136
v 0.610346 0.001214 1.182135
v 0.614432 0.756024 1.158964
v 0.614432 0.001214 1.158962
v 0.604117 0.756024 1.137815
v 0.604117 0.001214 1.137815
v -0.543142 0.001214 1.147571
v -0.543142 0.756024 1.147571
v -0.539868 0.001214 1.170873
v -0.539868 0.756024 1.170873
v -0.559487 0.756024 1.130646
v -0.559488 0.001214 1.130646
v -0.582660 0.756024 1.126560
v -0.582660 0.001214 1.126560
v -0.603809 0.756024 1.136875
v -0.603809 0.001214 1.136875
v -0.614856 0.756024 1.157649
v -0.614856 0.001214 1.157649
v -0.611581 0.756024 1.180951
v -0.611581 0.001214 1.180951
v -0.595236 0.756024 1.197877
v -0.595236 0.001214 1.197877
v -0.572063 0.756024 1.201963
v -0.572064 0.001214 1.201963
v -0.550915 0.756024 1.191648
v -0.550915 0.001214 1.191648
v -0.412559 0.838760 1.148025
v 0.584369 0.879565 0.000990
v 0.584369 0.879565 0.998658
v 0.584369 0.865708 0.000990
v 0.584369 0.865708 0.998658
v 0.584369 0.865708 1.170777
v 0.584369 0.879565 1.170777
v 0.552229 0.879565 1.138638
v 0.552229 0.879565 0.998658
v 0.552229 0.879565 0.000990
v -0.584369 0.879565 -0.000990
v -0.584369 0.879565 -0.998662
v -0.584369 0.865709 -0.000990
v -0.584369 0.865709 -0.998662
v -0.584369 0.865709 -1.170777
v -0.584369 0.879565 -1.170777
v -0.552229 0.879565 -1.138638
v -0.552229 0.879565 -0.998662
v -0.552229 0.879565 -0.000990
v 0.584369 0.836114 0.000990
v 0.584369 0.836114 0.998658
v 0.584369 0.756024 0.998658
v 0.584369 0.756024 1.170777
v 0.584369 0.836114 1.170777
v 0.554775 0.865708 1.141183
v 0.554775 0.865708 0.998658
v 0.554775 0.865708 0.000990
v -0.584370 0.836114 -0.000990
v -0.584369 0.836114 -0.998662
v -0.584369 0.756024 -0.998662
v -0.584369 0.756024 -1.170777
v -0.584369 0.836114 -1.170777
v -0.554775 0.865709 -1.141183
v -0.554775 0.865709 -0.998662
v -0.554776 0.865709 -0.000990
v -0.584370 0.756024 1.170777
v 0.584369 0.756024 -1.170777
v 0.552229 0.879565 -1.138638
v 0.412209 0.879565 -1.138638
v 0.552229 0.879565 -0.998662
v -0.412559 0.879565 -1.138638
v -0.552229 0.879565 0.000988
v -0.552229 0.879565 0.998657
v -0.552229 0.879565 1.138638
v -0.412559 0.879565 1.138638
v 0.412209 0.879565 1.138638
v -0.584370 0.836433 0.124419
v -0.617788 0.836433 0.124419
v -0.584370 0.785625 0.124419
v -0.617788 0.785625 0.124419
v -0.584370 0.756349 0.095143
v -0.617788 0.756349 0.095143
v -0.584370 0.756349 -0.093252
v -0.617788 0.756349 -0.093252
v -0.584370 0.785625 -0.122528
v -0.617788 0.785625 -0.122528
v -0.584370 0.836433 -0.122528
v -0.617788 0.836433 -0.122528
v -0.606097 0.836433 -0.093252
v -0.617788 0.865709 -0.093252
v -0.606097 0.836433 0.095143
v -0.617788 0.865709 0.095143
v -0.606097 0.785625 0.095143
v -0.606097 0.785625 -0.093252
v -0.554776 0.865709 0.095143
v -0.554776 0.865709 -0.093252
v 0.584369 0.836432 -0.122527
v 0.617788 0.836432 -0.122527
v 0.584369 0.785625 -0.122527
v 0.617788 0.785625 -0.122527
v 0.584369 0.756349 -0.093252
v 0.617788 0.756349 -0.093252
v 0.584369 0.756349 0.095143
v 0.617788 0.756349 0.095143
v 0.584369 0.785625 0.124419
v 0.617788 0.785625 0.124419
v 0.584369 0.836432 0.124419
v 0.617788 0.836432 0.124419
v 0.606097 0.836432 0.095143
v 0.617788 0.865708 0.095143
v 0.606097 0.836432 -0.093252
v 0.617788 0.865708 -0.093252
v 0.606097 0.785625 -0.093252
v 0.606097 0.785625 0.095143
v 0.554775 0.865708 -0.093252
v 0.554775 0.865708 0.095143
v 0.584369 0.865708 -0.998662
v 0.584369 0.879565 -0.998662
v 0.584369 0.879565 -1.170777
v 0.584369 0.865708 -1.170777
v -0.584369 0.865709 0.998657
v -0.584369 0.879565 0.998657
v -0.584369 0.879565 1.170777
v -0.584369 0.865709 1.170777
v 0.584369 0.836114 -0.998662
v 0.554775 0.865708 -0.998662
v 0.554775 0.865708 -1.141183
v 0.584369 0.836114 -1.170777
v -0.584370 0.836114 0.998657
v -0.554776 0.865709 0.998657
v -0.554776 0.865709 1.141183
v -0.584370 0.836114 1.170777
v -0.412559 0.865708 1.170777
v -0.412559 0.879565 1.170777
v 0.412211 0.879565 1.170777
v 0.412211 0.865708 1.170777
v 0.412209 0.865708 -1.170777
v 0.412209 0.879565 -1.170777
v -0.412559 0.879565 -1.170777
v -0.412559 0.865708 -1.170777
v 0.412209 0.836114 -1.170777
v 0.412209 0.865708 -1.141183
v -0.412559 0.836114 -1.170777
v -0.412559 0.865708 -1.141183
v -0.412559 0.836114 1.170777
v -0.412559 0.865708 1.141183
v 0.412211 0.836114 1.170777
v 0.412211 0.865708 1.141183
v 0.610412 0.836114 1.131735
v 0.623097 0.836114 1.157745
v 0.610412 0.756024 1.131735
v 0.623097 0.756024 1.157745
v 0.618073 0.836114 1.186244
v 0.618073 0.756024 1.186244
v 0.597257 0.836114 1.206346
v 0.597257 0.756024 1.206346
v 0.568600 0.836114 1.210373
v 0.568600 0.756024 1.210373
v 0.543049 0.836114 1.196788
v 0.543049 0.756024 1.196788
v 0.584861 0.836114 1.118149
v 0.584861 0.756024 1.118149
v 0.530363 0.756024 1.170777
v 0.530363 0.836114 1.170777
v 0.545327 0.836114 -1.196329
v 0.571337 0.836114 -1.209014
v 0.545327 0.756024 -1.196329
v 0.571337 0.756024 -1.209014
v 0.599836 0.836114 -1.203990
v 0.599836 0.756024 -1.203990
v 0.619938 0.836114 -1.183172
v 0.619938 0.756024 -1.183172
v 0.623965 0.836114 -1.154517
v 0.623965 0.756024 -1.154517
v 0.610380 0.836114 -1.128965
v 0.610378 0.756024 -1.128965
v 0.531741 0.836114 -1.170777
v 0.531741 0.756024 -1.170777
v 0.584369 0.756024 -1.116280
v 0.584369 0.836114 -1.116280
v -0.609920 0.836114 -1.130121
v -0.622605 0.836114 -1.156130
v -0.609920 0.756024 -1.130121
v -0.622605 0.756024 -1.156130
v -0.617581 0.836114 -1.184629
v -0.617581 0.756024 -1.184629
v -0.596765 0.836114 -1.204731
v -0.596765 0.756024 -1.204731
v -0.568108 0.836114 -1.208760
v -0.568108 0.756024 -1.208760
v -0.542557 0.836114 -1.195174
v -0.542557 0.756024 -1.195174
v -0.584369 0.836114 -1.116536
v -0.584369 0.756024 -1.116536
v -0.529871 0.756024 -1.169164
v -0.529871 0.836114 -1.169164
v -0.544835 0.836114 1.197944
v -0.570845 0.836114 1.210629
v -0.544835 0.756024 1.197944
v -0.570845 0.756024 1.210629
v -0.599344 0.836114 1.205603
v -0.599344 0.756024 1.205603
v -0.619446 0.836114 1.184787
v -0.619446 0.756024 1.184787
v -0.623473 0.836114 1.156130
v -0.623473 0.756024 1.156130
v -0.609888 0.836114 1.130579
v -0.609888 0.756024 1.130579
v -0.531249 0.836114 1.172392
v -0.531249 0.756024 1.172392
v -0.583879 0.756024 1.117893
v -0.583879 0.836114 1.117893
vt 0.457800 0.495700
vt 0.400300 0.053800
vt 0.457800 0.111300
vt 0.400300 0.495600
vt 0.013800 0.503500
vt 0.004500 0.923100
vt 0.004500 0.503500
vt 0.013800 0.923100
vt 0.457800 0.053800
vt 0.083100 0.495000
vt 0.025800 0.879400
vt 0.025800 0.494900
vt 0.083100 0.932500
vt 0.087800 0.936800
vt 0.400300 0.936800
vt 0.083100 0.053800
vt 0.996500 0.712600
vt 0.996500 0.995700
vt 0.946700 0.712600
vt 0.875800 0.995700
vt 0.875800 0.995700
vt 0.996500 0.995700
vt 0.946700 0.712600
vt 0.996500 0.995700
vt 0.875800 0.995700
vt 0.946700 0.712600
vt 0.996500 0.712600
vt 0.996500 0.712600
vt 0.996500 0.995700
vt 0.996500 0.712600
vt 0.946700 0.712600
vt 0.996500 0.712600
vt 0.996500 0.995700
vt 0.946700 0.712600
vt 0.875800 0.995700
vt 0.875800 0.995700
vt 0.075200 0.995300
vt 0.075200 0.985800
vt 0.414600 0.995300
vt 0.414600 0.985800
vt 0.414600 0.012500
vt 0.414600 0.022100
vt 0.075200 0.012500
vt 0.075200 0.022100
vt 0.485400 0.504400
vt 0.476000 0.504400
vt 0.485400 0.084800
vt 0.476000 0.084800
vt 0.031600 0.061400
vt 0.063400 0.061400
vt 0.031600 0.118800
vt 0.063400 0.118800
vt 0.031000 0.885400
vt 0.062800 0.885400
vt 0.031000 0.942900
vt 0.062800 0.942900
vt 0.031000 0.501000
vt 0.062800 0.501000
vt 0.031000 0.117300
vt 0.062800 0.117300
vt 0.031000 0.059900
vt 0.062800 0.059900
vt 0.031600 0.886900
vt 0.063400 0.886900
vt 0.031600 0.944400
vt 0.063400 0.944400
vt 0.031600 0.502500
vt 0.063400 0.502500
vt 0.875800 0.995700
vt 0.996500 0.995700
vt 0.946700 0.712600
vt 0.996500 0.712600
vt 0.875800 0.995700
vt 0.996500 0.995700
vt 0.946700 0.712600
vt 0.996500 0.712600
vt 0.875800 0.995700
vt 0.996500 0.995700
vt 0.946700 0.712600
vt 0.996500 0.712600
vt 0.512800 0.365500
vt 0.512800 0.870000
vt 0.498500 0.365500
vt 0.498500 0.870000
vt 0.526900 0.870000
vt 0.526900 0.365500
vt 0.541000 0.870000
vt 0.541000 0.365500
vt 0.555200 0.870000
vt 0.555200 0.365500
vt 0.569400 0.870000
vt 0.569400 0.365500
vt 0.583600 0.870000
vt 0.583600 0.365500
vt 0.597800 0.870000
vt 0.597800 0.365500
vt 0.611900 0.870000
vt 0.611900 0.365500
vt 0.626100 0.870000
vt 0.626100 0.365500
vt 0.640300 0.870000
vt 0.640300 0.365500
vt 0.512800 0.365500
vt 0.512800 0.870000
vt 0.498500 0.365500
vt 0.498500 0.870000
vt 0.526900 0.870000
vt 0.526900 0.365500
vt 0.541000 0.870000
vt 0.541000 0.365500
vt 0.555200 0.870000
vt 0.555200 0.365500
vt 0.569400 0.870000
vt 0.569400 0.365500
vt 0.583600 0.870000
vt 0.583600 0.365500
vt 0.597800 0.870000
vt 0.597800 0.365500
vt 0.611900 0.870000
vt 0.611900 0.365500
vt 0.626100 0.870000
vt 0.626100 0.365500
vt 0.640300 0.870000
vt 0.640300 0.365500
vt 0.626100 0.878400
vt 0.640300 0.878400
vt 0.626100 0.913300
vt 0.640300 0.913300
vt 0.611900 0.913300
vt 0.611900 0.878400
vt 0.597700 0.913300
vt 0.597700 0.878400
vt 0.583600 0.913300
vt 0.583600 0.878400
vt 0.569400 0.913300
vt 0.569400 0.878400
vt 0.555200 0.913300
vt 0.555200 0.878400
vt 0.541000 0.913300
vt 0.541000 0.878400
vt 0.526800 0.913300
vt 0.526800 0.878400
vt 0.512700 0.913300
vt 0.512700 0.878400
vt 0.498600 0.913300
vt 0.498600 0.878400
vt 0.626100 0.878400
vt 0.640300 0.878400
vt 0.626100 0.913300
vt 0.640300 0.913300
vt 0.611900 0.913300
vt 0.611900 0.878400
vt 0.597700 0.913300
vt 0.597700 0.878400
vt 0.583600 0.913300
vt 0.583600 0.878400
vt 0.569400 0.913300
vt 0.569400 0.878400
vt 0.555200 0.913300
vt 0.555200 0.878400
vt 0.541000 0.913300
vt 0.541000 0.878400
vt 0.526800 0.913300
vt 0.526800 0.878400
vt 0.512700 0.913300
vt 0.512700 0.878400
vt 0.498600 0.913300
vt 0.498600 0.878400
vt 0.626100 0.878400
vt 0.640300 0.878400
vt 0.626100 0.913300
vt 0.640300 0.913300
vt 0.611900 0.913300
vt 0.611900 0.878400
vt 0.597700 0.913300
vt 0.597700 0.878400
vt 0.583600 0.913300
vt 0.583600 0.878400
vt 0.569400 0.913300
vt 0.569400 0.878400
vt 0.555200 0.913300
vt 0.555200 0.878400
vt 0.541000 0.913300
vt 0.541000 0.878400
vt 0.526800 0.913300
vt 0.526800 0.878400
vt 0.512700 0.913300
vt 0.512700 0.878400
vt 0.498600 0.913300
vt 0.498600 0.878400
vt 0.626100 0.878400
vt 0.640300 0.878400
vt 0.626100 0.913300
vt 0.640300 0.913300
vt 0.611900 0.913300
vt 0.611900 0.878400
vt 0.597700 0.913300
vt 0.597700 0.878400
vt 0.583600 0.913300
vt 0.583600 0.878400
vt 0.569400 0.913300
vt 0.569400 0.878400
vt 0.555200 0.913300
vt 0.555200 0.878400
vt 0.541000 0.913300
vt 0.541000 0.878400
vt 0.526800 0.913300
vt 0.526800 0.878400
vt 0.512700 0.913300
vt 0.512700 0.878400
vt 0.498600 0.913300
vt 0.498600 0.878400
vt 0.512800 0.365500
vt 0.512800 0.870000
vt 0.498500 0.365500
vt 0.498500 0.870000
vt 0.526900 0.870000
vt 0.526900 0.365500
vt 0.541000 0.870000
vt 0.541000 0.365500
vt 0.555200 0.870000
vt 0.555200 0.365500
vt 0.569400 0.870000
vt 0.569400 0.365500
vt 0.583600 0.870000
vt 0.583600 0.365500
vt 0.597800 0.870000
vt 0.597800 0.365500
vt 0.611900 0.870000
vt 0.611900 0.365500
vt 0.626100 0.870000
vt 0.626100 0.365500
vt 0.640300 0.870000
vt 0.640300 0.365500
vt 0.512800 0.365500
vt 0.512800 0.870000
vt 0.498500 0.365500
vt 0.498500 0.870000
vt 0.526900 0.870000
vt 0.526900 0.365500
vt 0.541000 0.870000
vt 0.541000 0.365500
vt 0.555200 0.870000
vt 0.555200 0.365500
vt 0.569400 0.870000
vt 0.569400 0.365500
vt 0.583600 0.870000
vt 0.583600 0.365500
vt 0.597800 0.870000
vt 0.597800 0.365500
vt 0.611900 0.870000
vt 0.611900 0.365500
vt 0.626100 0.870000
vt 0.626100 0.365500
vt 0.640300 0.870000
vt 0.640300 0.365500
vt 0.025800 0.053800
vt 0.025800 0.111300
vt 0.457800 0.936800
vt 0.457800 0.879400
vt 0.025800 0.936800
vt 0.083100 0.936800
vt 0.746300 0.339600
vt 0.753800 0.318300
vt 0.752900 0.361300
vt 0.819500 0.341200
vt 0.813000 0.319500
vt 0.795000 0.305800
vt 0.772400 0.305300
vt 0.770900 0.375000
vt 0.793500 0.375500
vt 0.812100 0.362500
vt 0.666200 0.996500
vt 0.666200 0.474000
vt 0.673500 0.996700
vt 0.673500 0.474200
vt 0.673500 0.384000
vt 0.666200 0.383900
vt 0.649300 0.400500
vt 0.649300 0.473900
vt 0.649300 0.996400
vt 0.666200 0.996500
vt 0.666200 0.474000
vt 0.673500 0.996700
vt 0.673500 0.474100
vt 0.673500 0.384000
vt 0.666200 0.383900
vt 0.649300 0.400500
vt 0.649300 0.473900
vt 0.649300 0.996400
vt 0.822900 0.997100
vt 0.822900 0.479700
vt 0.864500 0.997100
vt 0.864500 0.479700
vt 0.864500 0.390500
vt 0.822900 0.390500
vt 0.794600 0.405800
vt 0.794600 0.479700
vt 0.794600 0.997100
vt 0.822900 0.997100
vt 0.822900 0.479700
vt 0.864500 0.997100
vt 0.864500 0.479700
vt 0.864500 0.390500
vt 0.822900 0.390500
vt 0.794600 0.405800
vt 0.794600 0.479700
vt 0.794600 0.997100
vt 0.820100 0.339600
vt 0.812700 0.361000
vt 0.813600 0.318000
vt 0.746900 0.338100
vt 0.753400 0.359700
vt 0.771500 0.373400
vt 0.794100 0.373900
vt 0.795600 0.304300
vt 0.773000 0.303800
vt 0.754400 0.316700
vt 0.746900 0.338500
vt 0.754400 0.317100
vt 0.753400 0.360200
vt 0.820100 0.340100
vt 0.771500 0.373800
vt 0.794100 0.374300
vt 0.812700 0.361400
vt 0.813600 0.318400
vt 0.795600 0.304700
vt 0.773000 0.304200
vt 0.819700 0.340100
vt 0.812200 0.361400
vt 0.813100 0.318400
vt 0.746500 0.338500
vt 0.795100 0.304700
vt 0.772500 0.304200
vt 0.753900 0.317100
vt 0.753000 0.360200
vt 0.771000 0.373800
vt 0.793600 0.374300
vt 0.013800 0.985800
vt 0.004500 0.995300
vt 0.476000 0.022100
vt 0.485400 0.012500
vt 0.482100 0.996700
vt 0.421300 0.996700
vt 0.482100 0.935800
vt 0.002100 0.935800
vt 0.062800 0.996700
vt 0.002100 0.996700
vt 0.002100 0.501300
vt 0.482100 0.501300
vt 0.002100 0.067700
vt 0.482100 0.067700
vt 0.002100 0.006900
vt 0.062800 0.006900
vt 0.421300 0.006900
vt 0.482100 0.006900
vt 0.749100 0.279600
vt 0.722700 0.279600
vt 0.749100 0.239400
vt 0.722700 0.239400
vt 0.749100 0.204800
vt 0.722700 0.204800
vt 0.495000 0.204700
vt 0.521400 0.204700
vt 0.495000 0.239400
vt 0.521400 0.239300
vt 0.495000 0.279600
vt 0.521400 0.279500
vt 0.547500 0.279500
vt 0.547400 0.305200
vt 0.696500 0.279500
vt 0.696400 0.305200
vt 0.696500 0.239300
vt 0.696400 0.213500
vt 0.547400 0.213500
vt 0.547300 0.187100
vt 0.696300 0.187100
vt 0.547500 0.239300
vt 0.729200 0.305200
vt 0.729200 0.331600
vt 0.696400 0.355000
vt 0.547400 0.355000
vt 0.514400 0.331600
vt 0.514400 0.305200
vt 0.749100 0.279600
vt 0.722700 0.279600
vt 0.749100 0.239400
vt 0.722700 0.239400
vt 0.749100 0.204800
vt 0.722700 0.204800
vt 0.495000 0.204700
vt 0.521400 0.204700
vt 0.495000 0.239400
vt 0.521400 0.239300
vt 0.495000 0.279600
vt 0.521400 0.279500
vt 0.547500 0.279500
vt 0.547400 0.305200
vt 0.696500 0.279500
vt 0.696400 0.305200
vt 0.696500 0.239300
vt 0.696400 0.213500
vt 0.547400 0.213500
vt 0.547300 0.187100
vt 0.696300 0.187100
vt 0.547500 0.239300
vt 0.729200 0.305200
vt 0.729200 0.331600
vt 0.696400 0.355000
vt 0.547400 0.355000
vt 0.514400 0.331600
vt 0.514400 0.305200
vt 0.013800 0.084800
vt 0.004500 0.084800
vt 0.013800 0.022100
vt 0.004500 0.012500
vt 0.485400 0.995300
vt 0.476000 0.985800
vt 0.485400 0.923100
vt 0.476000 0.923100
vt 0.448700 0.757700
vt 0.416800 0.757700
vt 0.448700 0.700400
vt 0.416800 0.700400
vt 0.448700 0.383200
vt 0.416800 0.383200
vt 0.448700 0.325800
vt 0.416800 0.325800
vt 0.445300 0.567300
vt 0.413500 0.567300
vt 0.445300 0.509900
vt 0.413500 0.509900
vt 0.445300 0.197300
vt 0.445300 0.192700
vt 0.413500 0.192700
vt 0.445300 0.135400
vt 0.413500 0.135400
vt 0.794400 0.375000
vt 0.771700 0.374900
vt 0.812800 0.361700
vt 0.753400 0.361500
vt 0.819800 0.340100
vt 0.746400 0.339900
vt 0.812900 0.318500
vt 0.753500 0.318400
vt 0.771800 0.305100
vt 0.794500 0.305100
vt 0.794400 0.375000
vt 0.771700 0.374900
vt 0.812800 0.361700
vt 0.753400 0.361500
vt 0.819800 0.340100
vt 0.746400 0.339900
vt 0.812900 0.318500
vt 0.753500 0.318400
vt 0.771800 0.305100
vt 0.794500 0.305100
vt 0.794400 0.375000
vt 0.771700 0.374900
vt 0.812800 0.361700
vt 0.753400 0.361500
vt 0.819800 0.340100
vt 0.746400 0.339900
vt 0.812900 0.318500
vt 0.753500 0.318400
vt 0.771800 0.305100
vt 0.794500 0.305100
vt 0.794400 0.375000
vt 0.771700 0.374900
vt 0.812800 0.361700
vt 0.753400 0.361500
vt 0.819800 0.340100
vt 0.746400 0.339900
vt 0.812900 0.318500
vt 0.753500 0.318400
vt 0.771800 0.305100
vt 0.794500 0.305100
vt 0.706800 0.384500
vt 0.706800 0.908100
vt 0.699500 0.384400
vt 0.699500 0.907900
vt 0.682700 0.384200
vt 0.682700 0.907800
vt 0.682700 0.981100
vt 0.699500 0.998100
vt 0.706800 0.998200
vt 0.706800 0.384500
vt 0.706800 0.908100
vt 0.699500 0.384400
vt 0.699500 0.907900
vt 0.682700 0.384200
vt 0.682700 0.907800
vt 0.682700 0.981100
vt 0.699500 0.998100
vt 0.706800 0.998200
vt 0.785800 0.389700
vt 0.785800 0.908100
vt 0.744200 0.389700
vt 0.744200 0.908100
vt 0.715800 0.389700
vt 0.715800 0.908100
vt 0.715800 0.982000
vt 0.744200 0.997400
vt 0.785800 0.997400
vt 0.785800 0.389700
vt 0.785800 0.908100
vt 0.744200 0.389700
vt 0.744200 0.908100
vt 0.715800 0.389700
vt 0.715800 0.908100
vt 0.715800 0.982000
vt 0.744200 0.997400
vt 0.785800 0.997400
vt 0.673500 0.384000
vt 0.673500 0.474000
vt 0.666200 0.383900
vt 0.666200 0.473800
vt 0.649300 0.400500
vt 0.649300 0.473700
vt 0.666200 0.905800
vt 0.649300 0.905700
vt 0.649300 0.979000
vt 0.666200 0.996000
vt 0.673500 0.996100
vt 0.673500 0.906000
vt 0.673500 0.384000
vt 0.673500 0.474200
vt 0.666200 0.383900
vt 0.666200 0.474000
vt 0.649300 0.400500
vt 0.649300 0.473900
vt 0.666200 0.906000
vt 0.649300 0.905800
vt 0.649300 0.979000
vt 0.666200 0.996000
vt 0.673500 0.996100
vt 0.673500 0.906100
vt 0.864500 0.390500
vt 0.864500 0.479800
vt 0.822900 0.390500
vt 0.822900 0.479800
vt 0.794600 0.405800
vt 0.794600 0.479800
vt 0.822900 0.907900
vt 0.794600 0.907400
vt 0.794600 0.981200
vt 0.822900 0.997100
vt 0.864500 0.997100
vt 0.864500 0.907900
vt 0.864500 0.390500
vt 0.864500 0.479700
vt 0.822900 0.390500
vt 0.822900 0.479700
vt 0.794600 0.405800
vt 0.794600 0.479600
vt 0.822900 0.907700
vt 0.794600 0.907300
vt 0.794600 0.981200
vt 0.822900 0.997100
vt 0.864500 0.997100
vt 0.864500 0.907700
vt 0.622300 0.989200
vt 0.601400 0.989200
vt 0.622300 0.928200
vt 0.601400 0.928200
vt 0.579700 0.989200
vt 0.579700 0.928100
vt 0.557600 0.989200
vt 0.557600 0.928100
vt 0.535700 0.989200
vt 0.535700 0.928100
vt 0.514300 0.989100
vt 0.514300 0.928100
vt 0.641800 0.989200
vt 0.641800 0.928100
vt 0.641800 0.921800
vt 0.622400 0.921800
vt 0.601400 0.921900
vt 0.579700 0.921800
vt 0.557700 0.921800
vt 0.535700 0.921800
vt 0.514300 0.921800
vt 0.494400 0.921700
vt 0.494400 0.928100
vt 0.494500 0.989100
vt 0.494400 0.995400
vt 0.514200 0.995500
vt 0.535800 0.995500
vt 0.557600 0.995500
vt 0.579700 0.995600
vt 0.601400 0.995500
vt 0.622400 0.995500
vt 0.641800 0.995500
vt 0.622300 0.989200
vt 0.601400 0.989200
vt 0.622300 0.928200
vt 0.601400 0.928200
vt 0.579700 0.989200
vt 0.579700 0.928100
vt 0.557600 0.989200
vt 0.557600 0.928100
vt 0.535700 0.989200
vt 0.535700 0.928100
vt 0.514300 0.989100
vt 0.514300 0.928100
vt 0.641800 0.989200
vt 0.641800 0.928100
vt 0.641800 0.921800
vt 0.622400 0.921800
vt 0.601400 0.921900
vt 0.579700 0.921800
vt 0.557700 0.921800
vt 0.535700 0.921800
vt 0.514300 0.921800
vt 0.494400 0.921700
vt 0.494400 0.928100
vt 0.494500 0.989100
vt 0.494400 0.995400
vt 0.514200 0.995500
vt 0.535800 0.995500
vt 0.557600 0.995500
vt 0.579700 0.995600
vt 0.601400 0.995500
vt 0.622400 0.995500
vt 0.641800 0.995500
vt 0.622300 0.989200
vt 0.601400 0.989200
vt 0.622300 0.928200
vt 0.601400 0.928200
vt 0.579700 0.989200
vt 0.579700 0.928100
vt 0.557600 0.989200
vt 0.557600 0.928100
vt 0.535700 0.989200
vt 0.535700 0.928100
vt 0.514300 0.989100
vt 0.514300 0.928100
vt 0.641800 0.989200
vt 0.641800 0.928100
vt 0.641800 0.921800
vt 0.622400 0.921800
vt 0.601400 0.921900
vt 0.579700 0.921800
vt 0.557700 0.921800
vt 0.535700 0.921800
vt 0.514300 0.921800
vt 0.494400 0.921700
vt 0.494400 0.928100
vt 0.494500 0.989100
vt 0.494400 0.995400
vt 0.514200 0.995500
vt 0.535800 0.995500
vt 0.557600 0.995500
vt 0.579700 0.995600
vt 0.601400 0.995500
vt 0.622400 0.995500
vt 0.641800 0.995500
vt 0.622300 0.989200
vt 0.601400 0.989200
vt 0.622300 0.928200
vt 0.601400 0.928200
vt 0.579700 0.989200
vt 0.579700 0.928100
vt 0.557600 0.989200
vt 0.557600 0.928100
vt 0.535700 0.989200
vt 0.535700 0.928100
vt 0.514300 0.989100
vt 0.514300 0.928100
vt 0.641800 0.989200
vt 0.641800 0.928100
vt 0.641800 0.921800
vt 0.622400 0.921800
vt 0.601400 0.921900
vt 0.579700 0.921800
vt 0.557700 0.921800
vt 0.535700 0.921800
vt 0.514300 0.921800
vt 0.494400 0.921700
vt 0.494400 0.928100
vt 0.494500 0.989100
vt 0.494400 0.995400
vt 0.514200 0.995500
vt 0.535800 0.995500
vt 0.557600 0.995500
vt 0.579700 0.995600
vt 0.601400 0.995500
vt 0.622400 0.995500
vt 0.641800 0.995500
vn -0.0000 -1.0000 0.0000
vn -1.0000 0.0000 0.0000
vn 1.0000 0.0000 0.0000
vn 0.0000 0.0000 -1.0000
vn 0.0000 0.0000 1.0000
vn -0.8988 0.0000 0.4384
vn -0.9848 0.0000 -0.1736
vn -0.4695 0.0000 0.8829
vn -0.4695 0.0000 0.8830
vn 0.1392 -0.0000 0.9903
vn 0.6947 -0.0000 0.7193
vn 0.9848 -0.0000 0.1737
vn 0.8988 -0.0000 -0.4384
vn 0.4694 -0.0000 -0.8830
vn -0.1392 0.0000 -0.9903
vn -0.6947 -0.0000 -0.7193
vn 0.4384 -0.0000 0.8988
vn -0.1736 0.0000 0.9848
vn 0.8829 -0.0000 0.4695
vn 0.9903 0.0000 -0.1391
vn 0.7194 0.0000 -0.6946
vn 0.7193 -0.0000 -0.6947
vn 0.1737 -0.0000 -0.9848
vn -0.4384 0.0000 -0.8988
vn -0.8829 0.0000 -0.4695
vn -0.9903 0.0000 0.1392
vn -0.7193 0.0000 0.6947
vn 0.1329 0.6437 -0.7536
vn -0.3355 0.6437 -0.6878
vn 0.5505 0.6437 -0.5316
vn 0.7578 0.6437 -0.1065
vn 0.9903 0.0000 -0.1392
vn 0.6757 0.6437 0.3593
vn 0.3355 0.6437 0.6878
vn -0.1329 0.6437 0.7536
vn -0.1737 0.0000 0.9848
vn -0.5505 0.6437 0.5316
vn -0.7578 0.6437 0.1065
vn -0.9903 0.0001 0.1392
vn -0.6757 0.6437 -0.3593
vn 0.7536 0.6437 0.1329
vn 0.6878 0.6437 -0.3355
vn 0.5316 0.6437 0.5505
vn 0.6946 0.0000 0.7193
vn 0.1065 0.6437 0.7578
vn -0.3593 0.6437 0.6757
vn -0.6878 0.6437 0.3355
vn -0.7536 0.6437 -0.1329
vn -0.9848 0.0000 -0.1737
vn -0.5316 0.6437 -0.5505
vn -0.6946 0.0000 -0.7193
vn -0.1065 0.6437 -0.7578
vn -0.1392 0.0001 -0.9903
vn 0.3593 0.6437 -0.6757
vn 0.4695 0.0000 -0.8829
vn 0.3592 0.6437 -0.6757
vn 0.4695 0.0000 -0.8830
vn 0.1392 0.0001 0.9903
vn 0.1736 0.0000 -0.9848
vn 0.8830 -0.0000 0.4694
vn 0.9848 0.0000 0.1736
vn 0.9848 -0.0001 0.1736
vn 0.7071 0.7071 0.0000
vn 0.8944 0.4472 0.0000
vn 0.0000 1.0000 0.0000
vn -0.7071 0.7071 -0.0000
vn -0.8944 0.4472 0.0000
vn 0.9239 0.3827 0.0000
vn 0.9576 0.2880 0.0000
vn -0.9239 0.3827 -0.0000
vn -0.9576 0.2880 -0.0000
vn 0.0000 0.4448 0.8956
vn -0.7442 0.2749 0.6088
vn 0.0000 -0.3827 0.9239
vn -0.7442 -0.2749 0.6088
vn 0.0000 -0.9239 0.3827
vn -0.7442 -0.6088 0.2749
vn 0.0000 -0.9239 -0.3827
vn -0.7442 -0.6088 -0.2749
vn 0.0000 -0.3827 -0.9239
vn -0.7442 -0.2749 -0.6088
vn 0.0000 0.4448 -0.8956
vn -0.7442 0.2749 -0.6088
vn -0.9663 -0.1821 0.1821
vn -0.7442 0.6088 -0.2749
vn -0.9663 -0.1821 -0.1821
vn -0.7442 0.6088 0.2749
vn -0.9663 0.1821 -0.1821
vn -0.9663 0.1821 0.1821
vn 0.0000 0.9579 0.2870
vn 0.0000 0.9579 -0.2870
vn 0.7442 0.2749 -0.6088
vn 0.7442 -0.2749 -0.6088
vn 0.7442 -0.6088 -0.2749
vn 0.7442 -0.6088 0.2749
vn 0.7442 -0.2749 0.6088
vn 0.7442 0.2749 0.6088
vn 0.9663 -0.1821 -0.1821
vn 0.7442 0.6088 0.2749
vn 0.9663 -0.1821 0.1821
vn 0.7442 0.6088 -0.2749
vn 0.9663 0.1821 0.1821
vn 0.9663 0.1821 -0.1821
vn -0.0000 0.4472 0.8944
vn 0.0000 0.7071 0.7071
vn 0.0000 0.4472 -0.8944
vn 0.0000 0.7071 -0.7071
vn -0.0000 0.2880 -0.9576
vn 0.0000 0.3827 -0.9239
vn 0.0000 0.2880 0.9576
vn -0.0000 0.3827 0.9239
vn 0.5505 -0.6437 -0.5316
vn 0.7578 -0.6437 -0.1065
vn 0.6757 -0.6437 0.3593
vn 0.3355 -0.6437 0.6878
vn -0.1329 -0.6437 0.7536
vn -0.5505 -0.6437 0.5316
vn 0.3666 0.6247 -0.6895
vn 0.3666 -0.6247 -0.6895
vn -0.7019 -0.6247 0.3423
vn -0.7019 0.6247 0.3423
vn -0.5316 -0.6437 -0.5505
vn -0.1065 -0.6437 -0.7578
vn 0.3593 -0.6437 -0.6757
vn 0.6878 -0.6437 -0.3355
vn 0.7536 -0.6437 0.1329
vn 0.5316 -0.6437 0.5505
vn -0.6895 0.6247 -0.3666
vn -0.6895 -0.6247 -0.3666
vn 0.3423 -0.6247 0.7019
vn 0.3423 0.6247 0.7019
vn -0.7578 -0.6437 0.1065
vn -0.6757 -0.6437 -0.3593
vn -0.3355 -0.6437 -0.6878
vn 0.1329 -0.6437 -0.7536
vn -0.3666 0.6247 0.6895
vn -0.3666 -0.6247 0.6895
vn 0.7018 -0.6247 -0.3423
vn 0.7018 0.6247 -0.3423
vn 0.1065 -0.6437 0.7578
vn -0.3593 -0.6437 0.6757
vn -0.6878 -0.6437 0.3355
vn -0.7536 -0.6437 -0.1329
vn 0.6895 0.6247 0.3666
vn 0.6895 -0.6247 0.3666
vn -0.3423 -0.6247 -0.7018
vn -0.3423 0.6247 -0.7018
usemtl _vault_tableMaterial_000001
s 1
f 1/1/1 2/2/1 3/3/1
f 2/2/1 1/1/1 4/4/1
f 5/5/1 6/6/1 7/7/1
f 6/6/1 5/5/1 8/8/1
f 3/3/1 2/2/1 9/9/1
f 10/10/1 11/11/1 12/12/1
f 11/11/1 10/10/1 13/13/1
f 10/10/1 14/14/1 13/13/1
f 4/4/1 14/14/1 10/10/1
f 4/4/1 15/15/1 14/14/1
f 10/10/1 2/2/1 4/4/1
f 2/2/1 10/10/1 16/16/1
f 17/17/2 18/18/2 19/19/2
f 20/20/3 18/18/3 19/19/3
f 25/21/4 26/22/4 27/23/4
f 30/24/3 32/25/3 31/26/3
f 28/27/5 26/22/5 27/23/5
f 30/24/2 29/28/2 31/26/2
f 34/29/2 36/30/2 35/31/2
f 37/32/4 38/33/4 39/34/4
f 34/29/3 33/35/3 35/31/3
f 40/36/5 38/33/5 39/34/5
f 41/37/1 42/38/1 43/39/1
f 42/38/1 44/40/1 43/39/1
f 45/41/1 46/42/1 47/43/1
f 46/42/1 48/44/1 47/43/1
f 49/45/1 50/46/1 51/47/1
f 50/46/1 52/48/1 51/47/1
f 53/49/2 54/50/2 55/51/2
f 54/50/2 56/52/2 55/51/2
f 8/53/3 11/54/3 57/55/3
f 11/54/3 58/56/3 57/55/3
f 5/57/3 12/58/3 8/53/3
f 12/58/3 11/54/3 8/53/3
f 59/59/3 60/60/3 5/57/3
f 60/60/3 12/58/3 5/57/3
f 61/61/3 62/62/3 59/59/3
f 62/62/3 60/60/3 59/59/3
f 52/63/2 3/64/2 63/65/2
f 3/64/2 9/66/2 63/65/2
f 50/67/2 1/68/2 52/63/2
f 1/68/2 3/64/2 52/63/2
f 55/51/2 56/52/2 50/67/2
f 56/52/2 1/68/2 50/67/2
f 64/69/3 65/70/3 66/71/3
f 65/70/3 67/72/3 66/71/3
f 71/73/4 69/74/4 70/75/4
f 69/74/4 68/76/4 70/75/4
f 24/77/5 22/78/5 23/79/5
f 22/78/5 21/80/5 23/79/5
f 72/81/6 73/82/6 74/83/7
f 73/82/6 75/84/7 74/83/7
f 73/82/6 72/81/6 76/85/8
f 72/81/6 77/86/9 76/85/8
f 76/85/8 77/86/9 78/87/10
f 77/86/9 79/88/10 78/87/10
f 78/87/10 79/88/10 80/89/11
f 79/88/10 81/90/11 80/89/11
f 80/89/11 81/90/11 82/91/12
f 81/90/11 83/92/12 82/91/12
f 82/91/12 83/92/12 84/93/13
f 83/92/12 85/94/13 84/93/13
f 84/93/13 85/94/13 86/95/14
f 85/94/13 87/96/14 86/95/14
f 86/95/14 87/96/14 88/97/15
f 87/96/14 89/98/15 88/97/15
f 88/97/15 89/98/15 90/99/16
f 89/98/15 91/100/16 90/99/16
f 90/99/16 91/100/16 75/101/7
f 91/100/16 74/102/7 75/101/7
f 92/103/17 93/104/17 94/105/18
f 93/104/17 95/106/18 94/105/18
f 93/104/17 92/103/17 96/107/19
f 92/103/17 97/108/19 96/107/19
f 96/107/19 97/108/19 98/109/20
f 97/108/19 99/110/20 98/109/20
f 98/109/20 99/110/20 100/111/21
f 99/110/20 101/112/22 100/111/21
f 100/111/21 101/112/22 102/113/23
f 101/112/22 103/114/23 102/113/23
f 102/113/23 103/114/23 104/115/24
f 103/114/23 105/116/24 104/115/24
f 104/115/24 105/116/24 106/117/25
f 105/116/24 107/118/25 106/117/25
f 106/117/25 107/118/25 108/119/26
f 107/118/25 109/120/26 108/119/26
f 108/119/26 109/120/26 110/121/27
f 109/120/26 111/122/27 110/121/27
f 110/121/27 111/122/27 95/123/18
f 111/122/27 94/124/18 95/123/18
f 112/125/23 113/126/24 114/127/28
f 113/126/24 115/128/29 114/127/28
f 114/127/28 116/129/30 112/125/23
f 112/125/23 116/129/30 117/130/22
f 116/129/30 118/131/31 117/130/22
f 117/130/22 118/131/31 119/132/32
f 118/131/31 120/133/33 119/132/32
f 119/132/32 120/133/33 121/134/19
f 120/133/33 122/135/34 121/134/19
f 121/134/19 122/135/34 123/136/17
f 122/135/34 124/137/35 123/136/17
f 123/136/17 124/137/35 125/138/36
f 124/137/35 126/139/37 125/138/36
f 125/138/36 126/139/37 127/140/27
f 126/139/37 128/141/38 127/140/27
f 127/140/27 128/141/38 129/142/39
f 128/141/38 130/143/40 129/142/39
f 129/142/26 130/143/40 131/144/25
f 130/143/40 115/145/29 131/144/25
f 115/145/29 113/146/24 131/144/25
f 132/147/12 133/148/13 134/149/41
f 133/148/13 135/150/42 134/149/41
f 134/149/41 136/151/43 132/147/12
f 132/147/12 136/151/43 137/152/44
f 136/151/43 138/153/45 137/152/44
f 137/152/44 138/153/45 139/154/10
f 138/153/45 140/155/46 139/154/10
f 139/154/10 140/155/46 141/156/8
f 140/155/46 142/157/47 141/156/8
f 141/156/8 142/157/47 143/158/6
f 142/157/47 144/159/48 143/158/6
f 143/158/6 144/159/48 145/160/49
f 144/159/48 146/161/50 145/160/49
f 145/160/49 146/161/50 147/162/51
f 146/161/50 148/163/52 147/162/51
f 147/162/51 148/163/52 149/164/53
f 148/163/52 150/165/54 149/164/53
f 149/164/15 150/165/54 151/166/55
f 150/165/54 135/167/42 151/166/55
f 135/167/42 133/168/13 151/166/55
f 152/169/7 153/170/6 154/171/48
f 153/170/6 155/172/47 154/171/48
f 154/171/48 156/173/50 152/169/7
f 152/169/7 156/173/50 157/174/16
f 156/173/50 158/175/52 157/174/16
f 157/174/16 158/175/52 159/176/15
f 158/175/52 160/177/56 159/176/15
f 159/176/15 160/177/56 161/178/57
f 160/177/56 162/179/42 161/178/57
f 161/178/57 162/179/42 163/180/13
f 162/179/42 164/181/41 163/180/13
f 163/180/13 164/181/41 165/182/12
f 164/181/41 166/183/43 165/182/12
f 165/182/12 166/183/43 167/184/11
f 166/183/43 168/185/45 167/184/11
f 167/184/11 168/185/45 169/186/58
f 168/185/45 170/187/46 169/186/58
f 169/186/10 170/187/46 171/188/8
f 170/187/46 155/189/47 171/188/8
f 155/189/47 153/190/6 171/188/8
f 172/191/36 173/192/17 174/193/35
f 173/192/17 175/194/34 174/193/35
f 174/193/35 176/195/37 172/191/36
f 172/191/36 176/195/37 177/196/27
f 176/195/37 178/197/38 177/196/27
f 177/196/27 178/197/38 179/198/26
f 178/197/38 180/199/40 179/198/26
f 179/198/26 180/199/40 181/200/25
f 180/199/40 182/201/29 181/200/25
f 181/200/25 182/201/29 183/202/24
f 182/201/29 184/203/28 183/202/24
f 183/202/24 184/203/28 185/204/23
f 184/203/28 186/205/30 185/204/23
f 185/204/23 186/205/30 187/206/21
f 186/205/30 188/207/31 187/206/21
f 187/206/21 188/207/31 189/208/32
f 188/207/31 190/209/33 189/208/32
f 189/208/32 190/209/33 191/210/19
f 190/209/33 175/211/34 191/210/19
f 175/211/34 173/212/17 191/210/19
f 192/213/24 193/214/24 194/215/59
f 193/214/24 195/216/59 194/215/59
f 193/214/24 192/213/24 196/217/25
f 192/213/24 197/218/25 196/217/25
f 196/217/25 197/218/25 198/219/26
f 197/218/25 199/220/26 198/219/26
f 198/219/26 199/220/26 200/221/27
f 199/220/26 201/222/27 200/221/27
f 200/221/27 201/222/27 202/223/36
f 201/222/27 203/224/36 202/223/36
f 202/223/36 203/224/36 204/225/17
f 203/224/36 205/226/17 204/225/17
f 204/225/17 205/226/17 206/227/19
f 205/226/17 207/228/60 206/227/19
f 206/227/19 207/228/60 208/229/32
f 207/228/60 209/230/32 208/229/32
f 208/229/32 209/230/32 210/231/22
f 209/230/32 211/232/22 210/231/22
f 210/231/22 211/232/22 195/233/59
f 211/232/22 194/234/59 195/233/59
f 212/235/13 213/236/13 214/237/61
f 213/236/13 215/238/61 214/237/61
f 213/236/13 212/235/13 216/239/55
f 212/235/13 217/240/55 216/239/55
f 216/239/55 217/240/55 218/241/15
f 217/240/55 219/242/15 218/241/15
f 218/241/15 219/242/15 220/243/51
f 219/242/15 221/244/51 220/243/51
f 220/243/51 221/244/51 222/245/49
f 221/244/51 223/246/49 222/245/49
f 222/245/49 223/246/49 224/247/6
f 223/246/49 225/248/6 224/247/6
f 224/247/6 225/248/6 226/249/8
f 225/248/6 227/250/8 226/249/8
f 226/249/8 227/250/8 228/251/10
f 227/250/8 229/252/10 228/251/10
f 228/251/10 229/252/10 230/253/44
f 229/252/10 231/254/11 230/253/44
f 230/253/44 231/254/11 215/255/62
f 231/254/11 214/256/61 215/255/62
f 62/257/1 16/16/1 60/258/1
f 16/16/1 10/10/1 60/258/1
f 60/258/1 10/10/1 12/12/1
f 54/259/1 15/15/1 56/260/1
f 15/15/1 4/4/1 56/260/1
f 56/260/1 4/4/1 1/1/1
f 58/261/1 11/11/1 232/262/1
f 11/11/1 13/13/1 232/262/1
f 232/262/1 13/13/1 14/14/1
f 83/263/1 81/264/1 85/265/1
f 81/264/1 74/266/1 85/265/1
f 72/267/1 74/266/1 77/268/1
f 74/266/1 81/264/1 77/268/1
f 77/268/1 81/264/1 79/269/1
f 87/270/1 85/265/1 89/271/1
f 85/265/1 74/266/1 89/271/1
f 89/271/1 74/266/1 91/272/1
f 233/273/63 234/274/63 235/275/3
f 234/274/63 236/276/3 235/275/3
f 237/277/3 236/276/3 238/278/64
f 236/276/3 234/274/63 238/278/64
f 238/278/64 234/274/63 239/279/65
f 239/279/65 234/274/63 240/280/65
f 234/274/63 233/273/63 240/280/65
f 240/280/65 233/273/63 241/281/65
f 242/282/66 243/283/66 244/284/2
f 243/283/66 245/285/2 244/284/2
f 246/286/2 245/285/2 247/287/67
f 245/285/2 243/283/66 247/287/67
f 247/287/67 243/283/66 248/288/65
f 248/288/65 243/283/66 249/289/65
f 243/283/66 242/282/66 249/289/65
f 249/289/65 242/282/66 250/290/65
f 251/291/68 252/292/68 49/293/3
f 252/292/68 253/294/3 49/293/3
f 254/295/3 253/294/3 255/296/69
f 253/294/3 252/292/68 255/296/69
f 255/296/69 252/292/68 256/297/63
f 256/297/63 252/292/68 257/298/63
f 252/292/68 251/291/68 257/298/63
f 257/298/63 251/291/68 258/299/63
f 259/300/70 260/301/70 7/302/2
f 260/301/70 261/303/2 7/302/2
f 262/304/2 261/303/2 263/305/71
f 261/303/2 260/301/70 263/305/71
f 263/305/71 260/301/70 264/306/66
f 264/306/66 260/301/70 265/307/66
f 260/301/70 259/300/70 265/307/66
f 265/307/66 259/300/70 266/308/66
f 223/309/1 221/310/1 225/311/1
f 221/310/1 214/312/1 225/311/1
f 212/313/1 214/312/1 217/314/1
f 214/312/1 221/310/1 217/314/1
f 217/314/1 221/310/1 219/315/1
f 227/316/1 225/311/1 229/317/1
f 225/311/1 214/312/1 229/317/1
f 229/317/1 214/312/1 231/318/1
f 203/319/1 201/320/1 205/321/1
f 201/320/1 194/322/1 205/321/1
f 207/323/1 205/321/1 209/324/1
f 205/321/1 194/322/1 209/324/1
f 209/324/1 194/322/1 211/325/1
f 192/326/1 194/322/1 197/327/1
f 194/322/1 201/320/1 197/327/1
f 197/327/1 201/320/1 199/328/1
f 103/329/1 101/330/1 105/331/1
f 101/330/1 94/332/1 105/331/1
f 107/333/1 105/331/1 109/334/1
f 105/331/1 94/332/1 109/334/1
f 109/334/1 94/332/1 111/335/1
f 92/336/1 94/332/1 97/337/1
f 94/332/1 101/330/1 97/337/1
f 97/337/1 101/330/1 99/338/1
f 42/38/1 41/37/1 57/339/1
f 41/37/1 267/340/1 57/339/1
f 57/339/1 267/340/1 8/8/1
f 267/340/1 6/6/1 8/8/1
f 46/42/1 45/41/1 63/341/1
f 45/41/1 268/342/1 63/341/1
f 63/341/1 268/342/1 52/48/1
f 268/342/1 51/47/1 52/48/1
f 269/343/65 270/344/65 271/345/65
f 271/345/65 270/344/65 249/346/65
f 270/344/65 272/347/65 249/346/65
f 249/346/65 272/347/65 248/348/65
f 249/346/65 273/349/65 271/345/65
f 271/345/65 273/349/65 241/350/65
f 273/349/65 274/351/65 241/350/65
f 241/350/65 274/351/65 240/352/65
f 275/353/65 276/354/65 274/351/65
f 276/354/65 277/355/65 274/351/65
f 274/351/65 277/355/65 240/352/65
f 277/355/65 239/356/65 240/352/65
f 278/357/72 279/358/73 280/359/74
f 279/358/73 281/360/75 280/359/74
f 280/359/74 281/360/75 282/361/76
f 281/360/75 283/362/77 282/361/76
f 284/363/78 285/364/79 286/365/80
f 285/364/79 287/366/81 286/365/80
f 286/365/80 287/366/81 288/367/82
f 288/367/82 287/366/81 289/368/83
f 287/366/81 290/369/84 289/368/83
f 289/368/83 290/369/84 291/370/85
f 290/369/84 292/371/86 291/370/85
f 291/370/85 292/371/86 293/372/87
f 293/372/87 292/371/86 279/358/73
f 279/358/73 292/371/86 281/360/75
f 292/371/86 294/373/88 281/360/75
f 281/360/75 294/373/88 283/374/77
f 294/373/88 285/375/79 283/374/77
f 285/375/79 284/376/78 283/374/77
f 283/374/77 284/376/78 282/377/76
f 287/366/81 285/375/79 295/378/89
f 285/375/79 294/373/88 295/378/89
f 294/373/88 292/371/86 295/378/89
f 292/371/86 290/369/84 295/378/89
f 295/378/89 290/369/84 287/366/81
f 279/379/73 278/380/72 293/372/87
f 278/380/72 296/381/90 293/372/87
f 293/372/87 296/381/90 291/370/85
f 296/381/90 297/382/91 291/370/85
f 297/382/91 288/383/82 291/370/85
f 291/370/85 288/383/82 289/384/83
f 298/385/82 299/386/92 300/387/80
f 299/386/92 301/388/93 300/387/80
f 300/387/80 301/388/93 302/389/78
f 301/388/93 303/390/94 302/389/78
f 304/391/76 305/392/95 306/393/74
f 305/392/95 307/394/96 306/393/74
f 306/393/74 307/394/96 308/395/72
f 308/395/72 307/394/96 309/396/97
f 307/394/96 310/397/98 309/396/97
f 309/396/97 310/397/98 311/398/99
f 310/397/98 312/399/100 311/398/99
f 311/398/99 312/399/100 313/400/101
f 313/400/101 312/399/100 299/386/92
f 299/386/92 312/399/100 301/388/93
f 312/399/100 314/401/102 301/388/93
f 301/388/93 314/401/102 303/402/94
f 314/401/102 305/403/95 303/402/94
f 305/403/95 304/404/76 303/402/94
f 303/402/94 304/404/76 302/405/78
f 307/394/96 305/403/95 315/406/103
f 305/403/95 314/401/102 315/406/103
f 314/401/102 312/399/100 315/406/103
f 312/399/100 310/397/98 315/406/103
f 315/406/103 310/397/98 307/394/96
f 299/407/92 298/408/82 313/400/101
f 298/408/82 316/409/91 313/400/101
f 313/400/101 316/409/91 311/398/99
f 316/409/91 317/410/90 311/398/99
f 317/410/90 308/411/72 311/398/99
f 311/398/99 308/411/72 309/412/97
f 5/5/1 7/7/1 59/413/1
f 7/7/1 261/414/1 59/413/1
f 59/413/1 261/414/1 61/415/1
f 261/414/1 262/416/1 61/415/1
f 61/415/1 262/416/1 48/44/1
f 262/416/1 47/43/1 48/44/1
f 43/39/1 44/40/1 254/417/1
f 44/40/1 53/418/1 254/417/1
f 254/417/1 53/418/1 253/419/1
f 53/418/1 55/420/1 253/419/1
f 253/419/1 55/420/1 49/45/1
f 55/420/1 50/46/1 49/45/1
f 62/421/5 61/422/5 16/423/5
f 61/422/5 48/424/5 16/423/5
f 16/423/5 48/424/5 2/425/5
f 48/424/5 46/426/5 2/425/5
f 2/425/5 46/426/5 9/427/5
f 46/426/5 63/428/5 9/427/5
f 54/429/4 53/430/4 15/431/4
f 53/430/4 44/432/4 15/431/4
f 15/431/4 44/432/4 14/433/4
f 14/433/4 44/432/4 232/434/4
f 44/432/4 42/435/4 232/434/4
f 232/434/4 42/435/4 58/436/4
f 42/435/4 57/437/4 58/436/4
f 115/438/29 130/439/40 114/440/28
f 130/439/40 128/441/38 114/440/28
f 114/440/28 128/441/38 116/442/30
f 128/441/38 126/443/37 116/442/30
f 116/442/30 126/443/37 118/444/31
f 126/443/37 124/445/35 118/444/31
f 124/445/35 122/446/34 118/444/31
f 118/444/31 122/446/34 120/447/33
f 135/448/42 150/449/54 134/450/41
f 150/449/54 148/451/52 134/450/41
f 134/450/41 148/451/52 136/452/43
f 148/451/52 146/453/50 136/452/43
f 136/452/43 146/453/50 138/454/45
f 146/453/50 144/455/48 138/454/45
f 144/455/48 142/456/47 138/454/45
f 138/454/45 142/456/47 140/457/46
f 175/458/34 190/459/33 174/460/35
f 190/459/33 188/461/31 174/460/35
f 174/460/35 188/461/31 176/462/37
f 188/461/31 186/463/30 176/462/37
f 176/462/37 186/463/30 178/464/38
f 186/463/30 184/465/28 178/464/38
f 184/465/28 182/466/29 178/464/38
f 178/464/38 182/466/29 180/467/40
f 155/468/47 170/469/46 154/470/48
f 170/469/46 168/471/45 154/470/48
f 154/470/48 168/471/45 156/472/50
f 168/471/45 166/473/43 156/472/50
f 156/472/50 166/473/43 158/474/52
f 166/473/43 164/475/41 158/474/52
f 164/475/41 162/476/42 158/474/52
f 158/474/52 162/476/42 160/477/56
f 235/478/3 318/479/3 233/480/63
f 318/479/3 319/481/63 233/480/63
f 233/480/63 319/481/63 241/482/65
f 241/482/65 319/481/63 271/483/65
f 271/483/65 319/481/63 269/484/65
f 269/484/65 319/481/63 320/485/64
f 320/485/64 319/481/63 321/486/3
f 319/481/63 318/479/3 321/486/3
f 244/487/2 322/488/2 242/489/66
f 322/488/2 323/490/66 242/489/66
f 242/489/66 323/490/66 250/491/65
f 250/491/65 323/490/66 274/492/65
f 274/492/65 323/490/66 275/493/65
f 275/493/65 323/490/66 324/494/67
f 324/494/67 323/490/66 325/495/2
f 323/490/66 322/488/2 325/495/2
f 49/496/3 51/497/3 251/498/68
f 51/497/3 326/499/68 251/498/68
f 251/498/68 326/499/68 258/500/63
f 258/500/63 326/499/68 327/501/63
f 327/501/63 326/499/68 328/502/63
f 328/502/63 326/499/68 329/503/69
f 329/503/69 326/499/68 268/504/3
f 326/499/68 51/497/3 268/504/3
f 7/505/2 6/506/2 259/507/70
f 6/506/2 330/508/70 259/507/70
f 259/507/70 330/508/70 266/509/66
f 266/509/66 330/508/70 331/510/66
f 331/510/66 330/508/70 332/511/66
f 332/511/66 330/508/70 333/512/71
f 333/512/71 330/508/70 267/513/2
f 330/508/70 6/506/2 267/513/2
f 325/514/5 334/515/5 324/516/104
f 334/515/5 335/517/105 324/516/104
f 324/516/104 335/517/105 275/518/65
f 275/518/65 335/517/105 276/519/65
f 335/517/105 336/520/105 276/519/65
f 276/519/65 336/520/105 277/521/65
f 277/521/65 336/520/105 239/522/65
f 239/522/65 336/520/105 238/523/104
f 238/523/104 336/520/105 237/524/5
f 237/524/5 336/520/105 337/525/5
f 336/520/105 335/517/105 337/525/5
f 337/525/5 335/517/105 334/515/5
f 321/526/4 338/527/4 320/528/106
f 338/527/4 339/529/107 320/528/106
f 320/528/106 339/529/107 269/530/65
f 269/530/65 339/529/107 270/531/65
f 339/529/107 340/532/107 270/531/65
f 270/531/65 340/532/107 272/533/65
f 272/533/65 340/532/107 248/534/65
f 248/534/65 340/532/107 247/535/106
f 247/535/106 340/532/107 246/536/4
f 246/536/4 340/532/107 341/537/4
f 340/532/107 339/529/107 341/537/4
f 341/537/4 339/529/107 338/527/4
f 268/538/4 45/539/4 329/540/108
f 45/539/4 342/541/109 329/540/108
f 329/540/108 342/541/109 328/542/107
f 328/542/107 342/541/109 343/543/107
f 342/541/109 344/544/109 343/543/107
f 343/543/107 344/544/109 345/545/107
f 345/545/107 344/544/109 264/546/107
f 264/546/107 344/544/109 263/547/108
f 263/547/108 344/544/109 262/548/4
f 262/548/4 344/544/109 47/549/4
f 344/544/109 342/541/109 47/549/4
f 47/549/4 342/541/109 45/539/4
f 267/550/5 41/551/5 333/552/110
f 41/551/5 346/553/111 333/552/110
f 333/552/110 346/553/111 332/554/105
f 332/554/105 346/553/111 347/555/105
f 346/553/111 348/556/111 347/555/105
f 347/555/105 348/556/111 349/557/105
f 349/557/105 348/556/111 256/558/105
f 256/558/105 348/556/111 255/559/110
f 255/559/110 348/556/111 254/560/5
f 254/560/5 348/556/111 43/561/5
f 348/556/111 346/553/111 43/561/5
f 43/561/5 346/553/111 41/551/5
f 350/562/30 351/563/31 352/564/112
f 352/564/112 351/563/31 353/565/113
f 351/563/31 354/566/33 353/565/113
f 353/565/113 354/566/33 355/567/114
f 354/566/33 356/568/34 355/567/114
f 355/567/114 356/568/34 357/569/115
f 356/568/34 358/570/35 357/569/115
f 357/569/115 358/570/35 359/571/116
f 358/570/35 360/572/37 359/571/116
f 359/571/116 360/572/37 361/573/117
f 362/574/118 350/562/30 363/575/119
f 350/562/30 352/564/112 363/575/119
f 363/575/119 352/564/112 195/576/1
f 195/576/1 352/564/112 210/577/1
f 352/564/112 353/565/113 210/577/1
f 210/577/1 353/565/113 208/578/1
f 353/565/113 355/567/114 208/578/1
f 208/578/1 355/567/114 206/579/1
f 355/567/114 357/569/115 206/579/1
f 206/579/1 357/569/115 204/580/1
f 357/569/115 359/571/116 204/580/1
f 204/580/1 359/571/116 202/581/1
f 359/571/116 361/573/117 202/581/1
f 202/581/1 361/573/117 200/582/1
f 198/583/1 200/582/1 364/584/120
f 200/582/1 361/573/117 364/584/120
f 364/584/120 361/573/117 365/585/121
f 361/573/117 360/572/37 365/585/121
f 365/585/121 360/572/37 129/586/65
f 129/586/65 360/572/37 127/587/65
f 360/572/37 358/570/35 127/587/65
f 127/587/65 358/570/35 125/588/65
f 358/570/35 356/568/34 125/588/65
f 125/588/65 356/568/34 123/589/65
f 356/568/34 354/566/33 123/589/65
f 123/589/65 354/566/33 121/590/65
f 354/566/33 351/563/31 121/590/65
f 121/590/65 351/563/31 119/591/65
f 351/563/31 350/562/30 119/591/65
f 119/591/65 350/562/30 117/592/65
f 350/562/30 362/574/118 117/592/65
f 117/592/65 362/574/118 112/593/65
f 366/594/50 367/595/52 368/596/122
f 368/596/122 367/595/52 369/597/123
f 367/595/52 370/598/54 369/597/123
f 369/597/123 370/598/54 371/599/124
f 370/598/54 372/600/42 371/599/124
f 371/599/124 372/600/42 373/601/125
f 372/600/42 374/602/41 373/601/125
f 373/601/125 374/602/41 375/603/126
f 374/602/41 376/604/43 375/603/126
f 375/603/126 376/604/43 377/605/127
f 378/606/128 366/594/50 379/607/129
f 366/594/50 368/596/122 379/607/129
f 379/607/129 368/596/122 75/608/1
f 75/608/1 368/596/122 90/609/1
f 368/596/122 369/597/123 90/609/1
f 90/609/1 369/597/123 88/610/1
f 369/597/123 371/599/124 88/610/1
f 88/610/1 371/599/124 86/611/1
f 371/599/124 373/601/125 86/611/1
f 86/611/1 373/601/125 84/612/1
f 373/601/125 375/603/126 84/612/1
f 84/612/1 375/603/126 82/613/1
f 375/603/126 377/605/127 82/613/1
f 82/613/1 377/605/127 80/614/1
f 78/615/1 80/614/1 380/616/130
f 80/614/1 377/605/127 380/616/130
f 380/616/130 377/605/127 381/617/131
f 377/605/127 376/604/43 381/617/131
f 381/617/131 376/604/43 169/618/65
f 169/618/65 376/604/43 167/619/65
f 376/604/43 374/602/41 167/619/65
f 167/619/65 374/602/41 165/620/65
f 374/602/41 372/600/42 165/620/65
f 165/620/65 372/600/42 163/621/65
f 372/600/42 370/598/54 163/621/65
f 163/621/65 370/598/54 161/622/65
f 370/598/54 367/595/52 161/622/65
f 161/622/65 367/595/52 159/623/65
f 367/595/52 366/594/50 159/623/65
f 159/623/65 366/594/50 157/624/65
f 366/594/50 378/606/128 157/624/65
f 157/624/65 378/606/128 152/625/65
f 382/626/37 383/627/38 384/628/117
f 384/628/117 383/627/38 385/629/132
f 383/627/38 386/630/40 385/629/132
f 385/629/132 386/630/40 387/631/133
f 386/630/40 388/632/29 387/631/133
f 387/631/133 388/632/29 389/633/134
f 388/632/29 390/634/28 389/633/134
f 389/633/134 390/634/28 391/635/135
f 390/634/28 392/636/30 391/635/135
f 391/635/135 392/636/30 393/637/112
f 394/638/136 382/626/37 395/639/137
f 382/626/37 384/628/117 395/639/137
f 395/639/137 384/628/117 95/640/1
f 95/640/1 384/628/117 110/641/1
f 384/628/117 385/629/132 110/641/1
f 110/641/1 385/629/132 108/642/1
f 385/629/132 387/631/133 108/642/1
f 108/642/1 387/631/133 106/643/1
f 387/631/133 389/633/134 106/643/1
f 106/643/1 389/633/134 104/644/1
f 389/633/134 391/635/135 104/644/1
f 104/644/1 391/635/135 102/645/1
f 391/635/135 393/637/112 102/645/1
f 102/645/1 393/637/112 100/646/1
f 98/647/1 100/646/1 396/648/138
f 100/646/1 393/637/112 396/648/138
f 396/648/138 393/637/112 397/649/139
f 393/637/112 392/636/30 397/649/139
f 397/649/139 392/636/30 189/650/65
f 189/650/65 392/636/30 187/651/65
f 392/636/30 390/634/28 187/651/65
f 187/651/65 390/634/28 185/652/65
f 390/634/28 388/632/29 185/652/65
f 185/652/65 388/632/29 183/653/65
f 388/632/29 386/630/40 183/653/65
f 183/653/65 386/630/40 181/654/65
f 386/630/40 383/627/38 181/654/65
f 181/654/65 383/627/38 179/655/65
f 383/627/38 382/626/37 179/655/65
f 179/655/65 382/626/37 177/656/65
f 382/626/37 394/638/136 177/656/65
f 177/656/65 394/638/136 172/657/65
f 398/658/43 399/659/45 400/660/127
f 400/660/127 399/659/45 401/661/140
f 399/659/45 402/662/46 401/661/140
f 401/661/140 402/662/46 403/663/141
f 402/662/46 404/664/47 403/663/141
f 403/663/141 404/664/47 405/665/142
f 404/664/47 406/666/48 405/665/142
f 405/665/142 406/666/48 407/667/143
f 406/666/48 408/668/50 407/667/143
f 407/667/143 408/668/50 409/669/122
f 410/670/144 398/658/43 411/671/145
f 398/658/43 400/660/127 411/671/145
f 411/671/145 400/660/127 215/672/1
f 215/672/1 400/660/127 230/673/1
f 400/660/127 401/661/140 230/673/1
f 230/673/1 401/661/140 228/674/1
f 401/661/140 403/663/141 228/674/1
f 228/674/1 403/663/141 226/675/1
f 403/663/141 405/665/142 226/675/1
f 226/675/1 405/665/142 224/676/1
f 405/665/142 407/667/143 224/676/1
f 224/676/1 407/667/143 222/677/1
f 407/667/143 409/669/122 222/677/1
f 222/677/1 409/669/122 220/678/1
f 218/679/1 220/678/1 412/680/146
f 220/678/1 409/669/122 412/680/146
f 412/680/146 409/669/122 413/681/147
f 409/669/122 408/668/50 413/681/147
f 413/681/147 408/668/50 149/682/65
f 149/682/65 408/668/50 147/683/65
f 408/668/50 406/666/48 147/683/65
f 147/683/65 406/666/48 145/684/65
f 406/666/48 404/664/47 145/684/65
f 145/684/65 404/664/47 143/685/65
f 404/664/47 402/662/46 143/685/65
f 143/685/65 402/662/46 141/686/65
f 402/662/46 399/659/45 141/686/65
f 141/686/65 399/659/45 139/687/65
f 399/659/45 398/658/43 139/687/65
f 139/687/65 398/658/43 137/688/65
f 398/658/43 410/670/144 137/688/65
f 137/688/65 410/670/144 132/689/65
